(footprint "096lcdconn-pins" (version 20221018) (generator pcbnew)
  (layer "F.Cu")
  (descr "Through hole straight socket strip, 2x04, 2.54mm pitch, double cols (from Kicad 4.0.7), script generated")
  (tags "Through hole socket strip THT 2x04 2.54mm double row")
  (property "Sheetfile" "096rgbips.kicad_sch")
  (property "Sheetname" "")
  (property "ki_description" "Generic connector, double row, 02x04, odd/even pin numbering scheme (row 1 odd numbers, row 2 even numbers), script generated (kicad-library-utils/schlib/autogen/connector/)")
  (property "ki_keywords" "connector")
  (attr through_hole)
  (fp_text reference "J2" (at -1.3 -1.84) (layer "F.SilkS")
      (effects (font (size 0.75 0.75) (thickness 0.1)))
    (tstamp ba035317-8892-42f9-aa67-d649f2ef56dd)
  )
  (fp_text value "socket" (at -1.27 10.39) (layer "F.Fab")
      (effects (font (size 1 1) (thickness 0.15)))
    (tstamp 37ac3bcd-5dc2-49d0-8a5d-9579b4d23935)
  )
  (fp_text user "dc" (at 3.97 5.16 unlocked) (layer "B.SilkS")
      (effects (font (size 0.75 0.75) (thickness 0.1)) (justify left bottom mirror))
    (tstamp 00a980d3-2052-47c6-9e75-0257f7134508)
  )
  (fp_text user "disp" (at 4.28 8.19 unlocked) (layer "B.SilkS")
      (effects (font (size 0.6 0.6) (thickness 0.1)) (justify left bottom mirror))
    (tstamp 0a8c80a1-1fba-44e2-884e-373cfdeeb3fd)
  )
  (fp_text user "3V3" (at 6.67 0.41 unlocked) (layer "B.SilkS")
      (effects (font (size 0.75 0.75) (thickness 0.1)) (justify left bottom mirror))
    (tstamp 39c39da0-1d35-42df-815c-0bf30a349ad5)
  )
  (fp_text user "7" (at -2.19 -1.34 unlocked) (layer "B.SilkS")
      (effects (font (size 0.75 0.75) (thickness 0.1)) (justify left bottom mirror))
    (tstamp 3cdf9cd1-d593-4522-bf0c-97af4a5b1006)
  )
  (fp_text user "sclk" (at 4.21 2.02 unlocked) (layer "B.SilkS")
      (effects (font (size 0.6 0.6) (thickness 0.1)) (justify left bottom mirror))
    (tstamp 3d68e24f-de18-4cee-849c-7fc7a085f307)
  )
  (fp_text user "scl" (at 4.22 3.1 unlocked) (layer "B.SilkS")
      (effects (font (size 0.75 0.75) (thickness 0.1)) (justify left bottom mirror))
    (tstamp 498bfb59-c9b5-430a-9215-50eeb32d0051)
  )
  (fp_text user "cs" (at 6.35 5.16 unlocked) (layer "B.SilkS")
      (effects (font (size 0.75 0.75) (thickness 0.1)) (justify left bottom mirror))
    (tstamp 58bdb0fe-8596-41f4-902c-3ce172dae6cc)
  )
  (fp_text user "gnd " (at 4.25 0.41 unlocked) (layer "B.SilkS")
      (effects (font (size 0.75 0.75) (thickness 0.1)) (justify left bottom mirror))
    (tstamp 5b332973-d8ee-473b-8464-51e40b02c658)
  )
  (fp_text user "8" (at 0.37 -1.35 unlocked) (layer "B.SilkS")
      (effects (font (size 0.75 0.75) (thickness 0.1)) (justify left bottom mirror))
    (tstamp 5f457815-71d0-43d4-90b5-44eb983a65d9)
  )
  (fp_text user "sda" (at 6.65 3.14 unlocked) (layer "B.SilkS")
      (effects (font (size 0.75 0.75) (thickness 0.1)) (justify left bottom mirror))
    (tstamp 64208cc6-9dae-4c8c-bc42-421e551dee9d)
  )
  (fp_text user "busy" (at 4.34 6.61 unlocked) (layer "B.SilkS")
      (effects (font (size 0.6 0.6) (thickness 0.1)) (justify left bottom mirror))
    (tstamp 6559b93b-b9fb-4077-b629-66172e8929b5)
  )
  (fp_text user "mosi" (at 6.71 2.02 unlocked) (layer "B.SilkS")
      (effects (font (size 0.6 0.6) (thickness 0.1)) (justify left bottom mirror))
    (tstamp 98ec71ac-f538-4afb-8f88-1a8e6932fa9d)
  )
  (fp_text user "rst" (at 6.52 7.38 unlocked) (layer "B.SilkS")
      (effects (font (size 0.75 0.75) (thickness 0.1)) (justify left bottom mirror))
    (tstamp aee93cc2-70d4-4b4f-9e9c-c194d75c312d)
  )
  (fp_text user "1" (at -2.23 9.9 unlocked) (layer "B.SilkS")
      (effects (font (size 0.75 0.75) (thickness 0.1)) (justify left bottom mirror))
    (tstamp b16d28f1-b646-45e8-bb3e-bceafa761dab)
  )
  (fp_text user "blk" (at 4.06 7.45 unlocked) (layer "B.SilkS")
      (effects (font (size 0.6 0.6) (thickness 0.1)) (justify left bottom mirror))
    (tstamp bc870ba5-1749-4fde-8ca5-f0ea11f9366d)
  )
  (fp_text user "2" (at 0.44 10.02 unlocked) (layer "B.SilkS")
      (effects (font (size 0.75 0.75) (thickness 0.1)) (justify left bottom mirror))
    (tstamp f3f8f38b-61b8-46d4-9bcd-9724b2910f81)
  )
  (fp_text user "3V3" (at 4.54 0.44 unlocked) (layer "F.SilkS")
      (effects (font (size 0.75 0.75) (thickness 0.1)) (justify left bottom))
    (tstamp 0674888b-a93c-4eef-9916-2250931f7134)
  )
  (fp_text user "7" (at -2.93 -1.36 unlocked) (layer "F.SilkS")
      (effects (font (size 0.75 0.75) (thickness 0.1)) (justify left bottom))
    (tstamp 2b631f5c-835b-46e3-940b-03dab8ea06a6)
  )
  (fp_text user "sda" (at 4.65 3.14 unlocked) (layer "F.SilkS")
      (effects (font (size 0.75 0.75) (thickness 0.1)) (justify left bottom))
    (tstamp 2be3e352-ea25-4f1a-8e5f-7ae777b7608b)
  )
  (fp_text user "blk" (at 2.57 7.41 unlocked) (layer "F.SilkS")
      (effects (font (size 0.6 0.6) (thickness 0.1)) (justify left bottom))
    (tstamp 484a737a-7309-4b1b-907b-21f7aad28b73)
  )
  (fp_text user "1" (at -2.99 9.89 unlocked) (layer "F.SilkS")
      (effects (font (size 0.75 0.75) (thickness 0.1)) (justify left bottom))
    (tstamp 4ed45749-0d21-4788-95b1-c1d7124ef7b7)
  )
  (fp_text user "mosi" (at 4.48 2.04 unlocked) (layer "F.SilkS")
      (effects (font (size 0.6 0.6) (thickness 0.1)) (justify left bottom))
    (tstamp 57e8f5d4-befb-4d27-adbe-568ed307bbcd)
  )
  (fp_text user "disp" (at 2.32 8.19 unlocked) (layer "F.SilkS")
      (effects (font (size 0.6 0.6) (thickness 0.1)) (justify left bottom))
    (tstamp 69dca9de-abd9-4854-ae2a-0d7a23fa4f5a)
  )
  (fp_text user "dc" (at 2.55 5.16 unlocked) (layer "F.SilkS")
      (effects (font (size 0.75 0.75) (thickness 0.1)) (justify left bottom))
    (tstamp 7080aa1f-ece8-4927-9e90-826a28c302c1)
  )
  (fp_text user "cs" (at 4.98 5.14 unlocked) (layer "F.SilkS")
      (effects (font (size 0.75 0.75) (thickness 0.1)) (justify left bottom))
    (tstamp 7f80ca3a-6678-44f3-ba48-93244fa8ad01)
  )
  (fp_text user "2" (at -0.37 10.02 unlocked) (layer "F.SilkS")
      (effects (font (size 0.75 0.75) (thickness 0.1)) (justify left bottom))
    (tstamp 88208e70-264f-4130-bd4f-286f9134ff71)
  )
  (fp_text user "sclk" (at 2.34 2.05 unlocked) (layer "F.SilkS")
      (effects (font (size 0.6 0.6) (thickness 0.1)) (justify left bottom))
    (tstamp 8e588ebb-3fbe-428e-af96-53e87efe109a)
  )
  (fp_text user "rst" (at 4.9 7.38 unlocked) (layer "F.SilkS")
      (effects (font (size 0.75 0.75) (thickness 0.1)) (justify left bottom))
    (tstamp 97f025aa-a3f7-49ce-b696-b145403dde7f)
  )
  (fp_text user "busy" (at 2.25 6.63 unlocked) (layer "F.SilkS")
      (effects (font (size 0.6 0.6) (thickness 0.1)) (justify left bottom))
    (tstamp ba5d5ac7-b357-4612-9430-df746ff82b18)
  )
  (fp_text user "8" (at -0.46 -1.37 unlocked) (layer "F.SilkS")
      (effects (font (size 0.75 0.75) (thickness 0.1)) (justify left bottom))
    (tstamp ded8a760-7f3a-4ad2-8bdf-f6304ffe82fa)
  )
  (fp_text user "gnd " (at 2.12 0.39 unlocked) (layer "F.SilkS")
      (effects (font (size 0.75 0.75) (thickness 0.1)) (justify left bottom))
    (tstamp e3fc3602-119a-4131-91c1-7d8ca608152a)
  )
  (fp_text user "scl" (at 2.39 3.11 unlocked) (layer "F.SilkS")
      (effects (font (size 0.75 0.75) (thickness 0.1)) (justify left bottom))
    (tstamp f1219afd-4ec5-4dfa-a5f0-0612a01b6677)
  )
  (fp_text user "${REFERENCE}" (at -1.31 3.79 -90) (layer "F.Fab")
      (effects (font (size 1 1) (thickness 0.15)))
    (tstamp 255b7ac4-a369-4007-b295-20afafd06d04)
  )
  (fp_line (start 2.06 0.76) (end 6.79 0.76)
    (stroke (width 0.1) (type default)) (layer "B.SilkS") (tstamp d023ee96-f171-48f1-8869-4712bb07dc20))
  (fp_line (start 2.09 3.845) (end 6.78 3.845)
    (stroke (width 0.1) (type default)) (layer "B.SilkS") (tstamp 4c3b5b4d-5378-4adf-be58-e3d437895d21))
  (fp_line (start 2.09 5.79) (end 6.71 5.79)
    (stroke (width 0.1) (type default)) (layer "B.SilkS") (tstamp 9b02b09a-65ff-47cd-9b4f-9dec627c7729))
  (fp_line (start 4.435 -0.78) (end 4.435 8.47)
    (stroke (width 0.1) (type default)) (layer "B.SilkS") (tstamp 811c7e12-4125-4d4f-8923-f4caa9e67fc2))
  (fp_rect (start 2.09 -0.78) (end 6.78 8.47)
    (stroke (width 0.1) (type default)) (fill none) (layer "B.SilkS") (tstamp 51d38c9c-9130-4b31-9563-92bb57a52e65))
  (fp_line (start 2.06 0.76) (end 6.79 0.76)
    (stroke (width 0.1) (type default)) (layer "F.SilkS") (tstamp 63152f25-62eb-4e3e-ad2d-ef4938bd52cd))
  (fp_line (start 2.09 3.845) (end 6.78 3.845)
    (stroke (width 0.1) (type default)) (layer "F.SilkS") (tstamp 750543a0-e36a-4b69-884f-6f854ee2e60d))
  (fp_line (start 2.09 5.79) (end 6.71 5.79)
    (stroke (width 0.1) (type default)) (layer "F.SilkS") (tstamp 5187fe08-47dc-4f04-9f58-7b8b93a54303))
  (fp_line (start 4.435 -0.78) (end 4.435 8.47)
    (stroke (width 0.1) (type default)) (layer "F.SilkS") (tstamp 37381f0b-471b-4100-8f7a-ca8269458cab))
  (fp_rect (start 2.09 -0.78) (end 6.78 8.47)
    (stroke (width 0.1) (type default)) (fill none) (layer "F.SilkS") (tstamp c2442acb-5a56-464b-9b80-38c12e3ca73c))
  (fp_line (start -4.34 -1.8) (end 1.76 -1.8)
    (stroke (width 0.05) (type solid)) (layer "F.CrtYd") (tstamp d37ee6f6-5c2f-43b0-b653-ebd7e4959248))
  (fp_line (start -4.34 9.4) (end -4.34 -1.8)
    (stroke (width 0.05) (type solid)) (layer "F.CrtYd") (tstamp 399114ad-03c3-4eb8-baa6-5c6b8d57f655))
  (fp_line (start 1.76 -1.8) (end 1.76 9.4)
    (stroke (width 0.05) (type solid)) (layer "F.CrtYd") (tstamp 1b6bdd0d-3f4c-402e-8f20-e66f617610b4))
  (fp_line (start 1.76 9.4) (end -4.34 9.4)
    (stroke (width 0.05) (type solid)) (layer "F.CrtYd") (tstamp 9dad0b61-6133-48c5-886d-8d1e134a8e4d))
  (fp_line (start -3.85 -1.29) (end 1.23 -1.29)
    (stroke (width 0.1) (type solid)) (layer "F.Fab") (tstamp abe5d811-ef1f-4663-96fc-126b02c1aac4))
  (fp_line (start -3.85 8.87) (end -3.85 -1.29)
    (stroke (width 0.1) (type solid)) (layer "F.Fab") (tstamp 8342ba55-56b9-4066-8a34-d60bcf4f7d57))
  (fp_line (start 1.23 -1.29) (end 1.23 8.87)
    (stroke (width 0.1) (type solid)) (layer "F.Fab") (tstamp 0b013976-82ff-40dd-9753-fdba70715906))
  (fp_line (start 1.23 8.87) (end -3.85 8.87)
    (stroke (width 0.1) (type solid)) (layer "F.Fab") (tstamp 59c9ea40-81ea-49a9-8351-eba181c86f0d))
  (pad "1" thru_hole circle (at -2.58 7.6 180) (size 1.397 1.397) (drill 0.8128) (layers "*.Cu" "*.Mask") (tstamp 6a2a89e8-3b5d-41f3-9570-984881a7b229))
  (pad "2" thru_hole circle (at -0.04 7.6 180) (size 1.397 1.397) (drill 0.8128) (layers "*.Cu" "*.Mask") (tstamp 22399333-f1eb-43fa-ab33-6e3844989491))
  (pad "3" thru_hole circle (at -2.58 5.06 180) (size 1.397 1.397) (drill 0.8128) (layers "*.Cu" "*.Mask") (tstamp 64be33e0-5f57-433a-a4df-01c6dad5aca2))
  (pad "4" thru_hole circle (at -0.04 5.06 180) (size 1.397 1.397) (drill 0.8128) (layers "*.Cu" "*.Mask") (tstamp 113112a1-e087-40f1-965b-13ce049d3f28))
  (pad "5" thru_hole circle (at -2.58 2.52 180) (size 1.397 1.397) (drill 0.8128) (layers "*.Cu" "*.Mask") (tstamp ca7dba89-917f-4071-a257-e08076a2acf2))
  (pad "6" thru_hole circle (at -0.04 2.52 180) (size 1.397 1.397) (drill 0.8128) (layers "*.Cu" "*.Mask") (tstamp 7c93939a-3c98-4a54-8a02-64cf4e8837ff))
  (pad "7" thru_hole roundrect (at -2.58 -0.02 180) (size 1.397 1.397) (drill 0.8128) (layers "*.Cu" "*.Mask") (roundrect_rratio 0.25) (tstamp 966eabdb-7eb2-440c-80d7-ccd04df81078))
  (pad "8" thru_hole circle (at -0.04 -0.02 180) (size 1.397 1.397) (drill 0.8128) (layers "*.Cu" "*.Mask") (tstamp 18e03d42-4ee8-4e20-bb5a-1e2f11e48e46))
  (model "/home/drFaustroll/playground/keyboard/m65/m65-pcb/packages3d/mill-max-800-90-008-10-002000.STEP"
    (offset (xyz 1.27 -8.5 -1.7))
    (scale (xyz 1 1 1))
    (rotate (xyz 90 -180 90))
  )
)
