(footprint "74AHC1G125-sot23-v2" (version 20221018) (generator pcbnew)
  (layer "F.Cu")
  (descr "5-pin SOT23 package")
  (tags "SOT-23-5 hand-soldering")
  (property "Field5" "")
  (property "LCSC" "C7468")
  (property "Sheetfile" "m65.kicad_sch")
  (property "Sheetname" "")
  (property "ki_description" "Single Buffer Gate Tri-State, Low-Voltage CMOS")
  (property "ki_keywords" "Single Gate Buff Tri-State LVC CMOS")
  (attr smd)
  (fp_text reference "U5" (at 3.05 0.06 180) (layer "F.SilkS")
      (effects (font (size 0.5 0.5) (thickness 0.125)))
    (tstamp ac75fb3f-9738-4064-9076-5185f8e37212)
  )
  (fp_text value "74AHC1G125" (at 0.06 2.33 180) (layer "F.SilkS")
      (effects (font (size 0.5 0.5) (thickness 0.125)))
    (tstamp 8c0adb10-8f16-4292-9266-1d7f24ac199c)
  )
  (fp_text user "${VALUE}" (at -0.09 2.32 -180) (layer "B.SilkS")
      (effects (font (size 0.5 0.5) (thickness 0.125)) (justify mirror))
    (tstamp 1ba335ae-4c99-4e8a-a1c5-055785795e0e)
  )
  (fp_text user "A" (at -2.48 0.26 unlocked) (layer "B.SilkS")
      (effects (font (size 0.5 0.5) (thickness 0.1)) (justify left bottom mirror))
    (tstamp 47259ee0-70f3-4440-98e5-8f63bebf5058)
  )
  (fp_text user "VCC" (at 2.5 -0.7 unlocked) (layer "F.SilkS")
      (effects (font (size 0.5 0.5) (thickness 0.1)) (justify left bottom))
    (tstamp 254d25fd-6ff4-4386-b930-3930ac84176f)
  )
  (fp_text user "A" (at -3.01 0.25 unlocked) (layer "F.SilkS")
      (effects (font (size 0.5 0.5) (thickness 0.1)) (justify left bottom))
    (tstamp 29b7bc4f-6275-4cf7-b145-9222468608f0)
  )
  (fp_text user "Y" (at 2.5 1.2 unlocked) (layer "F.SilkS")
      (effects (font (size 0.5 0.5) (thickness 0.1)) (justify left bottom))
    (tstamp 4624d6a3-b368-43c5-aea5-998a9ce301ed)
  )
  (fp_text user "~{OE}" (at -3.5 -0.7 unlocked) (layer "F.SilkS")
      (effects (font (size 0.5 0.5) (thickness 0.1)) (justify left bottom))
    (tstamp 5ecb712c-be64-4385-a095-b6346fbd8ecd)
  )
  (fp_text user "G" (at -2.9 1.2 unlocked) (layer "F.SilkS")
      (effects (font (size 0.5 0.5) (thickness 0.1)) (justify left bottom))
    (tstamp cc965e63-74bf-4f9f-b548-a2d0eb64cba2)
  )
  (fp_text user "${REFERENCE}" (at 0 0 90) (layer "F.Fab")
      (effects (font (size 0.5 0.5) (thickness 0.075)))
    (tstamp 5fc56da6-1d8b-462c-b425-8e8017e47fe5)
  )
  (fp_line (start -0.9 1.61) (end 0.9 1.61)
    (stroke (width 0.12) (type solid)) (layer "F.SilkS") (tstamp 46696451-55d0-45b3-bb2d-7ba0e273289e))
  (fp_line (start 0.9 -1.61) (end -1.55 -1.61)
    (stroke (width 0.12) (type solid)) (layer "F.SilkS") (tstamp 1fdd95a9-bd28-419b-aef4-d61d22a1076b))
  (fp_circle (center -1.6 -2.15) (end -1.45 -2.15)
    (stroke (width 0.1) (type solid)) (fill solid) (layer "F.SilkS") (tstamp 9058b9ad-94ab-4ddb-b2b6-a1463cf77406))
  (fp_line (start -2.38 -1.8) (end -2.38 1.8)
    (stroke (width 0.05) (type solid)) (layer "F.CrtYd") (tstamp 69e48a87-fc6a-40d6-87c3-9dd3676d40a8))
  (fp_line (start -2.38 -1.8) (end 2.38 -1.8)
    (stroke (width 0.05) (type solid)) (layer "F.CrtYd") (tstamp e4800de8-f148-4dee-b8e1-b7916ad77b72))
  (fp_line (start 2.38 1.8) (end -2.38 1.8)
    (stroke (width 0.05) (type solid)) (layer "F.CrtYd") (tstamp e9d17709-aaf6-4aee-890b-2a191cbcb527))
  (fp_line (start 2.38 1.8) (end 2.38 -1.8)
    (stroke (width 0.05) (type solid)) (layer "F.CrtYd") (tstamp 9b1fd255-be83-48ba-bf6b-d2e7eaf02d34))
  (fp_line (start -0.9 -0.9) (end -0.9 1.55)
    (stroke (width 0.1) (type solid)) (layer "F.Fab") (tstamp 2361eefc-54fa-4743-8871-1578a91cf6e3))
  (fp_line (start -0.9 -0.9) (end -0.25 -1.55)
    (stroke (width 0.1) (type solid)) (layer "F.Fab") (tstamp b333f624-1ac5-4f03-9973-6d61fcbb265c))
  (fp_line (start 0.9 -1.55) (end -0.25 -1.55)
    (stroke (width 0.1) (type solid)) (layer "F.Fab") (tstamp 8643c4f9-bbe4-4fb2-b663-2f76dca71a2d))
  (fp_line (start 0.9 -1.55) (end 0.9 1.55)
    (stroke (width 0.1) (type solid)) (layer "F.Fab") (tstamp 9b149505-f05c-4b3a-9ed5-5cba66446cbf))
  (fp_line (start 0.9 1.55) (end -0.9 1.55)
    (stroke (width 0.1) (type solid)) (layer "F.Fab") (tstamp 9ee784e5-f07a-4eca-8890-42dbfd9de8e9))
  (pad "1" smd rect (at -1.35 -0.95) (size 1.56 0.65) (layers "F.Cu" "F.Paste" "F.Mask") (tstamp 004b2a4e-98d9-4bf9-92a5-7cbec328432c))
  (pad "2" thru_hole circle (at -2.13 0) (size 0.5 0.5) (drill 0.3) (layers "*.Cu" "*.Mask") (tstamp e72143c9-bd5f-45e8-bf10-18ac465399b9))
  (pad "2" smd rect (at -1.35 0) (size 1.56 0.65) (layers "F.Cu" "F.Paste" "F.Mask") (tstamp 49825685-b871-4176-bc5e-4fdca7f04750))
  (pad "3" smd rect (at -1.35 0.95) (size 1.56 0.65) (layers "F.Cu" "F.Paste" "F.Mask") (tstamp c11a596f-48dc-40fe-8e97-fff58c353f14))
  (pad "4" smd rect (at 1.35 0.95) (size 1.56 0.65) (layers "F.Cu" "F.Paste" "F.Mask") (tstamp f93a0dba-584c-4fe9-b234-9bb7ccf5ee8d))
  (pad "5" smd rect (at 1.35 -0.95) (size 1.56 0.65) (layers "F.Cu" "F.Paste" "F.Mask") (tstamp 7beeee03-5e08-45b1-b0dc-c961b73b48f8))
  (model "${KICAD6_3DMODEL_DIR}/Package_TO_SOT_SMD.3dshapes/SOT-23-5.wrl"
    (offset (xyz 0 0 0))
    (scale (xyz 1 1 1))
    (rotate (xyz 0 0 0))
  )
)
