(footprint "C-dual" (version 20221018) (generator pcbnew)
  (layer "F.Cu")
  (descr "C, Disc series, Radial, pin pitch=2.50mm, , diameter*width=5*2.5mm^2, Capacitor, http://cdn-reichelt.de/documents/datenblatt/B300/DS_KERKO_TC.pdf")
  (tags "C Disc series Radial pin pitch 2.50mm  diameter 5mm width 2.5mm Capacitor")
  (property "Sheetfile" "m65.kicad_sch")
  (property "Sheetname" "")
  (attr smd)
  (fp_text reference "C**" (at 4.58 0 90) (layer "F.SilkS")
      (effects (font (size 0.5 0.5) (thickness 0.125)))
    (tstamp 75fb0b24-7e64-4927-b2df-497416cf3730)
  )
  (fp_text value "100nF" (at -2.04 0 90) (layer "F.SilkS")
      (effects (font (size 0.5 0.5) (thickness 0.125)))
    (tstamp b75924cc-cba7-41ca-b592-14b839cb42bf)
  )
  (fp_text user "${VALUE}" (at -2.04 0 90) (layer "B.SilkS")
      (effects (font (size 0.5 0.5) (thickness 0.125)) (justify mirror))
    (tstamp 5e109a96-b810-48b1-885e-a0ef15e57d5b)
  )
  (fp_text user "${REFERENCE}" (at 4.58 0 90) (layer "B.SilkS")
      (effects (font (size 0.5 0.5) (thickness 0.125)) (justify mirror))
    (tstamp 8cbc9d87-c5c5-4b6c-90c5-a1124d20f6e7)
  )
  (fp_text user "${REFERENCE}" (at 1.25 0) (layer "F.Fab")
      (effects (font (size 1 1) (thickness 0.15)))
    (tstamp 40ef27c5-3513-4008-ad76-c7dea3afe5de)
  )
  (fp_line (start -1.37 -2.1) (end -1.37 1.37)
    (stroke (width 0.12) (type solid)) (layer "B.SilkS") (tstamp b13f42f0-90d7-41b2-88b7-25a2b9ad037d))
  (fp_line (start -1.37 -2.1) (end 3.87 -2.1)
    (stroke (width 0.12) (type solid)) (layer "B.SilkS") (tstamp dd95149b-9eb3-4676-b6ba-ce126d98e605))
  (fp_line (start -1.37 1.37) (end 3.87 1.37)
    (stroke (width 0.12) (type solid)) (layer "B.SilkS") (tstamp 349ad9f4-e0fd-4db2-9289-114d675b3bca))
  (fp_line (start 3.87 -2.1) (end 3.87 1.37)
    (stroke (width 0.12) (type solid)) (layer "B.SilkS") (tstamp a1c1122c-5894-4270-98e4-31a0d9c8dfc6))
  (fp_line (start -1.37 -2.1) (end -1.37 1.37)
    (stroke (width 0.12) (type solid)) (layer "F.SilkS") (tstamp eec37c42-b653-4d0f-aaa8-8662639f2901))
  (fp_line (start -1.37 -2.1) (end 3.87 -2.1)
    (stroke (width 0.12) (type solid)) (layer "F.SilkS") (tstamp 7da1f6d0-bef7-42b9-8e0b-5188a702fda2))
  (fp_line (start -1.37 1.37) (end 3.87 1.37)
    (stroke (width 0.12) (type solid)) (layer "F.SilkS") (tstamp 4d16faf3-babd-44ff-82b0-dd24584409a3))
  (fp_line (start 3.87 -2.1) (end 3.87 1.37)
    (stroke (width 0.12) (type solid)) (layer "F.SilkS") (tstamp 843341fe-bc82-4216-9793-21483b284280))
  (fp_line (start -1.5 -2.2) (end -1.5 1.5)
    (stroke (width 0.05) (type solid)) (layer "F.CrtYd") (tstamp 00bf92f8-481e-4326-aaeb-e488c1396369))
  (fp_line (start -1.5 1.5) (end 4 1.5)
    (stroke (width 0.05) (type solid)) (layer "F.CrtYd") (tstamp dc833b1a-9ea7-4f23-97bc-3c8950271ef7))
  (fp_line (start 4 -2.2) (end -1.5 -2.2)
    (stroke (width 0.05) (type solid)) (layer "F.CrtYd") (tstamp 9e2e0ab5-7da0-495a-9de9-402f67e609bd))
  (fp_line (start 4 1.5) (end 4 -2.2)
    (stroke (width 0.05) (type solid)) (layer "F.CrtYd") (tstamp 520c4459-c654-4b70-a379-f8e327ee6aad))
  (fp_line (start -1.25 -2) (end -1.25 1.25)
    (stroke (width 0.1) (type solid)) (layer "F.Fab") (tstamp b92dd1c5-e3b4-47a6-8096-56265ef092a2))
  (fp_line (start -1.25 1.25) (end 3.75 1.25)
    (stroke (width 0.1) (type solid)) (layer "F.Fab") (tstamp 1d72331a-a494-479e-9cf8-1532fe12215b))
  (fp_line (start 3.75 -2) (end -1.25 -2)
    (stroke (width 0.1) (type solid)) (layer "F.Fab") (tstamp 0bfe52ed-356f-4f32-befb-48672fa04aab))
  (fp_line (start 3.75 1.25) (end 3.75 -2)
    (stroke (width 0.1) (type solid)) (layer "F.Fab") (tstamp 1f083fc9-d3b1-42dd-8a79-90379c237dc0))
  (pad "1" smd roundrect (at -0.425 -1) (size 1.325 1.8) (layers "F.Cu" "F.Paste" "F.Mask") (roundrect_rratio 0.188679) (tstamp 9e8d7a1e-78f9-42d2-9976-34a4fdfa6773))
  (pad "1" smd roundrect (at -0.425 -1) (size 1.325 1.8) (layers "B.Cu" "B.Paste" "B.Mask") (roundrect_rratio 0.188679) (tstamp b09e29ea-5735-4464-b22e-11aeb48bcbf7))
  (pad "1" thru_hole circle (at 0 0.3) (size 1.6 1.6) (drill 0.8) (layers "*.Cu" "*.Mask") (tstamp a9cbbd2f-dbe4-4788-b72e-c82ee88f6fec))
  (pad "2" thru_hole circle (at 2.5 0.3) (size 1.6 1.6) (drill 0.8) (layers "*.Cu" "*.Mask") (tstamp 46d98958-66a8-4937-9142-6c77d680218c))
  (pad "2" smd roundrect (at 2.7 -1) (size 1.325 1.8) (layers "F.Cu" "F.Paste" "F.Mask") (roundrect_rratio 0.188679) (tstamp ab04fce9-4565-4bc4-bfa2-69e15673e2f4))
  (pad "2" smd roundrect (at 2.7 -1) (size 1.325 1.8) (layers "B.Cu" "B.Paste" "B.Mask") (roundrect_rratio 0.188679) (tstamp fbdf27ee-1a6f-4434-809a-424bce6e15dd))
  (model "${KICAD6_3DMODEL_DIR}/Capacitor_THT.3dshapes/C_Disc_D5.0mm_W2.5mm_P2.50mm.wrl"
    (offset (xyz 0 0 0))
    (scale (xyz 1 1 1))
    (rotate (xyz 0 0 0))
  )
  (model "${KICAD6_3DMODEL_DIR}/Capacitor_SMD.3dshapes/C_1206_3216Metric.wrl"
    (offset (xyz 1.2 1 -3.35))
    (scale (xyz 1 1 1))
    (rotate (xyz 0 0 0))
  )
)
