(footprint "C_0805_2012Metric_Pad1.18x1.45mm_HandSolder" (version 20221018) (generator pcbnew)
  (layer "F.Cu")
  (descr "Capacitor SMD 0805 (2012 Metric), square (rectangular) end terminal, IPC_7351 nominal with elongated pad for handsoldering. (Body size source: IPC-SM-782 page 76, https://www.pcb-3d.com/wordpress/wp-content/uploads/ipc-sm-782a_amendment_1_and_2.pdf, https://docs.google.com/spreadsheets/d/1BsfQQcO9C6DZCsRaXUlFlo91Tg2WpOkGARC1WS5S8t0/edit?usp=sharing), generated with kicad-footprint-generator")
  (tags "capacitor handsolder")
  (property "LCSC" "C1779")
  (property "Sheetfile" "m65.kicad_sch")
  (property "Sheetname" "")
  (property "ki_description" "Unpolarized capacitor, small symbol")
  (property "ki_keywords" "capacitor cap")
  (attr smd)
  (fp_text reference "C6" (at 4 0.1 180) (layer "F.SilkS")
      (effects (font (size 0.7 0.7) (thickness 0.15)))
    (tstamp 047e8efc-ee5d-41b4-80fc-5d2506faaadd)
  )
  (fp_text value "4.7µF" (at 0 1.68 -180) (layer "F.Fab")
      (effects (font (size 1 1) (thickness 0.15)))
    (tstamp 288ea72e-27da-4aa3-a18c-8be14135eee3)
  )
  (fp_text user "${REFERENCE}" (at 0 0 -180) (layer "F.Fab")
      (effects (font (size 0.5 0.5) (thickness 0.08)))
    (tstamp b3cfc457-005a-4214-b1c7-f1d4325b2317)
  )
  (fp_line (start -0.261252 -0.735) (end 0.261252 -0.735)
    (stroke (width 0.12) (type solid)) (layer "F.SilkS") (tstamp 445e3dfe-c94b-4e50-ab4a-0f5d824ac4ab))
  (fp_line (start -0.261252 0.735) (end 0.261252 0.735)
    (stroke (width 0.12) (type solid)) (layer "F.SilkS") (tstamp 0bf67f6e-0e80-4e6e-8f93-da05a5f3d79e))
  (fp_line (start -3 -0.98) (end 3 -0.98)
    (stroke (width 0.05) (type solid)) (layer "F.CrtYd") (tstamp 20b32cbc-0cac-4e9a-942d-9c0b94fcb6ed))
  (fp_line (start -3 0.98) (end -3 -0.98)
    (stroke (width 0.05) (type solid)) (layer "F.CrtYd") (tstamp d146818d-8302-473d-99f1-4635d2cadf0b))
  (fp_line (start 3 -0.98) (end 3 0.98)
    (stroke (width 0.05) (type solid)) (layer "F.CrtYd") (tstamp ba02d721-455d-495e-8f2a-665117568477))
  (fp_line (start 3 0.98) (end -3 0.98)
    (stroke (width 0.05) (type solid)) (layer "F.CrtYd") (tstamp 9e0e5007-3deb-45ec-95b4-921490a69542))
  (fp_line (start -1 -0.625) (end 1 -0.625)
    (stroke (width 0.1) (type solid)) (layer "F.Fab") (tstamp 688fad75-4a6f-4802-83f9-63ec3a8d2f58))
  (fp_line (start -1 0.625) (end -1 -0.625)
    (stroke (width 0.1) (type solid)) (layer "F.Fab") (tstamp 30d771ca-2096-42a4-813c-e78931a1fd84))
  (fp_line (start 1 -0.625) (end 1 0.625)
    (stroke (width 0.1) (type solid)) (layer "F.Fab") (tstamp 0c44b50b-a22d-417f-a1a0-24159468f68a))
  (fp_line (start 1 0.625) (end -1 0.625)
    (stroke (width 0.1) (type solid)) (layer "F.Fab") (tstamp e404fc38-c5c7-4671-846b-25c2c39b3590))
  (pad "1" thru_hole circle (at -2.54 0) (size 0.5 0.5) (drill 0.3) (layers "*.Cu" "*.Mask") (tstamp f380d16a-c3e2-4cfe-89e4-9de86976e71e))
  (pad "1" smd roundrect (at -1.495 0) (size 2.09 1.45) (layers "F.Cu" "F.Paste" "F.Mask") (roundrect_rratio 0.212766) (tstamp 96fb9d2f-d5f5-40f7-b6a2-1ebbd958525e))
  (pad "2" smd roundrect (at 1.495 0) (size 2.09 1.45) (layers "F.Cu" "F.Paste" "F.Mask") (roundrect_rratio 0.212766) (tstamp e2ca4561-8720-4d4b-b318-2e4b1161c606))
  (pad "2" thru_hole circle (at 2.54 0) (size 0.5 0.5) (drill 0.3) (layers "*.Cu" "*.Mask") (tstamp 4257a77a-aa20-4f9c-a36c-c2fe599d2bcf))
  (model "${KICAD6_3DMODEL_DIR}/Capacitor_SMD.3dshapes/C_0805_2012Metric.wrl"
    (offset (xyz 0 0 0))
    (scale (xyz 1 1 1))
    (rotate (xyz 0 0 0))
  )
)
