(footprint "CherryMX-ledTHT" (version 20211014) (generator pcbnew)
  (layer "F.Cu")
  (tedit 5F85C937)
  (attr through_hole)
  (fp_text reference "SW*" (at 5.1 7.95 180) (layer "Dwgs.User") hide
    (effects (font (size 1 1) (thickness 0.15)))
    (tstamp b7cb9c4f-457c-4899-9e47-c2c912dfafde)
  )
  (fp_text value "SW_PUSH" (at 0 7.9 180) (layer "Dwgs.User") hide
    (effects (font (size 1 1) (thickness 0.15)))
    (tstamp 24e9e66e-d01f-4e2c-9418-213ee52f490e)
  )
  (fp_text user "R" (at 0.87 -2.81 unlocked) (layer "B.SilkS")
    (effects (font (size 1 1) (thickness 0.15)) (justify mirror))
    (tstamp 56a3c3bd-7e83-4687-a99d-52434c97b75d)
  )
  (fp_text user "C" (at -8.66 -2.94 unlocked) (layer "B.SilkS")
    (effects (font (size 1 1) (thickness 0.15)) (justify mirror))
    (tstamp 74efc2aa-1e30-4407-8c30-9e87e385bf23)
  )
  (fp_text user "${REFERENCE}" (at -4.75 -2.94 unlocked) (layer "B.SilkS")
    (effects (font (size 1 1) (thickness 0.15)) (justify mirror))
    (tstamp 85f399f4-0952-4d35-9b2b-5f3616d8fe07)
  )
  (fp_text user "C" (at -7.76 -2.91 unlocked) (layer "F.SilkS")
    (effects (font (size 1 1) (thickness 0.15)))
    (tstamp 75596b5d-c738-49b7-b820-cda0e57bfe1c)
  )
  (fp_text user "R" (at 1.778 -2.82 unlocked) (layer "F.SilkS")
    (effects (font (size 1 1) (thickness 0.15)))
    (tstamp b42c18c8-94f3-4be1-85a7-dec13ac9bf46)
  )
  (fp_text user "${REFERENCE}" (at -2.94 -2.92 unlocked) (layer "F.SilkS")
    (effects (font (size 1 1) (thickness 0.15)))
    (tstamp d0c18b61-d6b3-48e0-a8c9-3b8fb551acc7)
  )
  (fp_text user "${REFERENCE}" (at -2.24 13.28 unlocked) (layer "F.Fab")
    (effects (font (size 1 1) (thickness 0.15)))
    (tstamp 779fa4e4-fdaa-419c-8332-fd4eff880776)
  )
  (fp_line (start -9.525 12.039) (end -9.525 -1.931) (layer "F.SilkS") (width 0.12) (tstamp 00e7d9e8-cf85-4e13-98ba-15262eeadf2c))
  (fp_line (start -9.525 -1.931) (end 4.445 -1.931) (layer "F.SilkS") (width 0.12) (tstamp 2fd414c4-0151-4d2f-9bb7-022d6a075260))
  (fp_line (start -6.858 1.244) (end -7.874 -2.058) (layer "F.SilkS") (width 0.12) (tstamp 3c63d63c-1fea-4845-9f5b-43168c386ebe))
  (fp_line (start 4.445 -1.931) (end 4.445 12.039) (layer "F.SilkS") (width 0.12) (tstamp 7f2fbcd9-d469-4b09-b40e-5802f2ad4b62))
  (fp_line (start 1.778 -2.312) (end 1 -1.37) (layer "F.SilkS") (width 0.12) (tstamp 9f2fca1d-e9d1-40c3-aa42-462c46b0b6d0))
  (fp_line (start 4.445 12.039) (end -9.525 12.039) (layer "F.SilkS") (width 0.12) (tstamp e23cba59-fc89-4f7e-9d15-b17f1f6b22d7))
  (fp_line (start 4.46 12.08) (end 4.46 11.08) (layer "Dwgs.User") (width 0.15) (tstamp 18bf1f9e-fab6-48f0-b962-651512755af3))
  (fp_line (start -9.54 -0.92) (end -9.54 -1.92) (layer "Dwgs.User") (width 0.15) (tstamp 1e4c058f-58d1-4b84-96ae-98641774f0cc))
  (fp_line (start -12.065 14.605) (end -12.065 -4.445) (layer "Dwgs.User") (width 0.15) (tstamp 2f5ea405-49d3-41d0-8c86-24d376667370))
  (fp_line (start 6.985 14.605) (end -12.065 14.605) (layer "Dwgs.User") (width 0.15) (tstamp 3ea45ce3-898e-4ef9-a530-16f916ab9a5c))
  (fp_line (start 6.985 -4.445) (end 6.985 14.605) (layer "Dwgs.User") (width 0.15) (tstamp 69679be9-d5b3-4c11-b42c-fc259989ff0b))
  (fp_line (start -9.54 -1.92) (end -8.54 -1.92) (layer "Dwgs.User") (width 0.15) (tstamp b65d0ec1-5c80-4599-9ea7-2825457a099e))
  (fp_line (start 3.46 12.08) (end 4.46 12.08) (layer "Dwgs.User") (width 0.15) (tstamp d0db8e39-f761-4779-bef7-41d9edafe766))
  (fp_line (start -12.065 -4.445) (end 6.985 -4.445) (layer "Dwgs.User") (width 0.15) (tstamp e6bba986-be9d-4397-ae35-f26784bca933))
  (pad "" np_thru_hole circle (at 2.54 5.08) (size 1.7 1.7) (drill 1.7) (layers *.Cu *.Mask) (tstamp 819cc984-a26b-41c1-b0b9-9adee8fd16e5))
  (pad "" np_thru_hole circle (at -2.54 5.08 90) (size 4.9 4.9) (drill 4.9) (layers *.Cu *.Mask) (tstamp 85ba3a1f-1bb9-43b0-9bc3-f47bf5861960))
  (pad "" np_thru_hole circle (at -7.62 5.08) (size 1.7 1.7) (drill 1.7) (layers *.Cu *.Mask) (tstamp da150bf5-448a-414a-a73f-e4281b7fd766))
  (pad "1" thru_hole circle (at 0 0) (size 2.8 2.8) (drill 1.2) (layers *.Cu *.Mask) (tstamp 3cef7a49-ac2f-48a5-954f-9f238a9d3388))
  (pad "2" thru_hole circle (at -6.35 2.54) (size 2.4 2.4) (drill 1.2) (layers *.Cu *.Mask) (tstamp a0881cde-7148-44e7-848b-dd6dcd387fdb))
  (pad "3" thru_hole circle (at -3.81 10.16) (size 1.905 1.905) (drill 1.04) (layers *.Cu *.Mask) (tstamp 437cf11a-fc68-458f-a5c3-df82f2b151a1))
  (pad "4" thru_hole rect (at -1.27 10.16) (size 1.905 1.905) (drill 1.04) (layers *.Cu *.Mask) (tstamp eb0e2cd4-30b8-4e20-b565-864edece5bbc))
)
