(footprint "CP_EIA-3216-10_Kemet-I_Pad1.58x1.35mm_HandSolder"
	(version 20240108)
	(generator "pcbnew")
	(generator_version "8.0")
	(layer "F.Cu")
	(descr "Tantalum Capacitor SMD Kemet-I (3216-10 Metric), IPC_7351 nominal, (Body size from: http://www.kemet.com/Lists/ProductCatalog/Attachments/253/KEM_TC101_STD.pdf), generated with kicad-footprint-generator")
	(tags "capacitor tantalum")
	(property "Reference" "C7"
		(at -4 0.1 -90)
		(layer "F.SilkS")
		(uuid "4e10227a-f16d-4502-b46a-faacceac157a")
		(effects
			(font
				(size 0.7 0.7)
				(thickness 0.15)
			)
		)
	)
	(property "Value" "100µF"
		(at 0 1.75 180)
		(layer "F.Fab")
		(uuid "6b85154c-ff24-4615-a483-c752f8894890")
		(effects
			(font
				(size 1 1)
				(thickness 0.15)
			)
		)
	)
	(property "Footprint" ""
		(at 0 0 0)
		(unlocked yes)
		(layer "F.Fab")
		(hide yes)
		(uuid "aef3ba85-5d64-49cc-8dc2-0b3cb81bd915")
		(effects
			(font
				(size 1.27 1.27)
			)
		)
	)
	(property "Datasheet" ""
		(at 0 0 0)
		(unlocked yes)
		(layer "F.Fab")
		(hide yes)
		(uuid "132d4eea-3887-4b00-b4a7-2f24b9d630f8")
		(effects
			(font
				(size 1.27 1.27)
			)
		)
	)
	(property "Description" "Polarized capacitor, small symbol"
		(at 0 0 0)
		(unlocked yes)
		(layer "F.Fab")
		(hide yes)
		(uuid "37c710a8-2e96-4262-b727-0f092a4478b0")
		(effects
			(font
				(size 1.27 1.27)
			)
		)
	)
	(attr smd)
	(fp_line
		(start -3.3 -0.935)
		(end -3.3 0.935)
		(stroke
			(width 0.12)
			(type solid)
		)
		(layer "F.SilkS")
		(uuid "3386c9c2-1b20-4237-b61e-7ddab5a38170")
	)
	(fp_line
		(start -3.3 0.935)
		(end 1.6 0.935)
		(stroke
			(width 0.12)
			(type solid)
		)
		(layer "F.SilkS")
		(uuid "911a4ea1-d9b1-405c-995a-7df2511bd46f")
	)
	(fp_line
		(start -3.18 -0.935)
		(end -3.18 0.935)
		(stroke
			(width 0.12)
			(type solid)
		)
		(layer "F.SilkS")
		(uuid "bda24285-297b-4da1-9a71-2c50da672da3")
	)
	(fp_line
		(start -3.06 -0.935)
		(end -3.06 0.935)
		(stroke
			(width 0.12)
			(type solid)
		)
		(layer "F.SilkS")
		(uuid "f98ce733-ac20-4a6a-926b-c03be9e28d2d")
	)
	(fp_line
		(start -2.94 -0.935)
		(end -2.94 0.935)
		(stroke
			(width 0.12)
			(type solid)
		)
		(layer "F.SilkS")
		(uuid "cdc78b5e-8112-4a12-b996-66c9aa78c934")
	)
	(fp_line
		(start 1.6 -0.935)
		(end -3.3 -0.935)
		(stroke
			(width 0.12)
			(type solid)
		)
		(layer "F.SilkS")
		(uuid "e1ce944a-7a95-41b7-8226-b7bc11b10efb")
	)
	(fp_line
		(start -3.4 -1.05)
		(end 3.2 -1.05)
		(stroke
			(width 0.05)
			(type solid)
		)
		(layer "F.CrtYd")
		(uuid "5c42b799-ee28-44a4-b9b7-648c9eca82b2")
	)
	(fp_line
		(start -3.4 1.05)
		(end -3.4 -1.05)
		(stroke
			(width 0.05)
			(type solid)
		)
		(layer "F.CrtYd")
		(uuid "e137e619-d3b9-4060-9500-e0b4f6fe6f03")
	)
	(fp_line
		(start 3.2 -1.05)
		(end 3.2 1.05)
		(stroke
			(width 0.05)
			(type solid)
		)
		(layer "F.CrtYd")
		(uuid "455c93b1-f4a1-4ed7-95f9-e2aeabcc3fa4")
	)
	(fp_line
		(start 3.2 1.05)
		(end -3.4 1.05)
		(stroke
			(width 0.05)
			(type solid)
		)
		(layer "F.CrtYd")
		(uuid "b7c111f6-e22f-4338-b7f4-5c7f6028436b")
	)
	(fp_line
		(start -1.6 -0.4)
		(end -1.6 0.8)
		(stroke
			(width 0.1)
			(type solid)
		)
		(layer "F.Fab")
		(uuid "1b79a01b-7d6b-4f9c-a1f9-a49ffb48a95c")
	)
	(fp_line
		(start -1.6 0.8)
		(end 1.6 0.8)
		(stroke
			(width 0.1)
			(type solid)
		)
		(layer "F.Fab")
		(uuid "4a747e77-d110-4345-9e6e-7048c64b4f5b")
	)
	(fp_line
		(start -1.2 -0.8)
		(end -1.6 -0.4)
		(stroke
			(width 0.1)
			(type solid)
		)
		(layer "F.Fab")
		(uuid "4cfff115-63fb-4acc-b430-3b1c5f61cc7d")
	)
	(fp_line
		(start 1.6 -0.8)
		(end -1.2 -0.8)
		(stroke
			(width 0.1)
			(type solid)
		)
		(layer "F.Fab")
		(uuid "bc91b503-a9cc-4da0-aa74-f1017164c31b")
	)
	(fp_line
		(start 1.6 0.8)
		(end 1.6 -0.8)
		(stroke
			(width 0.1)
			(type solid)
		)
		(layer "F.Fab")
		(uuid "37c9dbd1-3821-4d33-a4c0-e1d3218ef57d")
	)
	(fp_text user "${VALUE}"
		(at 3.7 -0.05 -90)
		(layer "F.SilkS")
		(uuid "7fbdb766-feb7-4492-99e9-dd559481d727")
		(effects
			(font
				(size 0.5 0.5)
				(thickness 0.125)
			)
		)
	)
	(fp_text user "+"
		(at -3.6 -1.15 0)
		(unlocked yes)
		(layer "F.SilkS")
		(uuid "b543fef2-798f-4f88-a543-0f251ad5ce03")
		(effects
			(font
				(size 0.7 0.7)
				(thickness 0.1)
			)
			(justify left bottom)
		)
	)
	(fp_text user "+"
		(at -3.6 1.8 0)
		(unlocked yes)
		(layer "F.SilkS")
		(uuid "ce231c46-fcd3-4767-8e65-18cf9bd863b2")
		(effects
			(font
				(size 0.7 0.7)
				(thickness 0.1)
			)
			(justify left bottom)
		)
	)
	(fp_text user "${REFERENCE}"
		(at 0 0 180)
		(layer "F.Fab")
		(uuid "4dfc4d27-aae0-4021-9466-6d76ae4ace26")
		(effects
			(font
				(size 0.8 0.8)
				(thickness 0.12)
			)
		)
	)
	(pad "1" smd roundrect
		(at -1.725 -0.0125)
		(size 2.1 1.5)
		(layers "F.Cu" "F.Paste" "F.Mask")
		(roundrect_rratio 0.185185)
		(uuid "f2782b7c-2467-4ca1-81ad-1dbbc9ed4c5d")
	)
	(pad "1" smd roundrect
		(at -1.725 -0.0125)
		(size 2.1 1.5)
		(layers "B.Cu" "B.Paste" "B.Mask")
		(roundrect_rratio 0.185185)
		(uuid "09287b07-f969-4865-be68-40a30adcddc0")
	)
	(pad "1" thru_hole circle
		(at -0.65 0)
		(size 0.5 0.5)
		(drill 0.3)
		(layers "*.Cu" "*.Mask")
		(remove_unused_layers no)
		(uuid "2729c633-d198-4ac9-9248-983b19c43a2c")
	)
	(pad "2" thru_hole roundrect
		(at 0.65 0)
		(size 0.5 0.5)
		(drill 0.3)
		(layers "*.Cu" "*.Mask")
		(remove_unused_layers no)
		(roundrect_rratio 0.25)
		(uuid "b6c44cca-fe65-4327-bd29-39ff469c18b5")
	)
	(pad "2" smd roundrect
		(at 1.75 0)
		(size 2.1 1.5)
		(layers "F.Cu" "F.Paste" "F.Mask")
		(roundrect_rratio 0.185185)
		(uuid "9c7f6e06-db04-48fe-8ad2-fc894f71d1da")
	)
	(pad "2" smd roundrect
		(at 1.75 0)
		(size 2.1 1.5)
		(layers "B.Cu" "B.Paste" "B.Mask")
		(roundrect_rratio 0.185185)
		(uuid "6262ea2a-1cb9-4769-a661-88e958413e95")
	)
	(model "${KICAD6_3DMODEL_DIR}/Capacitor_Tantalum_SMD.3dshapes/CP_EIA-3216-10_Kemet-I.wrl"
		(offset
			(xyz 0 0 -1.6)
		)
		(scale
			(xyz 1 1 1)
		)
		(rotate
			(xyz -180 0 0)
		)
	)
)