(footprint "diode_v" (version 20221018) (generator pcbnew)
  (layer "F.Cu")
  (descr "Diode, DO-35_SOD27 series, Axial, Horizontal, pin pitch=7.62mm, , length*diameter=4*2mm^2, , http://www.diodes.com/_files/packages/DO-35.pdf")
  (tags "Diode DO-35_SOD27 series Axial Horizontal pin pitch 7.62mm  length 4mm diameter 2mm")
  (attr smd)
  (fp_text reference "D*" (at 9.66 -0.25 270) (layer "F.SilkS")
      (effects (font (size 0.5 0.5) (thickness 0.125)))
    (tstamp 31a812be-4e7a-43e7-b2dc-99df26e87a40)
  )
  (fp_text value "1N4148" (at 4.77 1.96 180) (layer "F.Fab")
      (effects (font (size 1 1) (thickness 0.15)))
    (tstamp a0e0ccfc-5027-4615-9983-f194828a8da2)
  )
  (fp_text user "A" (at 6.6 0.92 90 unlocked) (layer "B.SilkS")
      (effects (font (size 0.5 0.5) (thickness 0.1) bold) (justify mirror))
    (tstamp 2df99c95-66a6-4856-b528-ba159477d77a)
  )
  (fp_text user "K" (at 1.35 0.96 -90 unlocked) (layer "B.SilkS")
      (effects (font (size 0.5 0.5) (thickness 0.1) bold) (justify mirror))
    (tstamp 68370e77-ce1f-42ae-ab19-2c17fb33a5e9)
  )
  (fp_text user "${REFERENCE}" (at 9.66 -0.25 90 unlocked) (layer "B.SilkS")
      (effects (font (size 0.5 0.5) (thickness 0.125)) (justify mirror))
    (tstamp 96cb0df6-19df-41b4-8f7f-c79a37cc8fbc)
  )
  (fp_text user "A" (at 6.59 0.92 90 unlocked) (layer "F.SilkS")
      (effects (font (size 0.5 0.5) (thickness 0.1) bold) (justify mirror))
    (tstamp 5942cd48-4a67-4c22-a338-3fdb265b9e2b)
  )
  (fp_text user "K" (at 1.41 0.95 90 unlocked) (layer "F.SilkS")
      (effects (font (size 0.5 0.5) (thickness 0.1) bold))
    (tstamp e3305d8c-7b26-49b2-b440-30dd8ef5f9ed)
  )
  (fp_text user "${REFERENCE}" (at 3.7 -2.11 180) (layer "F.Fab")
      (effects (font (size 0.8 0.8) (thickness 0.12)))
    (tstamp f8e9aba6-2ace-4a9f-9a4a-d6dc9ba45f8d)
  )
  (fp_line (start 1.04 0) (end 1.69 0)
    (stroke (width 0.12) (type solid)) (layer "B.SilkS") (tstamp 3838d799-d043-4779-83f8-1a020386e437))
  (fp_line (start 3.629653 -0.480123) (end 3.629653 0.519877)
    (stroke (width 0.12) (type solid)) (layer "B.SilkS") (tstamp bb73d98f-2dc8-47f9-898a-9fb3eccfc5ec))
  (fp_line (start 6.58 0) (end 5.93 0)
    (stroke (width 0.12) (type solid)) (layer "B.SilkS") (tstamp b680950b-29aa-4de8-bdd8-c452671f0f17))
  (fp_rect (start -1.02 -1.23) (end 8.64 1.21)
    (stroke (width 0.12) (type solid)) (fill none) (layer "B.SilkS") (tstamp e2251b86-c6a0-43ed-81ee-ff48e9281693))
  (fp_poly
    (pts
      (xy 4.429653 -0.480123)
      (xy 4.429653 0.519877)
      (xy 3.729653 0.019877)
    )

    (stroke (width 0.1) (type solid)) (fill solid) (layer "B.SilkS") (tstamp ed0b51d5-7303-45e5-9878-829f4a3872c7))
  (fp_line (start 3.71 -0.5) (end 3.71 0.5)
    (stroke (width 0.12) (type solid)) (layer "F.SilkS") (tstamp 8522f74d-d51e-4e67-87ad-5733518d310a))
  (fp_poly
    (pts
      (xy 4.51 -0.5)
      (xy 4.51 0.5)
      (xy 3.81 0)
    )

    (stroke (width 0.1) (type solid)) (fill solid) (layer "F.SilkS") (tstamp d3f8d33b-f060-44e2-b3d3-5cf66b5a7b41))
  (fp_line (start -1.05 -1.25) (end -1.05 1.25)
    (stroke (width 0.05) (type solid)) (layer "F.CrtYd") (tstamp 93d1d4c6-63f7-42fc-91bf-e84d9ced8555))
  (fp_line (start -1.05 1.25) (end 8.67 1.25)
    (stroke (width 0.05) (type solid)) (layer "F.CrtYd") (tstamp 6a9f56a3-acc7-4987-ac3c-b44c2c8eefd1))
  (fp_line (start 8.67 -1.25) (end -1.05 -1.25)
    (stroke (width 0.05) (type solid)) (layer "F.CrtYd") (tstamp ab800f3f-ad0f-4505-ac57-e171ade84b9c))
  (fp_line (start 8.67 1.25) (end 8.67 -1.25)
    (stroke (width 0.05) (type solid)) (layer "F.CrtYd") (tstamp d676156c-f4dc-4c27-b761-3fbb77683a34))
  (fp_line (start 0 0) (end 1.81 0)
    (stroke (width 0.1) (type solid)) (layer "F.Fab") (tstamp 2a6834a1-7167-4431-9ae0-9e232ebe45d8))
  (fp_line (start 7.62 0) (end 5.81 0)
    (stroke (width 0.1) (type solid)) (layer "F.Fab") (tstamp 486eaab3-d7cc-4680-9908-1e201534e59b))
  (pad "1" thru_hole roundrect (at 0 0) (size 1.6 1.6) (drill 0.8) (layers "*.Cu" "*.Mask") (roundrect_rratio 0.25) (tstamp 54dcd051-9d7a-4d68-816c-3ee1e16966ce))
  (pad "1" smd rect (at 1.58 0 180) (size 2.8 0.5) (layers "F.Cu" "F.Paste" "F.Mask") (tstamp c5bda2e9-1065-401c-809b-ce0295fb2a90))
  (pad "1" smd rect (at 1.58 0 180) (size 2.8 0.5) (layers "B.Cu" "B.Paste" "B.Mask") (tstamp 470da1fa-68f4-41ed-bc31-a14c1d5f903e))
  (pad "1" smd rect (at 2.18 0 180) (size 1.75 1.42) (layers "F.Cu" "F.Paste" "F.Mask") (tstamp 66775795-42af-4ad8-9e53-136c6728c797))
  (pad "1" smd rect (at 2.18 0 180) (size 1.75 1.42) (layers "B.Cu" "B.Paste" "B.Mask") (tstamp 9befe3df-b0b3-406c-9aa1-a3e26baa7e3c))
  (pad "2" smd rect (at 5.48 0 180) (size 1.75 1.42) (layers "F.Cu" "F.Paste" "F.Mask") (tstamp 5f76187f-0448-4a70-be43-30095e7d8d49))
  (pad "2" smd rect (at 5.48 0 180) (size 1.75 1.42) (layers "B.Cu" "B.Paste" "B.Mask") (tstamp 76006cf1-f785-461e-930f-995940aedcda))
  (pad "2" smd rect (at 6.58 0 180) (size 2.9 0.5) (layers "F.Cu" "F.Paste" "F.Mask") (tstamp 46e6a6b0-bf33-4e81-9f74-99f27cce3745))
  (pad "2" smd rect (at 6.58 0 180) (size 2.9 0.5) (layers "B.Cu" "B.Paste" "B.Mask") (tstamp 4ef5be39-77b1-4642-b152-6c4ecd3413eb))
  (pad "2" thru_hole circle (at 7.62 0) (size 1.6 1.6) (drill 0.8) (layers "*.Cu" "*.Mask") (tstamp 54d1e105-6577-4eb3-8184-87941158625b))
  (model "${KICAD6_3DMODEL_DIR}/Diode_THT.3dshapes/D_DO-35_SOD27_P7.62mm_Horizontal.step"
    (offset (xyz 0 0 0))
    (scale (xyz 1 1 1))
    (rotate (xyz 0 0 0))
  )
  (model "${KICAD6_3DMODEL_DIR}/Diode_SMD.3dshapes/D_2010_5025Metric.step"
    (offset (xyz 4 0 -1.5))
    (scale (xyz 1 1 1))
    (rotate (xyz 0 -180 -180))
  )
)
