(module "JS202011SCQN" (layer F.Cu)
  (descr "JS202011SCQN")
  (tags "Switch")
  (attr smd)
  (fp_text reference S** (at 0.000 0.002) (layer F.SilkS)
    (effects (font (size 1.27 1.27) (thickness 0.254)))
  )
  (fp_text user %R (at 0.000 0.002) (layer F.Fab)
    (effects (font (size 1.27 1.27) (thickness 0.254)))
  )
  (fp_text value "JS202011SCQN" (at 0.000 0.002) (layer F.SilkS) hide
    (effects (font (size 1.27 1.27) (thickness 0.254)))
  )
  (fp_line (start -4.5 -1.5) (end 4.5 -1.5) (layer F.Fab) (width 0.2))
  (fp_line (start 4.5 -1.5) (end 4.5 1.5) (layer F.Fab) (width 0.2))
  (fp_line (start 4.5 1.5) (end -4.5 1.5) (layer F.Fab) (width 0.2))
  (fp_line (start -4.5 1.5) (end -4.5 -1.5) (layer F.Fab) (width 0.2))
  (fp_line (start -5.5 -5) (end 5.5 -5) (layer F.CrtYd) (width 0.1))
  (fp_line (start 5.5 -5) (end 5.5 5.004) (layer F.CrtYd) (width 0.1))
  (fp_line (start 5.5 5.004) (end -5.5 5.004) (layer F.CrtYd) (width 0.1))
  (fp_line (start -5.5 5.004) (end -5.5 -5) (layer F.CrtYd) (width 0.1))
  (fp_line (start -4.5 -1.5) (end -4.5 1.5) (layer F.SilkS) (width 0.2))
  (fp_line (start 4.5 1.5) (end 4.5 -1.5) (layer F.SilkS) (width 0.2))
  (fp_line (start 4.5 -1.5) (end 3.323 -1.5) (layer F.SilkS) (width 0.2))
  (fp_line (start -4.5 -1.5) (end -3.323 -1.5) (layer F.SilkS) (width 0.2))
  (fp_line (start 4.5 1.5) (end 3.323 1.5) (layer F.SilkS) (width 0.2))
  (fp_line (start -4.5 1.5) (end -3.323 1.5) (layer F.SilkS) (width 0.2))
  (fp_line (start -3.614 3.968) (end -3.614 3.968) (layer F.SilkS) (width 0.07159000000000004))
  (fp_line (start -3.542 3.968) (end -3.542 3.968) (layer F.SilkS) (width 0.07159000000000004))
  (fp_arc (start -3.578 3.968) (end -3.614 3.968) (angle -180) (layer F.SilkS) (width 0.07159000000000004))
  (fp_arc (start -3.578 3.968) (end -3.542 3.968) (angle -180) (layer F.SilkS) (width 0.07159000000000004))
  (pad 1 smd rect (at -2.500 2.75 0) (size 1.200 2.500) (layers F.Cu F.Paste F.Mask))
  (pad 2 smd rect (at 0.000 2.75 0) (size 1.200 2.500) (layers F.Cu F.Paste F.Mask))
  (pad 3 smd rect (at 2.500 2.75 0) (size 1.200 2.500) (layers F.Cu F.Paste F.Mask))
  (pad 4 smd rect (at 2.500 -2.75 0) (size 1.200 2.500) (layers F.Cu F.Paste F.Mask))
  (pad 5 smd rect (at 0.000 -2.75 0) (size 1.200 2.500) (layers F.Cu F.Paste F.Mask))
  (pad 6 smd rect (at -2.500 -2.75 0) (size 1.200 2.500) (layers F.Cu F.Paste F.Mask))
  (model JS202011SCQN.stp
    (at (xyz 0 0 0))
    (scale (xyz 1 1 1))
    (rotate (xyz 0 0 0))
  )
)
