(footprint "LegoHole_16-32u_4875" (version 20211014) (generator pcbnew)
  (layer "F.Cu")
  (tedit 61D86E9B)
  (descr "Mounting Hole 4.9mm, no annular")
  (tags "mounting hole 4.9mm, no annular")
  (property "Sheetfile" "m65.kicad_sch")
  (property "Sheetname" "")
  (attr exclude_from_pos_files exclude_from_bom)
  (fp_text reference "H?" (at 2.794 3.048) (layer "F.SilkS") hide
    (effects (font (size 1 1) (thickness 0.15)))
    (tstamp 48093584-e6d1-41cf-8ecd-fd4b2710fe7a)
  )
  (fp_text value "MountingHole" (at 2.54 -5.08) (layer "F.Fab") hide
    (effects (font (size 1 1) (thickness 0.15)))
    (tstamp 7c65f2ea-b53e-42ce-89d6-b9f96fa43a98)
  )
  (fp_text user "${REFERENCE}" (at 151.7 120 180) (layer "F.Fab")
    (effects (font (size 1 1) (thickness 0.15)))
    (tstamp 0208018e-caa6-465e-bc29-fc0c2967f84a)
  )
  (fp_text user "${REFERENCE}" (at 215.7 120 180) (layer "F.Fab")
    (effects (font (size 1 1) (thickness 0.15)))
    (tstamp 0212b1be-2180-41b5-b386-90db13364e6b)
  )
  (fp_text user "${REFERENCE}" (at -0.3 80 180) (layer "F.Fab")
    (effects (font (size 1 1) (thickness 0.15)))
    (tstamp 0649e389-49e7-46bc-b23a-167f957d174c)
  )
  (fp_text user "${REFERENCE}" (at -0.3 120 180) (layer "F.Fab")
    (effects (font (size 1 1) (thickness 0.15)))
    (tstamp 066dafa2-0218-44bd-8e18-9934c85198c6)
  )
  (fp_text user "${REFERENCE}" (at 223.7 120 180) (layer "F.Fab")
    (effects (font (size 1 1) (thickness 0.15)))
    (tstamp 06e02135-e94a-46c6-bb32-047ab61a9079)
  )
  (fp_text user "${REFERENCE}" (at 248.3 72) (layer "F.Fab")
    (effects (font (size 1 1) (thickness 0.15)))
    (tstamp 0bc2efc6-f02f-481f-aecd-c2d4b64af4c8)
  )
  (fp_text user "${REFERENCE}" (at 248.3 56) (layer "F.Fab")
    (effects (font (size 1 1) (thickness 0.15)))
    (tstamp 113259d6-893f-44a8-9b74-7face95fae38)
  )
  (fp_text user "${REFERENCE}" (at 248 120.3 270) (layer "F.Fab")
    (effects (font (size 1 1) (thickness 0.15)))
    (tstamp 11b0c7d2-b529-44cd-b078-48d451910c73)
  )
  (fp_text user "${REFERENCE}" (at 248.3 104) (layer "F.Fab")
    (effects (font (size 1 1) (thickness 0.15)))
    (tstamp 15089a33-b5ae-4331-a6d4-a82d3db17868)
  )
  (fp_text user "${REFERENCE}" (at 40.3 0) (layer "F.Fab")
    (effects (font (size 1 1) (thickness 0.15)))
    (tstamp 1831b922-f359-4998-96a2-17e78f534518)
  )
  (fp_text user "${REFERENCE}" (at 248.3 16) (layer "F.Fab")
    (effects (font (size 1 1) (thickness 0.15)))
    (tstamp 1cf1cb4d-f44e-4f18-9b53-b081ec0a535d)
  )
  (fp_text user "${REFERENCE}" (at 192.3 0) (layer "F.Fab")
    (effects (font (size 1 1) (thickness 0.15)))
    (tstamp 1ffb6183-e299-44d5-9153-17a3cc4b8635)
  )
  (fp_text user "${REFERENCE}" (at 63.7 120 180) (layer "F.Fab")
    (effects (font (size 1 1) (thickness 0.15)))
    (tstamp 21f0aa3b-84f0-461e-9b2c-3e6bbc737c05)
  )
  (fp_text user "${REFERENCE}" (at 103.7 120 180) (layer "F.Fab")
    (effects (font (size 1 1) (thickness 0.15)))
    (tstamp 21f73fce-377e-47cc-b525-481c903ba334)
  )
  (fp_text user "${REFERENCE}" (at 127.7 120 180) (layer "F.Fab")
    (effects (font (size 1 1) (thickness 0.15)))
    (tstamp 27a533ee-f5bd-42c8-b6de-c0045f185138)
  )
  (fp_text user "${REFERENCE}" (at 71.7 120 180) (layer "F.Fab")
    (effects (font (size 1 1) (thickness 0.15)))
    (tstamp 2aeb7175-8bdf-41b7-aae4-6cae2f126b41)
  )
  (fp_text user "${REFERENCE}" (at -0.3 32 180) (layer "F.Fab")
    (effects (font (size 1 1) (thickness 0.15)))
    (tstamp 2b29f40e-3b95-44f9-abf5-551aff3e5c36)
  )
  (fp_text user "${REFERENCE}" (at 31.7 120 180) (layer "F.Fab")
    (effects (font (size 1 1) (thickness 0.15)))
    (tstamp 2ebc6086-5830-4086-a3c6-4a0b0dead15f)
  )
  (fp_text user "${REFERENCE}" (at 224.3 0) (layer "F.Fab")
    (effects (font (size 1 1) (thickness 0.15)))
    (tstamp 2ee64bb8-8ada-494f-a891-b1dca536710b)
  )
  (fp_text user "${REFERENCE}" (at 183.7 120 180) (layer "F.Fab")
    (effects (font (size 1 1) (thickness 0.15)))
    (tstamp 3a1d3905-a8e4-4fa6-b9d7-db3795e26c65)
  )
  (fp_text user "${REFERENCE}" (at -0.3 72 180) (layer "F.Fab")
    (effects (font (size 1 1) (thickness 0.15)))
    (tstamp 3efd4761-5af7-4b5a-bfe0-251db0d4756c)
  )
  (fp_text user "${REFERENCE}" (at 8.3 0) (layer "F.Fab")
    (effects (font (size 1 1) (thickness 0.15)))
    (tstamp 423dca81-438a-4a92-a502-8495bed4f42e)
  )
  (fp_text user "${REFERENCE}" (at 143.7 120 180) (layer "F.Fab")
    (effects (font (size 1 1) (thickness 0.15)))
    (tstamp 470c058e-eb9c-4f69-83a6-1361d16cdd55)
  )
  (fp_text user "${REFERENCE}" (at 216.3 0) (layer "F.Fab")
    (effects (font (size 1 1) (thickness 0.15)))
    (tstamp 4cb0485b-7154-43e0-845c-1124024ec03a)
  )
  (fp_text user "${REFERENCE}" (at -0.3 16 180) (layer "F.Fab")
    (effects (font (size 1 1) (thickness 0.15)))
    (tstamp 4f1dadb8-2ddd-49a8-ab26-e7ce38ca67de)
  )
  (fp_text user "${REFERENCE}" (at 56.3 0) (layer "F.Fab")
    (effects (font (size 1 1) (thickness 0.15)))
    (tstamp 506abdd1-b58c-49ab-af17-f2bcc1fe35ae)
  )
  (fp_text user "${REFERENCE}" (at 248.3 32) (layer "F.Fab")
    (effects (font (size 1 1) (thickness 0.15)))
    (tstamp 511fae28-235d-4dc8-9529-796ebb0c974d)
  )
  (fp_text user "${REFERENCE}" (at 240.3 0) (layer "F.Fab")
    (effects (font (size 1 1) (thickness 0.15)))
    (tstamp 5184a570-3fcf-4bef-9bf9-f001f8b93951)
  )
  (fp_text user "${REFERENCE}" (at 15.7 120 180) (layer "F.Fab")
    (effects (font (size 1 1) (thickness 0.15)))
    (tstamp 5c3a353f-9fe2-4e89-82d9-e457ff87fe78)
  )
  (fp_text user "${REFERENCE}" (at 248.3 88) (layer "F.Fab")
    (effects (font (size 1 1) (thickness 0.15)))
    (tstamp 5ed0e5a1-19d2-4e00-91e8-29385370a5d3)
  )
  (fp_text user "${REFERENCE}" (at 176.3 0) (layer "F.Fab")
    (effects (font (size 1 1) (thickness 0.15)))
    (tstamp 619d1278-5ed4-4184-8221-e548429781ca)
  )
  (fp_text user "${REFERENCE}" (at 208.3 0) (layer "F.Fab")
    (effects (font (size 1 1) (thickness 0.15)))
    (tstamp 64c63a73-bbe4-4f64-bad6-5496558fb34c)
  )
  (fp_text user "${REFERENCE}" (at 175.7 120 180) (layer "F.Fab")
    (effects (font (size 1 1) (thickness 0.15)))
    (tstamp 678b7c82-d01e-447f-98d1-bd32e23ed621)
  )
  (fp_text user "${REFERENCE}" (at 23.7 120 180) (layer "F.Fab")
    (effects (font (size 1 1) (thickness 0.15)))
    (tstamp 6b287818-2f60-464a-916c-aaa00abb0681)
  )
  (fp_text user "${REFERENCE}" (at 248.3 64) (layer "F.Fab")
    (effects (font (size 1 1) (thickness 0.15)))
    (tstamp 6e90a15c-2f7f-4393-a9a0-e8ff77ece103)
  )
  (fp_text user "${REFERENCE}" (at 128.3 0) (layer "F.Fab")
    (effects (font (size 1 1) (thickness 0.15)))
    (tstamp 74c34d0e-112e-4e62-b9a0-64e4f5c2c5f0)
  )
  (fp_text user "${REFERENCE}" (at 152.3 0) (layer "F.Fab")
    (effects (font (size 1 1) (thickness 0.15)))
    (tstamp 75993587-6586-4b1c-9799-66bbc5db992c)
  )
  (fp_text user "${REFERENCE}" (at 87.7 120 180) (layer "F.Fab")
    (effects (font (size 1 1) (thickness 0.15)))
    (tstamp 7e6ce4dc-6f30-45c4-9ad4-4282a82b3e9e)
  )
  (fp_text user "${REFERENCE}" (at -0.3 40 180) (layer "F.Fab")
    (effects (font (size 1 1) (thickness 0.15)))
    (tstamp 82157803-9a3f-470f-92ba-28e49dda4c88)
  )
  (fp_text user "${REFERENCE}" (at 248.3 40) (layer "F.Fab")
    (effects (font (size 1 1) (thickness 0.15)))
    (tstamp 83352cad-03b1-4ee6-832f-68a3fe1f0df1)
  )
  (fp_text user "${REFERENCE}" (at 248.3 48) (layer "F.Fab")
    (effects (font (size 1 1) (thickness 0.15)))
    (tstamp 8a47d443-2b34-4f0e-91fa-6c2ce2529e61)
  )
  (fp_text user "${REFERENCE}" (at -0.3 88 180) (layer "F.Fab")
    (effects (font (size 1 1) (thickness 0.15)))
    (tstamp 8c8903b7-889a-416a-a3a9-1d28fb61d131)
  )
  (fp_text user "${REFERENCE}" (at 191.7 120 180) (layer "F.Fab")
    (effects (font (size 1 1) (thickness 0.15)))
    (tstamp 90463b55-139c-46f8-ae98-c92e5bb5ccb4)
  )
  (fp_text user "${REFERENCE}" (at 104.3 0) (layer "F.Fab")
    (effects (font (size 1 1) (thickness 0.15)))
    (tstamp 9306c23d-579f-4b24-ad35-dc882dcca42d)
  )
  (fp_text user "${REFERENCE}" (at 32.3 0) (layer "F.Fab")
    (effects (font (size 1 1) (thickness 0.15)))
    (tstamp 959514f7-9469-4836-a425-9ae737f0e0bf)
  )
  (fp_text user "${REFERENCE}" (at 207.7 120 180) (layer "F.Fab")
    (effects (font (size 1 1) (thickness 0.15)))
    (tstamp 9ab724e4-bd4d-4b0c-8453-800c1ed66035)
  )
  (fp_text user "${REFERENCE}" (at 248.3 8) (layer "F.Fab")
    (effects (font (size 1 1) (thickness 0.15)))
    (tstamp 9aeee10b-e566-492e-8bfc-412cf41f287b)
  )
  (fp_text user "${REFERENCE}" (at 248.3 112) (layer "F.Fab")
    (effects (font (size 1 1) (thickness 0.15)))
    (tstamp 9d415c9a-09d6-4060-91a5-76e5c832cccb)
  )
  (fp_text user "${REFERENCE}" (at 168.3 0) (layer "F.Fab")
    (effects (font (size 1 1) (thickness 0.15)))
    (tstamp 9f37e099-02f8-4612-a27a-bf173f4a20a1)
  )
  (fp_text user "${REFERENCE}" (at 135.7 120 180) (layer "F.Fab")
    (effects (font (size 1 1) (thickness 0.15)))
    (tstamp 9f8e989c-9770-4e7a-85fe-71c984e4cced)
  )
  (fp_text user "${REFERENCE}" (at 239.7 120 180) (layer "F.Fab")
    (effects (font (size 1 1) (thickness 0.15)))
    (tstamp a00d0ae6-7816-4c52-b54e-32afac02aa9d)
  )
  (fp_text user "${REFERENCE}" (at 112.3 0) (layer "F.Fab")
    (effects (font (size 1 1) (thickness 0.15)))
    (tstamp a243dcf3-0dc3-40dc-8e17-7382fa241e62)
  )
  (fp_text user "${REFERENCE}" (at -0.3 56 180) (layer "F.Fab")
    (effects (font (size 1 1) (thickness 0.15)))
    (tstamp a32ddd7a-0a01-4a27-9905-8c41b1693705)
  )
  (fp_text user "${REFERENCE}" (at 231.7 120 180) (layer "F.Fab")
    (effects (font (size 1 1) (thickness 0.15)))
    (tstamp a441d17e-246b-41e5-bab3-271653633b00)
  )
  (fp_text user "${REFERENCE}" (at 96.3 0) (layer "F.Fab")
    (effects (font (size 1 1) (thickness 0.15)))
    (tstamp a81e6da1-2200-47e8-a3b5-87f334f96bed)
  )
  (fp_text user "${REFERENCE}" (at 48.3 0) (layer "F.Fab")
    (effects (font (size 1 1) (thickness 0.15)))
    (tstamp b039acb2-f474-44fe-b0b8-36fadfc621d5)
  )
  (fp_text user "${REFERENCE}" (at -0.3 8 180) (layer "F.Fab")
    (effects (font (size 1 1) (thickness 0.15)))
    (tstamp b1741d98-41e9-4f80-bade-4d946f8c4b68)
  )
  (fp_text user "${REFERENCE}" (at -0.3 104 180) (layer "F.Fab")
    (effects (font (size 1 1) (thickness 0.15)))
    (tstamp b2710659-611e-4aef-aff7-1b873a42465f)
  )
  (fp_text user "${REFERENCE}" (at 95.7 120 180) (layer "F.Fab")
    (effects (font (size 1 1) (thickness 0.15)))
    (tstamp b520b7fa-8a86-4178-9851-0c1470ec2e5d)
  )
  (fp_text user "${REFERENCE}" (at 55.7 120 180) (layer "F.Fab")
    (effects (font (size 1 1) (thickness 0.15)))
    (tstamp b7b2216b-7162-4712-aa2c-2abe9a448376)
  )
  (fp_text user "${REFERENCE}" (at 0 -0.3 90) (layer "F.Fab")
    (effects (font (size 1 1) (thickness 0.15)))
    (tstamp b8955c1e-63e2-437d-a3ab-88d358cb765d)
  )
  (fp_text user "${REFERENCE}" (at 88.3 0) (layer "F.Fab")
    (effects (font (size 1 1) (thickness 0.15)))
    (tstamp b93ab47b-a949-4cdd-8687-9613754a71d9)
  )
  (fp_text user "${REFERENCE}" (at 144.3 0) (layer "F.Fab")
    (effects (font (size 1 1) (thickness 0.15)))
    (tstamp c083f16c-8e14-4b1b-83ff-3424c45d4be9)
  )
  (fp_text user "${REFERENCE}" (at 72.3 0) (layer "F.Fab")
    (effects (font (size 1 1) (thickness 0.15)))
    (tstamp c2aebd6d-2a32-44db-b10d-f002ebd2472f)
  )
  (fp_text user "${REFERENCE}" (at 7.7 120 180) (layer "F.Fab")
    (effects (font (size 1 1) (thickness 0.15)))
    (tstamp c5d895f0-ac3d-4e4f-93d5-56af0f441065)
  )
  (fp_text user "${REFERENCE}" (at 39.7 120 180) (layer "F.Fab")
    (effects (font (size 1 1) (thickness 0.15)))
    (tstamp c8b8349f-8821-496d-a4ec-467897132b36)
  )
  (fp_text user "${REFERENCE}" (at 64.3 0) (layer "F.Fab")
    (effects (font (size 1 1) (thickness 0.15)))
    (tstamp ca54fb5b-4914-4634-b0d9-a30ef2ffb1a8)
  )
  (fp_text user "${REFERENCE}" (at 159.7 120 180) (layer "F.Fab")
    (effects (font (size 1 1) (thickness 0.15)))
    (tstamp cab49002-974d-4aae-a84b-dd1fac5d4ff0)
  )
  (fp_text user "${REFERENCE}" (at -0.3 24 180) (layer "F.Fab")
    (effects (font (size 1 1) (thickness 0.15)))
    (tstamp cb40dee0-5c18-46df-985f-2c702d3079ff)
  )
  (fp_text user "${REFERENCE}" (at -0.3 64 180) (layer "F.Fab")
    (effects (font (size 1 1) (thickness 0.15)))
    (tstamp cb676da5-2a4a-43d5-849f-77fd4ca8d86b)
  )
  (fp_text user "${REFERENCE}" (at 47.7 120 180) (layer "F.Fab")
    (effects (font (size 1 1) (thickness 0.15)))
    (tstamp cc3358a3-b7af-44da-8773-f80646872129)
  )
  (fp_text user "${REFERENCE}" (at 24.3 0) (layer "F.Fab")
    (effects (font (size 1 1) (thickness 0.15)))
    (tstamp cc7682bf-fffa-437c-8f7f-5fb85c234119)
  )
  (fp_text user "${REFERENCE}" (at -0.3 96 180) (layer "F.Fab")
    (effects (font (size 1 1) (thickness 0.15)))
    (tstamp cdfe2626-8157-43b1-9544-d7e7460ed063)
  )
  (fp_text user "${REFERENCE}" (at 167.7 120 180) (layer "F.Fab")
    (effects (font (size 1 1) (thickness 0.15)))
    (tstamp d22e7379-0bfc-4e33-9907-37513c5cf66c)
  )
  (fp_text user "${REFERENCE}" (at 248.3 24) (layer "F.Fab")
    (effects (font (size 1 1) (thickness 0.15)))
    (tstamp d3ad9d79-29da-444d-b86f-7a4ba7c0c75f)
  )
  (fp_text user "${REFERENCE}" (at 160.3 0) (layer "F.Fab")
    (effects (font (size 1 1) (thickness 0.15)))
    (tstamp d4fe94f4-e540-4c5c-a6b5-056928b4c85a)
  )
  (fp_text user "${REFERENCE}" (at 200.3 0) (layer "F.Fab")
    (effects (font (size 1 1) (thickness 0.15)))
    (tstamp dab16e30-6166-4692-a017-564a9dd42c6f)
  )
  (fp_text user "${REFERENCE}" (at 248.3 96) (layer "F.Fab")
    (effects (font (size 1 1) (thickness 0.15)))
    (tstamp dc88247e-667a-4c77-b74c-331c85dde69b)
  )
  (fp_text user "${REFERENCE}" (at 79.7 120 180) (layer "F.Fab")
    (effects (font (size 1 1) (thickness 0.15)))
    (tstamp e5c9f037-e548-4533-8292-c05d6432120f)
  )
  (fp_text user "${REFERENCE}" (at 111.7 120 180) (layer "F.Fab")
    (effects (font (size 1 1) (thickness 0.15)))
    (tstamp e943d87e-966a-4047-8066-813609ceeaf2)
  )
  (fp_text user "${REFERENCE}" (at 248.3 80) (layer "F.Fab")
    (effects (font (size 1 1) (thickness 0.15)))
    (tstamp ed6a9703-03e1-4ee4-bb3c-97c899795fa6)
  )
  (fp_text user "${REFERENCE}" (at 232.3 0) (layer "F.Fab")
    (effects (font (size 1 1) (thickness 0.15)))
    (tstamp efa67298-935a-471d-8664-eaebcdb280ab)
  )
  (fp_text user "${REFERENCE}" (at 80.3 0) (layer "F.Fab")
    (effects (font (size 1 1) (thickness 0.15)))
    (tstamp f308d32a-b8db-4fab-94e2-f8338721f33a)
  )
  (fp_text user "${REFERENCE}" (at 184.3 0) (layer "F.Fab")
    (effects (font (size 1 1) (thickness 0.15)))
    (tstamp f4bcd2cf-75e1-40a4-9a64-71ec2a19d8d5)
  )
  (fp_text user "${REFERENCE}" (at 119.7 120 180) (layer "F.Fab")
    (effects (font (size 1 1) (thickness 0.15)))
    (tstamp f5874181-d3b7-4733-b5bd-05022d93680d)
  )
  (fp_text user "${REFERENCE}" (at 248.3 0) (layer "F.Fab")
    (effects (font (size 1 1) (thickness 0.15)))
    (tstamp fab70c3b-28a0-4e14-8f26-448a396f06a2)
  )
  (fp_text user "${REFERENCE}" (at -0.3 48 180) (layer "F.Fab")
    (effects (font (size 1 1) (thickness 0.15)))
    (tstamp fb356d0e-393f-43c0-80aa-aad28b8b4872)
  )
  (fp_text user "${REFERENCE}" (at 16.3 0) (layer "F.Fab")
    (effects (font (size 1 1) (thickness 0.15)))
    (tstamp fd4e1187-ceb8-4926-ace6-069992b37568)
  )
  (fp_text user "${REFERENCE}" (at 136.3 0) (layer "F.Fab")
    (effects (font (size 1 1) (thickness 0.15)))
    (tstamp fd4e9c77-ca4c-4fbc-9e00-c9c8e5a66e4c)
  )
  (fp_text user "${REFERENCE}" (at -0.3 112 180) (layer "F.Fab")
    (effects (font (size 1 1) (thickness 0.15)))
    (tstamp fe077856-d160-449b-b265-eb9459d317b5)
  )
  (fp_text user "${REFERENCE}" (at 199.7 120 180) (layer "F.Fab")
    (effects (font (size 1 1) (thickness 0.15)))
    (tstamp ff166878-904f-4fb7-ab09-85e7447c60d7)
  )
  (fp_text user "${REFERENCE}" (at 120.3 0) (layer "F.Fab")
    (effects (font (size 1 1) (thickness 0.15)))
    (tstamp ff4f80ef-4d20-40a0-ba7d-159f2eeb3d1d)
  )
  (fp_line (start 251.95 0) (end 251.95 3.95) (layer "F.SilkS") (width 0.1) (tstamp 13db0b63-592b-48c7-a167-813aa1493035))
  (fp_line (start 244.05 3.95) (end 251.95 3.95) (layer "F.SilkS") (width 0.1) (tstamp 23189ffe-83fa-437d-8391-9353aa0f08ed))
  (fp_line (start 3.95 3.95) (end 3.95 -3.95) (layer "F.SilkS") (width 0.1) (tstamp 2f410e10-d9e9-42ae-866e-23fbefe006db))
  (fp_line (start 0 -3.95) (end 3.95 -3.95) (layer "F.SilkS") (width 0.1) (tstamp 340d4cef-4726-41e1-af63-0cc1829ef3d9))
  (fp_line (start 3.95 116.05) (end -3.95 116.05) (layer "F.SilkS") (width 0.1) (tstamp 3835d3b5-2279-48ec-b118-6bb328e9df4e))
  (fp_line (start -3.95 120) (end -3.95 116.05) (layer "F.SilkS") (width 0.1) (tstamp 43357c84-9951-4ca6-b2cf-93c6ff6fecc7))
  (fp_line (start 248 -3.95) (end 244.05 -3.95) (layer "F.SilkS") (width 0.1) (tstamp 44270e5c-dafd-464a-b539-e5ab7e4e9e8b))
  (fp_line (start -3.95 3.95) (end 3.95 3.95) (layer "F.SilkS") (width 0.1) (tstamp 5038f6d6-4a03-4dc1-8cdd-ce7f224530d6))
  (fp_line (start 3.95 123.95) (end 3.95 116.05) (layer "F.SilkS") (width 0.1) (tstamp 64eb8795-d184-41f9-8c5d-973abbab5fde))
  (fp_line (start 251.95 116.05) (end 244.05 116.05) (layer "F.SilkS") (width 0.1) (tstamp abe58b68-7e48-4b8b-a1bd-0c0874fff395))
  (fp_line (start 0 123.95) (end 3.95 123.95) (layer "F.SilkS") (width 0.1) (tstamp b0f60e91-74a1-4f19-85da-82ebb1958b65))
  (fp_line (start 244.05 -3.95) (end 244.05 3.95) (layer "F.SilkS") (width 0.1) (tstamp bbe5c049-b2d3-476c-9013-7563b17301a6))
  (fp_line (start 244.05 116.05) (end 244.05 123.95) (layer "F.SilkS") (width 0.1) (tstamp c84bbe82-26ad-458f-83ef-e08270dfc79e))
  (fp_line (start 248 123.95) (end 244.05 123.95) (layer "F.SilkS") (width 0.1) (tstamp dcec6ea9-f0b2-4c0d-b1c2-7500d7b8e194))
  (fp_line (start 251.95 120) (end 251.95 116.05) (layer "F.SilkS") (width 0.1) (tstamp e71f05b3-cec7-4a88-8245-c51be393161e))
  (fp_line (start -3.95 0) (end -3.95 3.95) (layer "F.SilkS") (width 0.1) (tstamp e899561c-db2e-4436-a50b-fabbfd1b933e))
  (fp_rect (start 28.05 -3.95) (end 35.95 3.95) (layer "F.SilkS") (width 0.1) (fill none) (tstamp 06330687-b879-4879-9472-b6296898dbd7))
  (fp_rect (start 244.05 68.05) (end 251.95 75.95) (layer "F.SilkS") (width 0.1) (fill none) (tstamp 0666f539-7727-4d31-a64e-d8df5972a1ff))
  (fp_rect (start 107.95 123.95) (end 100.05 116.05) (layer "F.SilkS") (width 0.1) (fill none) (tstamp 0cccfaf7-e29d-4741-b23f-416ea20d554b))
  (fp_rect (start 84.05 -3.95) (end 91.95 3.95) (layer "F.SilkS") (width 0.1) (fill none) (tstamp 0e466e87-e049-47dd-a1c5-7dd1ef63bb21))
  (fp_rect (start 115.95 123.95) (end 108.05 116.05) (layer "F.SilkS") (width 0.1) (fill none) (tstamp 1277e0b2-3208-436d-ae0f-3e1478b17374))
  (fp_rect (start 3.95 83.95) (end -3.95 76.05) (layer "F.SilkS") (width 0.1) (fill none) (tstamp 13a439d1-0f8f-43ba-9ff2-49b6e104d19f))
  (fp_rect (start 19.95 123.95) (end 12.05 116.05) (layer "F.SilkS") (width 0.1) (fill none) (tstamp 146f4723-647f-4a82-bc77-a374a1ff2f05))
  (fp_rect (start 92.05 -3.95) (end 99.95 3.95) (layer "F.SilkS") (width 0.1) (fill none) (tstamp 16eaaba7-9a2a-4454-b7c6-d9fe48773a10))
  (fp_rect (start 83.95 123.95) (end 76.05 116.05) (layer "F.SilkS") (width 0.1) (fill none) (tstamp 16fa8ab8-42c1-47dd-a1ec-be499707b649))
  (fp_rect (start 244.05 52.05) (end 251.95 59.95) (layer "F.SilkS") (width 0.1) (fill none) (tstamp 17cd05ec-be36-4ef5-952f-4416c3e81cd1))
  (fp_rect (start 12.05 -3.95) (end 19.95 3.95) (layer "F.SilkS") (width 0.1) (fill none) (tstamp 1a827f43-ce50-4933-bc28-ad4eb6bc981e))
  (fp_rect (start 3.95 11.95) (end -3.95 4.05) (layer "F.SilkS") (width 0.1) (fill none) (tstamp 1afcde0a-2e8d-4207-ba4e-9e8f1d5d109c))
  (fp_rect (start 147.95 123.95) (end 140.05 116.05) (layer "F.SilkS") (width 0.1) (fill none) (tstamp 2388d2b6-7be1-4bbd-9192-9655313a5c70))
  (fp_rect (start 244.05 100.05) (end 251.95 107.95) (layer "F.SilkS") (width 0.1) (fill none) (tstamp 250b4f81-6cad-46b5-965a-ed7836f1536d))
  (fp_rect (start 244.05 28.05) (end 251.95 35.95) (layer "F.SilkS") (width 0.1) (fill none) (tstamp 254185b8-af63-4d7d-b37e-c68b7c177e8f))
  (fp_rect (start 180.05 -3.95) (end 187.95 3.95) (layer "F.SilkS") (width 0.1) (fill none) (tstamp 2be9dbf7-7569-424e-a38c-d30019351c73))
  (fp_rect (start 172.05 -3.95) (end 179.95 3.95) (layer "F.SilkS") (width 0.1) (fill none) (tstamp 2d883ae3-3fe3-4e35-b261-2438e5ed972b))
  (fp_rect (start 67.95 123.95) (end 60.05 116.05) (layer "F.SilkS") (width 0.1) (fill none) (tstamp 39b06d9a-fb57-49c5-a599-bdb5b86befc5))
  (fp_rect (start 212.05 -3.95) (end 219.95 3.95) (layer "F.SilkS") (width 0.1) (fill none) (tstamp 3f518bcd-6e3e-4bb7-961d-1a680160f7bc))
  (fp_rect (start 140.05 -3.95) (end 147.95 3.95) (layer "F.SilkS") (width 0.1) (fill none) (tstamp 40ad7f9c-17ce-4b7f-ae46-1bf2dab6e820))
  (fp_rect (start 164.05 -3.95) (end 171.95 3.95) (layer "F.SilkS") (width 0.1) (fill none) (tstamp 451ac403-80ea-4fb5-a292-2447db0f5807))
  (fp_rect (start 99.95 123.95) (end 92.05 116.05) (layer "F.SilkS") (width 0.1) (fill none) (tstamp 49ddcca5-f449-4955-9fad-bc4eaca97fc6))
  (fp_rect (start 3.95 99.95) (end -3.95 92.05) (layer "F.SilkS") (width 0.1) (fill none) (tstamp 4b6145e3-b652-4397-ae1a-96c583ab9088))
  (fp_rect (start 132.05 -3.95) (end 139.95 3.95) (layer "F.SilkS") (width 0.1) (fill none) (tstamp 4c4ac5d0-c0ec-470f-b799-a274b264d17b))
  (fp_rect (start 124.05 -3.95) (end 131.95 3.95) (layer "F.SilkS") (width 0.1) (fill none) (tstamp 4ce35955-917b-422a-9c12-3718a725bb8b))
  (fp_rect (start 108.05 -3.95) (end 115.95 3.95) (layer "F.SilkS") (width 0.1) (fill none) (tstamp 4ec47dec-3c0a-4f3b-b216-9f091f207e2a))
  (fp_rect (start 196.05 -3.95) (end 203.95 3.95) (layer "F.SilkS") (width 0.1) (fill none) (tstamp 518d7714-364c-4ec5-a538-73133b331b6f))
  (fp_rect (start 187.95 123.95) (end 180.05 116.05) (layer "F.SilkS") (width 0.1) (fill none) (tstamp 51b995e5-8c65-458f-8ff0-ad6dd689bd51))
  (fp_rect (start 171.95 123.95) (end 164.05 116.05) (layer "F.SilkS") (width 0.1) (fill none) (tstamp 57f26559-4fbf-479c-9252-db022b66cc15))
  (fp_rect (start 59.95 123.95) (end 52.05 116.05) (layer "F.SilkS") (width 0.1) (fill none) (tstamp 59a665c9-db0f-4f1c-805e-5d73c9a704f8))
  (fp_rect (start 236.05 -3.95) (end 243.95 3.95) (layer "F.SilkS") (width 0.1) (fill none) (tstamp 5a678a62-e1a4-4a50-9c8d-9059dfc4e1d3))
  (fp_rect (start 116.05 -3.95) (end 123.95 3.95) (layer "F.SilkS") (width 0.1) (fill none) (tstamp 5a69f18d-7705-4866-9de5-419ef4dec561))
  (fp_rect (start 123.95 123.95) (end 116.05 116.05) (layer "F.SilkS") (width 0.1) (fill none) (tstamp 60e99171-bab3-4310-8122-c3495d672f71))
  (fp_rect (start 91.95 123.95) (end 84.05 116.05) (layer "F.SilkS") (width 0.1) (fill none) (tstamp 64091230-14f3-4b21-845d-1efca0307bc6))
  (fp_rect (start 244.05 84.05) (end 251.95 91.95) (layer "F.SilkS") (width 0.1) (fill none) (tstamp 67218bbd-2519-4670-8254-22af435c0cce))
  (fp_rect (start 228.05 -3.95) (end 235.95 3.95) (layer "F.SilkS") (width 0.1) (fill none) (tstamp 6b19e5a1-a8cc-4781-9c78-5662433a8096))
  (fp_rect (start 244.05 92.05) (end 251.95 99.95) (layer "F.SilkS") (width 0.1) (fill none) (tstamp 6b46518d-f300-4104-9b36-ae781b79e0b2))
  (fp_rect (start 244.05 60.05) (end 251.95 67.95) (layer "F.SilkS") (width 0.1) (fill none) (tstamp 6d33e43b-9f4b-4996-ab99-971608cbc603))
  (fp_rect (start 3.95 35.95) (end -3.95 28.05) (layer "F.SilkS") (width 0.1) (fill none) (tstamp 6e002fbe-e401-48ec-b550-bbfdc150f1f7))
  (fp_rect (start 139.95 123.95) (end 132.05 116.05) (layer "F.SilkS") (width 0.1) (fill none) (tstamp 7614a8bf-6652-4864-a595-70d55159245e))
  (fp_rect (start 3.95 107.95) (end -3.95 100.05) (layer "F.SilkS") (width 0.1) (fill none) (tstamp 7637a21f-d3aa-4e9e-9358-3f44cc3ad19e))
  (fp_rect (start 36.05 -3.95) (end 43.95 3.95) (layer "F.SilkS") (width 0.1) (fill none) (tstamp 7b565960-6f66-4421-adca-892156b2292a))
  (fp_rect (start 43.95 123.95) (end 36.05 116.05) (layer "F.SilkS") (width 0.1) (fill none) (tstamp 8055fa06-e38f-4e6d-a0ca-e119ce90dd04))
  (fp_rect (start 179.95 123.95) (end 172.05 116.05) (layer "F.SilkS") (width 0.1) (fill none) (tstamp 8504405a-4e5f-4f3e-a383-889f064826c8))
  (fp_rect (start 11.95 123.95) (end 4.05 116.05) (layer "F.SilkS") (width 0.1) (fill none) (tstamp 885ada80-d57b-460e-a910-4cb7688b90a1))
  (fp_rect (start 219.95 123.95) (end 212.05 116.05) (layer "F.SilkS") (width 0.1) (fill none) (tstamp 8926e6be-7bfd-46b5-aa56-fddaf8d30cf7))
  (fp_rect (start 3.95 43.95) (end -3.95 36.05) (layer "F.SilkS") (width 0.1) (fill none) (tstamp 898db642-8d19-4ac2-b5f6-51d12cf4e1b2))
  (fp_rect (start 156.05 -3.95) (end 163.95 3.95) (layer "F.SilkS") (width 0.1) (fill none) (tstamp 909a507b-aa20-46ff-86b1-967910aeb454))
  (fp_rect (start 3.95 51.95) (end -3.95 44.05) (layer "F.SilkS") (width 0.1) (fill none) (tstamp 916522d8-c2d5-4c42-8045-3edd1d755865))
  (fp_rect (start 3.95 67.95) (end -3.95 60.05) (layer "F.SilkS") (width 0.1) (fill none) (tstamp 91d5c022-ea09-45a3-a542-9bd3950670ad))
  (fp_rect (start 244.05 44.05) (end 251.95 51.95) (layer "F.SilkS") (width 0.1) (fill none) (tstamp 9675c567-4310-4108-bb2a-1d9408e76969))
  (fp_rect (start 244.05 76.05) (end 251.95 83.95) (layer "F.SilkS") (width 0.1) (fill none) (tstamp 979a9cbb-ae0c-41de-a3ca-745a9b0da07c))
  (fp_rect (start 3.95 27.95) (end -3.95 20.05) (layer "F.SilkS") (width 0.1) (fill none) (tstamp 9a03cbf9-528d-4b54-a093-486aa2f9a0bc))
  (fp_rect (start 60.05 -3.95) (end 67.95 3.95) (layer "F.SilkS") (width 0.1) (fill none) (tstamp 9b7047a4-a16f-448c-83cc-760b74705564))
  (fp_rect (start 3.95 75.95) (end -3.95 68.05) (layer "F.SilkS") (width 0.1) (fill none) (tstamp a028568d-4e69-4728-9497-7f088c149e2d))
  (fp_rect (start 244.05 4.05) (end 251.95 11.95) (layer "F.SilkS") (width 0.1) (fill none) (tstamp a10ea237-ab74-45b9-b3a0-f7ca66863eaa))
  (fp_rect (start 203.95 123.95) (end 196.05 116.05) (layer "F.SilkS") (width 0.1) (fill none) (tstamp a142d243-cc4e-4d6c-8712-0934cc89d61f))
  (fp_rect (start 75.95 123.95) (end 68.05 116.05) (layer "F.SilkS") (width 0.1) (fill none) (tstamp a3983d30-9624-43d4-9030-ea5fe4644abb))
  (fp_rect (start 4.05 -3.95) (end 11.95 3.95) (layer "F.SilkS") (width 0.1) (fill none) (tstamp a3d29f22-0e01-4390-a292-bea1307b00b2))
  (fp_rect (start 188.05 -3.95) (end 195.95 3.95) (layer "F.SilkS") (width 0.1) (fill none) (tstamp a6536a28-34bb-4790-aaf1-3cb25df54690))
  (fp_rect (start 148.05 -3.95) (end 155.95 3.95) (layer "F.SilkS") (width 0.1) (fill none) (tstamp a98de566-05e1-40a7-9643-d95a20713c55))
  (fp_rect (start 131.95 123.95) (end 124.05 116.05) (layer "F.SilkS") (width 0.1) (fill none) (tstamp b0c1abc2-a3f4-4102-bd00-4122d8034974))
  (fp_rect (start 163.95 123.95) (end 156.05 116.05) (layer "F.SilkS") (width 0.1) (fill none) (tstamp b2b2c188-1f50-47f4-8a9f-09ffbe343ed2))
  (fp_rect (start 27.95 123.95) (end 20.05 116.05) (layer "F.SilkS") (width 0.1) (fill none) (tstamp b758f0eb-e28d-4da7-bfa7-5434327be755))
  (fp_rect (start 3.95 59.95) (end -3.95 52.05) (layer "F.SilkS") (width 0.1) (fill none) (tstamp bde6441d-c74a-46c9-ac58-5fc3d7dfe428))
  (fp_rect (start 244.05 36.05) (end 251.95 43.95) (layer "F.SilkS") (width 0.1) (fill none) (tstamp be279af8-705c-41d5-8fe9-3785b15a713b))
  (fp_rect (start 3.95 91.95) (end -3.95 84.05) (layer "F.SilkS") (width 0.1) (fill none) (tstamp c001067f-45d5-408d-b056-11be6040256f))
  (fp_rect (start 35.95 123.95) (end 28.05 116.05) (layer "F.SilkS") (width 0.1) (fill none) (tstamp c3e72975-c2e4-4606-a3d0-db9ef29f1430))
  (fp_rect (start 211.95 123.95) (end 204.05 116.05) (layer "F.SilkS") (width 0.1) (fill none) (tstamp c537bcc3-9154-4255-a800-3eaf0abdd3ac))
  (fp_rect (start 204.05 -3.95) (end 211.95 3.95) (layer "F.SilkS") (width 0.1) (fill none) (tstamp cc1a11f9-3ebd-4ff9-a89b-f2bdec168966))
  (fp_rect (start 20.05 -3.95) (end 27.95 3.95) (layer "F.SilkS") (width 0.1) (fill none) (tstamp d49f1ce6-155e-4a53-9d38-a06647b6a554))
  (fp_rect (start 68.05 -3.95) (end 75.95 3.95) (layer "F.SilkS") (width 0.1) (fill none) (tstamp dc423380-0dc5-49ef-8be9-94f04b68efb3))
  (fp_rect (start 244.05 108.05) (end 251.95 115.95) (layer "F.SilkS") (width 0.1) (fill none) (tstamp e00f8468-ee22-4285-882e-b40b9239b4bb))
  (fp_rect (start 243.95 123.95) (end 236.05 116.05) (layer "F.SilkS") (width 0.1) (fill none) (tstamp e04f0069-2bbe-4e4d-afbf-ad8fb84f907f))
  (fp_rect (start 76.05 -3.95) (end 83.95 3.95) (layer "F.SilkS") (width 0.1) (fill none) (tstamp e1b911e3-9c58-4ad3-b85d-d6b08745f83b))
  (fp_rect (start 155.95 123.95) (end 148.05 116.05) (layer "F.SilkS") (width 0.1) (fill none) (tstamp e6768988-6232-4f58-9925-8e5225a06809))
  (fp_rect (start 100.05 -3.95) (end 107.95 3.95) (layer "F.SilkS") (width 0.1) (fill none) (tstamp e6d1e78d-6ae9-4f0d-8338-032a8e84ecbb))
  (fp_rect (start 244.05 20.05) (end 251.95 27.95) (layer "F.SilkS") (width 0.1) (fill none) (tstamp eb00f208-c6c4-4bba-beeb-23fb8e2897ad))
  (fp_rect (start 195.95 123.95) (end 188.05 116.05) (layer "F.SilkS") (width 0.1) (fill none) (tstamp eb7b4ea2-b074-4a58-adb2-bed14e6f4088))
  (fp_rect (start 3.95 19.95) (end -3.95 12.05) (layer "F.SilkS") (width 0.1) (fill none) (tstamp eb8bef59-b419-4d9e-9a1d-f954d0fc2997))
  (fp_rect (start 52.05 -3.95) (end 59.95 3.95) (layer "F.SilkS") (width 0.1) (fill none) (tstamp ed2ec11c-590a-407b-928c-3b08b83ae140))
  (fp_rect (start 51.95 123.95) (end 44.05 116.05) (layer "F.SilkS") (width 0.1) (fill none) (tstamp ed7deedb-0390-46e7-8e9d-9da5df2f8601))
  (fp_rect (start 3.95 115.95) (end -3.95 108.05) (layer "F.SilkS") (width 0.1) (fill none) (tstamp f079c74d-eecf-4038-9a3a-aa5e4ad1ed14))
  (fp_rect (start 220.05 -3.95) (end 227.95 3.95) (layer "F.SilkS") (width 0.1) (fill none) (tstamp f6c9aef5-6973-4b7f-91bf-d737efe79fd9))
  (fp_rect (start 44.05 -3.95) (end 51.95 3.95) (layer "F.SilkS") (width 0.1) (fill none) (tstamp f78c12b3-e688-4d82-98c1-a2962039ab39))
  (fp_rect (start 244.05 12.05) (end 251.95 19.95) (layer "F.SilkS") (width 0.1) (fill none) (tstamp f85983be-2827-47a0-b05e-aea5227134e0))
  (fp_rect (start 227.95 123.95) (end 220.05 116.05) (layer "F.SilkS") (width 0.1) (fill none) (tstamp fa297efc-7e7d-4391-ace1-cb25b9010935))
  (fp_rect (start 235.95 123.95) (end 228.05 116.05) (layer "F.SilkS") (width 0.1) (fill none) (tstamp ff83ff0d-32e1-4491-a7d1-9964db50132a))
  (fp_arc (start 248 -3.95) (mid 250.793072 -2.793072) (end 251.95 0) (layer "F.SilkS") (width 0.1) (tstamp 0468014c-bf73-4481-8d57-72349f0f5484))
  (fp_arc (start 251.95 120) (mid 250.793072 122.793072) (end 248 123.95) (layer "F.SilkS") (width 0.1) (tstamp 6602face-060c-4a9e-81f2-c7d69174eebd))
  (fp_arc (start 0 123.95) (mid -2.793072 122.793072) (end -3.95 120) (layer "F.SilkS") (width 0.1) (tstamp e4df1b22-eb87-4c52-ae71-fc04ed6106ef))
  (fp_arc (start -3.95 0) (mid -2.793072 -2.793072) (end 0 -3.95) (layer "F.SilkS") (width 0.1) (tstamp e65a2f1d-1fe1-4d62-995e-01bc616bc849))
  (fp_line (start 251.9 116.1) (end 251.9 120) (layer "F.CrtYd") (width 0.12) (tstamp 01a18d0d-80c8-47df-ba6e-be90ccac027d))
  (fp_line (start -3.9 3.88) (end -3.9 120) (layer "F.CrtYd") (width 0.12) (tstamp 362dd481-e2a8-42a1-a69c-2fac640d3ee8))
  (fp_line (start 244.1 3.9) (end 244.1 116.1) (layer "F.CrtYd") (width 0.12) (tstamp 417938d4-09f5-4e00-a6fb-775ea2f4cae7))
  (fp_line (start 244.1 -3.9) (end 248 -3.9) (layer "F.CrtYd") (width 0.12) (tstamp 7ea95d84-ba59-4bac-b996-a629f84a3471))
  (fp_line (start 244.1 116.1) (end 3.9 116.1) (layer "F.CrtYd") (width 0.12) (tstamp 8a1494b2-4873-402b-9ca7-9cd6a1b8ca69))
  (fp_line (start 3.9 116.1) (end 3.9 3.9) (layer "F.CrtYd") (width 0.12) (tstamp 8d784fd3-458b-4656-aff2-2d915c6edaea))
  (fp_line (start 251.9 116.1) (end 251.9 0) (layer "F.CrtYd") (width 0.12) (tstamp aea658f7-6952-4135-afc7-a658a3f75919))
  (fp_line (start 3.9 123.9) (end 0 123.9) (layer "F.CrtYd") (width 0.12) (tstamp c9dd3e08-4b37-4fd6-8862-b82f37774128))
  (fp_line (start 3.9 123.9) (end 248 123.9) (layer "F.CrtYd") (width 0.12) (tstamp e8e8066d-03ae-41c2-bd12-9c0f58a04cfe))
  (fp_line (start 244.1 -3.9) (end 0 -3.9) (layer "F.CrtYd") (width 0.12) (tstamp ed2915bb-68f3-4e85-ac70-fd897197cebd))
  (fp_line (start -3.9 3.88) (end -3.9 0) (layer "F.CrtYd") (width 0.12) (tstamp f300e55f-4476-471a-9d39-2206d46ebae3))
  (fp_line (start 3.9 3.9) (end 244.1 3.9) (layer "F.CrtYd") (width 0.12) (tstamp f8927f0f-6b07-4af5-a14b-5b7b3bfeaac0))
  (fp_arc (start -3.9 0) (mid -2.757716 -2.757716) (end 0 -3.9) (layer "F.CrtYd") (width 0.12) (tstamp 326a9c43-7ef5-48d4-9d9a-3c40a7e16528))
  (fp_arc (start 0 123.9) (mid -2.757716 122.757716) (end -3.9 120) (layer "F.CrtYd") (width 0.12) (tstamp 6a38b1cf-ea8c-426b-afb3-a305dc924fe6))
  (fp_arc (start 248 -3.9) (mid 250.757716 -2.757716) (end 251.9 0) (layer "F.CrtYd") (width 0.12) (tstamp a7e67890-51f4-4144-8ef8-e3ceaa6c4499))
  (fp_arc (start 251.9 120) (mid 250.757716 122.757716) (end 248 123.9) (layer "F.CrtYd") (width 0.12) (tstamp d3c2953d-479a-48eb-8c11-01f289848559))
  (pad "" np_thru_hole circle (at 136 120 180) (size 4.875 4.875) (drill 4.875) (layers F&B.Cu *.Mask) (tstamp 01628122-d413-488c-b78a-223b6fdebd9a))
  (pad "" np_thru_hole circle (at 0 96 180) (size 4.875 4.875) (drill 4.875) (layers F&B.Cu *.Mask) (tstamp 0209a4c7-3d53-4aa9-baa9-9e2d142637f9))
  (pad "" np_thru_hole circle (at 160 120 180) (size 4.875 4.875) (drill 4.875) (layers F&B.Cu *.Mask) (tstamp 03e0f526-a12a-4caa-89b7-11ab75a36b24))
  (pad "" np_thru_hole circle (at 176 120 180) (size 5.875 5.875) (drill 4.875) (layers F&B.Cu *.Mask) (tstamp 04092a50-587e-4688-9ef5-c7d84044fbb9))
  (pad "" np_thru_hole circle (at 48 120 180) (size 4.875 4.875) (drill 4.875) (layers F&B.Cu *.Mask) (tstamp 06a57e27-2c83-403c-8d00-b8351fb3b7df))
  (pad "" np_thru_hole circle (at 192 120 180) (size 5.875 5.875) (drill 4.875) (layers F&B.Cu *.Mask) (tstamp 06e23f98-eee5-4fd5-82b2-86f2713e8981))
  (pad "" np_thru_hole circle (at 32 0) (size 4.875 4.875) (drill 4.875) (layers F&B.Cu *.Mask) (tstamp 1b88aa36-64fa-4296-89cc-786514c5985d))
  (pad "" np_thru_hole circle (at 128 0) (size 4.875 4.875) (drill 4.875) (layers F&B.Cu *.Mask) (tstamp 1dd03ebf-e2be-43ed-a6d3-1cb2b09ea0d3))
  (pad "" np_thru_hole circle (at 96 0) (size 4.875 4.875) (drill 4.875) (layers F&B.Cu *.Mask) (tstamp 2196e1ce-41d1-452a-b90c-1f645345804e))
  (pad "" np_thru_hole circle (at 0 72 180) (size 4.875 4.875) (drill 4.875) (layers F&B.Cu *.Mask) (tstamp 221f63ed-0ef7-46e4-a2ec-38005329f52d))
  (pad "" np_thru_hole circle (at 24 120 180) (size 4.875 4.875) (drill 4.875) (layers F&B.Cu *.Mask) (tstamp 22560ae8-fae4-4978-a83c-f8e68535de98))
  (pad "" np_thru_hole circle (at 32 120 180) (size 4.875 4.875) (drill 4.875) (layers F&B.Cu *.Mask) (tstamp 230e7e18-c474-4fbd-aff9-25b8793d0b02))
  (pad "" np_thru_hole circle (at 40 0) (size 4.875 4.875) (drill 4.875) (layers F&B.Cu *.Mask) (tstamp 2663d779-5e07-4fad-b07f-5671b4b0b03b))
  (pad "" np_thru_hole circle (at 0 0 90) (size 4.875 4.875) (drill 4.875) (layers F&B.Cu *.Mask) (tstamp 2a610bce-6308-4c97-a791-63f8543d9321))
  (pad "" np_thru_hole circle (at 0 48 180) (size 4.875 4.875) (drill 4.875) (layers F&B.Cu *.Mask) (tstamp 2f4f088e-0aba-47e2-b740-5a3ab30d2f96))
  (pad "" np_thru_hole circle (at 248 120 270) (size 5.875 5.875) (drill 4.875) (layers F&B.Cu *.Mask) (tstamp 31dbedf3-f8a6-4435-8acc-76fe560eb73d))
  (pad "" np_thru_hole circle (at 248 64) (size 4.875 4.875) (drill 4.875) (layers F&B.Cu *.Mask) (tstamp 35403c6d-a31e-4771-9a79-7ab5318e9333))
  (pad "" np_thru_hole circle (at 248 8) (size 4.875 4.875) (drill 4.875) (layers F&B.Cu *.Mask) (tstamp 38962e03-3e9f-41fd-9d70-c64c529d5ab3))
  (pad "" np_thru_hole circle (at 248 112) (size 4.875 4.875) (drill 4.875) (layers F&B.Cu *.Mask) (tstamp 3bf0da7f-9917-4e12-88e6-9fde9a14d42a))
  (pad "" np_thru_hole circle (at 152 120 180) (size 4.875 4.875) (drill 4.875) (layers F&B.Cu *.Mask) (tstamp 3c7f5066-fe85-43f5-9149-d45aa570c50c))
  (pad "" np_thru_hole circle (at 248 0) (size 4.875 4.875) (drill 4.875) (layers F&B.Cu *.Mask) (tstamp 3e78796f-8c45-40ba-ae07-7d1ad85bf95f))
  (pad "" np_thru_hole circle (at 208 0) (size 4.875 4.875) (drill 4.875) (layers F&B.Cu *.Mask) (tstamp 3ea0976d-e206-4c70-b786-4770d977b9d2))
  (pad "" np_thru_hole circle (at 248 24) (size 4.875 4.875) (drill 4.875) (layers F&B.Cu *.Mask) (tstamp 414071a6-0cf1-4464-b91e-35b46fc6e839))
  (pad "" np_thru_hole circle (at 184 0) (size 4.875 4.875) (drill 4.875) (layers F&B.Cu *.Mask) (tstamp 415feba3-efd0-4b4c-8c93-8b5250fd9411))
  (pad "" np_thru_hole circle (at 0 24 180) (size 4.875 4.875) (drill 4.875) (layers F&B.Cu *.Mask) (tstamp 4179fd76-38e1-40ac-b528-76df3841ff8e))
  (pad "" np_thru_hole circle (at 152 0) (size 4.875 4.875) (drill 4.875) (layers F&B.Cu *.Mask) (tstamp 44f36c4e-4895-4309-a4d7-3751ad5702f9))
  (pad "" np_thru_hole circle (at 192 0) (size 4.875 4.875) (drill 4.875) (layers F&B.Cu *.Mask) (tstamp 46794c4f-341d-486c-a97a-4cf50bded091))
  (pad "" np_thru_hole circle (at 200 120 180) (size 5.875 5.875) (drill 4.875) (layers F&B.Cu *.Mask) (tstamp 4800f3ca-3038-443e-aa98-1a2957c980a2))
  (pad "" np_thru_hole circle (at 0 88 180) (size 4.875 4.875) (drill 4.875) (layers F&B.Cu *.Mask) (tstamp 48229fde-9b29-46e7-a17b-c4266e3765ed))
  (pad "" np_thru_hole circle (at 0 40 180) (size 4.875 4.875) (drill 4.875) (layers F&B.Cu *.Mask) (tstamp 488bc5ec-446e-4b5b-bfd2-109c60d82cbb))
  (pad "" np_thru_hole circle (at 240 120 180) (size 5.875 5.875) (drill 4.875) (layers F&B.Cu *.Mask) (tstamp 49990e08-98f8-4303-b43f-172c46afd63a))
  (pad "" np_thru_hole circle (at 40 120 180) (size 4.875 4.875) (drill 4.875) (layers F&B.Cu *.Mask) (tstamp 4b4b2428-65d3-442b-aa4b-b87b53e8362c))
  (pad "" np_thru_hole circle (at 80 0) (size 4.875 4.875) (drill 4.875) (layers F&B.Cu *.Mask) (tstamp 4f4fb640-f757-4f8d-9acb-f498345d9462))
  (pad "" np_thru_hole circle (at 72 120 180) (size 4.875 4.875) (drill 4.875) (layers F&B.Cu *.Mask) (tstamp 55139b53-ff60-43c6-805d-dd44e2ed10b2))
  (pad "" np_thru_hole circle (at 120 0) (size 4.875 4.875) (drill 4.875) (layers F&B.Cu *.Mask) (tstamp 568ccc0d-8003-41a3-b64c-44e7b96999a2))
  (pad "" np_thru_hole circle (at 56 0) (size 4.875 4.875) (drill 4.875) (layers F&B.Cu *.Mask) (tstamp 56dfd4fb-7c4e-43e3-8eb0-e78ac8d1d0f8))
  (pad "" np_thru_hole circle (at 64 0) (size 4.875 4.875) (drill 4.875) (layers F&B.Cu *.Mask) (tstamp 589e1659-8097-47cb-93aa-b9108f5f22ef))
  (pad "" np_thru_hole circle (at 104 0) (size 4.875 4.875) (drill 4.875) (layers F&B.Cu *.Mask) (tstamp 5b356214-3d31-46d9-a22d-8b4a209b7911))
  (pad "" np_thru_hole circle (at 112 0) (size 4.875 4.875) (drill 4.875) (layers F&B.Cu *.Mask) (tstamp 5ea2b527-3999-4c7a-b044-74c980c44ef8))
  (pad "" np_thru_hole circle (at 176 0) (size 4.875 4.875) (drill 4.875) (layers F&B.Cu *.Mask) (tstamp 60615d8b-b7b1-443e-bb5c-c46966408a9c))
  (pad "" np_thru_hole circle (at 0 104 180) (size 4.875 4.875) (drill 4.875) (layers F&B.Cu *.Mask) (tstamp 638e03f6-2e62-460c-b083-ad1b8048629c))
  (pad "" np_thru_hole circle (at 136 0) (size 4.875 4.875) (drill 4.875) (layers F&B.Cu *.Mask) (tstamp 63e9cdd2-fd86-4e06-ba96-7d3ce8c7893b))
  (pad "" np_thru_hole circle (at 248 88) (size 4.875 4.875) (drill 4.875) (layers F&B.Cu *.Mask) (tstamp 6d6615f5-ae4f-4000-8e53-0eeef1936dd5))
  (pad "" np_thru_hole circle (at 24 0) (size 4.875 4.875) (drill 4.875) (layers F&B.Cu *.Mask) (tstamp 6dbe6fdc-038b-4f76-a984-117a6e3722fd))
  (pad "" np_thru_hole circle (at 0 80 180) (size 4.875 4.875) (drill 4.875) (layers F&B.Cu *.Mask) (tstamp 6ea77164-0970-4cf9-8060-1f05afa998f8))
  (pad "" np_thru_hole circle (at 168 120 180) (size 5.875 5.875) (drill 4.875) (layers F&B.Cu *.Mask) (tstamp 71123ddc-2e5a-4860-a17d-0a5d18b23e60))
  (pad "" np_thru_hole circle (at 8 0) (size 4.875 4.875) (drill 4.875) (layers F&B.Cu *.Mask) (tstamp 74e62f8f-ca0c-4f3c-9f65-19e16a1e775d))
  (pad "" np_thru_hole circle (at 248 32) (size 4.875 4.875) (drill 4.875) (layers F&B.Cu *.Mask) (tstamp 7a0a9504-a711-410f-8a9f-42d8316e650c))
  (pad "" np_thru_hole circle (at 248 16) (size 4.875 4.875) (drill 4.875) (layers F&B.Cu *.Mask) (tstamp 7b9e6147-e91c-45e7-9dce-ea4d09153b4b))
  (pad "" np_thru_hole circle (at 88 120 180) (size 4.875 4.875) (drill 4.875) (layers F&B.Cu *.Mask) (tstamp 7f7f83fd-397a-4482-a8b4-78a4b954510e))
  (pad "" np_thru_hole circle (at 240 0) (size 5.875 5.875) (drill 4.875) (layers F&B.Cu *.Mask) (tstamp 83d6d497-8cd4-4806-9318-75101a77074d))
  (pad "" np_thru_hole circle (at 0 64 180) (size 4.875 4.875) (drill 4.875) (layers F&B.Cu *.Mask) (tstamp 863b4f92-5c23-411b-82b8-0aab70d09fe3))
  (pad "" np_thru_hole circle (at 120 120 180) (size 4.875 4.875) (drill 4.875) (layers F&B.Cu *.Mask) (tstamp 8a12296e-89ad-4321-a165-97d25ffad679))
  (pad "" np_thru_hole circle (at 224 120 180) (size 4.875 4.875) (drill 4.875) (layers F&B.Cu *.Mask) (tstamp 8d42dd60-f6dc-40fc-a745-fd74b9ee3e84))
  (pad "" np_thru_hole circle (at 0 16 180) (size 4.875 4.875) (drill 4.875) (layers F&B.Cu *.Mask) (tstamp 9130f72e-b58f-4ef4-b359-84035d56b693))
  (pad "" np_thru_hole circle (at 160 0) (size 4.875 4.875) (drill 4.875) (layers F&B.Cu *.Mask) (tstamp 93f08d89-8b77-4dec-a221-d70f9b929717))
  (pad "" np_thru_hole circle (at 16 120 180) (size 4.875 4.875) (drill 4.875) (layers F&B.Cu *.Mask) (tstamp 954b4117-0822-4ee7-b49e-bfec4ae32c74))
  (pad "" np_thru_hole circle (at 0 56 180) (size 4.875 4.875) (drill 4.875) (layers F&B.Cu *.Mask) (tstamp 96b28c5a-ea23-4905-8f0a-d50cd25fcb23))
  (pad "" np_thru_hole circle (at 0 112 180) (size 4.875 4.875) (drill 4.875) (layers F&B.Cu *.Mask) (tstamp 9b1160fd-8532-4f0d-9f25-dc0732e3e0e6))
  (pad "" np_thru_hole circle (at 216 0) (size 4.875 4.875) (drill 4.875) (layers F&B.Cu *.Mask) (tstamp 9ce3155c-29bb-4a16-8c95-53c7a820d11a))
  (pad "" np_thru_hole circle (at 144 0) (size 4.875 4.875) (drill 4.875) (layers F&B.Cu *.Mask) (tstamp 9d110faa-1344-4699-bd3a-f1f3bf569914))
  (pad "" np_thru_hole circle (at 0 120 180) (size 4.875 4.875) (drill 4.875) (layers F&B.Cu *.Mask) (tstamp a11ebc63-7ae3-4327-be36-3a9a42c3a813))
  (pad "" np_thru_hole circle (at 232 120 180) (size 5.875 5.875) (drill 4.875) (layers F&B.Cu *.Mask) (tstamp a1e339c8-1d5e-4c18-a89b-95c8abca6c56))
  (pad "" np_thru_hole circle (at 248 72) (size 4.875 4.875) (drill 4.875) (layers F&B.Cu *.Mask) (tstamp a4208360-29af-48a7-adfa-9782c595015a))
  (pad "" np_thru_hole circle (at 88 0) (size 4.875 4.875) (drill 4.875) (layers F&B.Cu *.Mask) (tstamp a6b67852-dab5-48c8-ac50-7547e426b55c))
  (pad "" np_thru_hole circle (at 8 120 180) (size 4.875 4.875) (drill 4.875) (layers F&B.Cu *.Mask) (tstamp a7ad113c-8bd3-4ed9-87ea-0dac09fa3841))
  (pad "" np_thru_hole circle (at 216 120 180) (size 4.875 4.875) (drill 4.875) (layers F&B.Cu *.Mask) (tstamp a840fbfc-4a9a-4112-9c00-d1e3d6555a16))
  (pad "" np_thru_hole circle (at 64 120 180) (size 4.875 4.875) (drill 4.875) (layers F&B.Cu *.Mask) (tstamp a9bd9fc1-41d7-4fab-a242-dfcce7fb1a73))
  (pad "" np_thru_hole circle (at 104 120 180) (size 4.875 4.875) (drill 4.875) (layers F&B.Cu *.Mask) (tstamp a9fdddd1-1eec-4ee9-8290-f4d0d186dfbe))
  (pad "" np_thru_hole circle (at 96 120 180) (size 4.875 4.875) (drill 4.875) (layers F&B.Cu *.Mask) (tstamp b22333ae-5a48-4c27-a949-63b9a6aaaabe))
  (pad "" np_thru_hole circle (at 128 120 180) (size 4.875 4.875) (drill 4.875) (layers F&B.Cu *.Mask) (tstamp b7878424-b9bb-4179-a2e1-a63082e222dc))
  (pad "" np_thru_hole circle (at 0 32 180) (size 4.875 4.875) (drill 4.875) (layers F&B.Cu *.Mask) (tstamp ba71de64-68d1-4448-a96f-9abf1ac71f33))
  (pad "" np_thru_hole circle (at 248 56) (size 4.875 4.875) (drill 4.875) (layers F&B.Cu *.Mask) (tstamp bc126372-d1c7-4df8-9765-0e45e28b4111))
  (pad "" np_thru_hole circle (at 248 40) (size 4.875 4.875) (drill 4.875) (layers F&B.Cu *.Mask) (tstamp be0c66d4-2ebf-4f3d-a219-0bbed204eea8))
  (pad "" np_thru_hole circle (at 72 0) (size 4.875 4.875) (drill 4.875) (layers F&B.Cu *.Mask) (tstamp cabdd4cc-0644-46a5-881f-9bc277487784))
  (pad "" np_thru_hole circle (at 248 48) (size 4.875 4.875) (drill 4.875) (layers F&B.Cu *.Mask) (tstamp cb39d4b2-9707-40db-b17f-07a150eb5a32))
  (pad "" np_thru_hole circle (at 80 120 180) (size 4.875 4.875) (drill 4.875) (layers F&B.Cu *.Mask) (tstamp cb529b57-4e3a-4184-b3f0-d2e2b491a1bc))
  (pad "" np_thru_hole circle (at 248 80) (size 4.875 4.875) (drill 4.875) (layers F&B.Cu *.Mask) (tstamp cd18f2d8-b20e-437b-b54c-55ca00a7c74c))
  (pad "" np_thru_hole circle (at 112 120 180) (size 4.875 4.875) (drill 4.875) (layers F&B.Cu *.Mask) (tstamp cf25e387-a0bb-4abf-94fa-fd75f2890e09))
  (pad "" np_thru_hole circle (at 144 120 180) (size 4.875 4.875) (drill 4.875) (layers F&B.Cu *.Mask) (tstamp cf602986-9b67-43de-8425-f167d4504f5b))
  (pad "" np_thru_hole circle (at 16 0) (size 4.875 4.875) (drill 4.875) (layers F&B.Cu *.Mask) (tstamp d8dcfd47-0bce-45b1-b324-5e82b1a8a5ca))
  (pad "" np_thru_hole circle (at 232 0) (size 4.875 4.875) (drill 4.875) (layers F&B.Cu *.Mask) (tstamp dc3614b7-23f8-4e34-bddf-412a20676161))
  (pad "" np_thru_hole circle (at 184 120 180) (size 5.875 5.875) (drill 4.875) (layers F&B.Cu *.Mask) (tstamp dee7b354-f7dd-4d76-bdb3-5b8e75582ef8))
  (pad "" np_thru_hole circle (at 248 104) (size 4.875 4.875) (drill 4.875) (layers F&B.Cu *.Mask) (tstamp e040a73b-458a-4c14-91b7-3aec260dd779))
  (pad "" np_thru_hole circle (at 208 120 180) (size 5.875 5.875) (drill 4.875) (layers F&B.Cu *.Mask) (tstamp e632db7d-dac4-4f7e-9f08-9b2e261bc23f))
  (pad "" np_thru_hole circle (at 56 120 180) (size 4.875 4.875) (drill 4.875) (layers F&B.Cu *.Mask) (tstamp e808b4ec-3fca-4be2-a31b-36d7c083ce0a))
  (pad "" np_thru_hole circle (at 48 0) (size 4.875 4.875) (drill 4.875) (layers F&B.Cu *.Mask) (tstamp ea248f08-00df-4948-b8ba-590b284419b9))
  (pad "" np_thru_hole circle (at 224 0) (size 5.875 5.875) (drill 4.875) (layers F&B.Cu *.Mask) (tstamp eff549ba-7bae-461f-ba22-784321cfacf1))
  (pad "" np_thru_hole circle (at 0 8 180) (size 4.875 4.875) (drill 4.875) (layers F&B.Cu *.Mask) (tstamp f0a0440d-3a47-4f65-a2c7-8d91f0315a1c))
  (pad "" np_thru_hole circle (at 248 96) (size 4.875 4.875) (drill 4.875) (layers F&B.Cu *.Mask) (tstamp f6321839-242d-4be9-b04f-225ad47c9c85))
  (pad "" np_thru_hole circle (at 168 0) (size 4.875 4.875) (drill 4.875) (layers F&B.Cu *.Mask) (tstamp f7739d18-e24d-43ea-ba17-35ecf669e31d))
  (pad "" np_thru_hole circle (at 200 0) (size 4.875 4.875) (drill 4.875) (layers F&B.Cu *.Mask) (tstamp fc745afd-f547-4776-9688-1c923fd7ca2c))
)
