(footprint "LegoHole_10x20u_4875" (version 20211014) (generator pcbnew)
  (layer "F.Cu")
  (tedit 61D86E9B)
  (descr "Mounting Hole 4.9mm, no annular")
  (tags "mounting hole 4.9mm, no annular")
  (property "Sheetfile" "m65.kicad_sch")
  (property "Sheetname" "")
  (attr exclude_from_pos_files exclude_from_bom)
  (fp_text reference "H?" (at 2.794 3.048) (layer "F.SilkS") hide
    (effects (font (size 1 1) (thickness 0.15)))
    (tstamp 48093584-e6d1-41cf-8ecd-fd4b2710fe7a)
  )
  (fp_text value "MountingHole" (at 2.54 -5.08) (layer "F.Fab") hide
    (effects (font (size 1 1) (thickness 0.15)))
    (tstamp 7c65f2ea-b53e-42ce-89d6-b9f96fa43a98)
  )
  (fp_text user "${REFERENCE}" (at 87.7 72 180) (layer "F.Fab")
    (effects (font (size 1 1) (thickness 0.15)))
    (tstamp 1771bf68-328e-498c-a9b2-54f8d10c72e8)
  )
  (fp_text user "${REFERENCE}" (at 40.3 0) (layer "F.Fab")
    (effects (font (size 1 1) (thickness 0.15)))
    (tstamp 1831b922-f359-4998-96a2-17e78f534518)
  )
  (fp_text user "${REFERENCE}" (at 152.3 32) (layer "F.Fab")
    (effects (font (size 1 1) (thickness 0.15)))
    (tstamp 1a7439e6-6d91-4ac2-87ae-21063f9cacb7)
  )
  (fp_text user "${REFERENCE}" (at -0.3 16 180) (layer "F.Fab")
    (effects (font (size 1 1) (thickness 0.15)))
    (tstamp 1af57a81-9347-4952-9815-cb5b21903bdc)
  )
  (fp_text user "${REFERENCE}" (at 152.3 64) (layer "F.Fab")
    (effects (font (size 1 1) (thickness 0.15)))
    (tstamp 1efb30f6-6311-4b5c-b776-224f111f2891)
  )
  (fp_text user "${REFERENCE}" (at 152.3 48) (layer "F.Fab")
    (effects (font (size 1 1) (thickness 0.15)))
    (tstamp 20e4aa7e-6e1f-42d1-a9d4-97c6a85461cd)
  )
  (fp_text user "${REFERENCE}" (at -0.3 48 180) (layer "F.Fab")
    (effects (font (size 1 1) (thickness 0.15)))
    (tstamp 262539a4-a005-4a48-af9b-8a1db3ab6b65)
  )
  (fp_text user "${REFERENCE}" (at 152.3 56) (layer "F.Fab")
    (effects (font (size 1 1) (thickness 0.15)))
    (tstamp 29ca106a-52b2-487f-a8f4-8977f0f2608d)
  )
  (fp_text user "${REFERENCE}" (at 7.7 72 180) (layer "F.Fab")
    (effects (font (size 1 1) (thickness 0.15)))
    (tstamp 3206f405-bff7-4be7-81d8-46169a3db81e)
  )
  (fp_text user "${REFERENCE}" (at 152.3 24) (layer "F.Fab")
    (effects (font (size 1 1) (thickness 0.15)))
    (tstamp 34f4483f-5b4f-41d8-835c-3507e2ef12db)
  )
  (fp_text user "${REFERENCE}" (at 8.3 0) (layer "F.Fab")
    (effects (font (size 1 1) (thickness 0.15)))
    (tstamp 423dca81-438a-4a92-a502-8495bed4f42e)
  )
  (fp_text user "${REFERENCE}" (at -0.3 40 180) (layer "F.Fab")
    (effects (font (size 1 1) (thickness 0.15)))
    (tstamp 4f3b7097-f81a-4b43-8620-cfc96c5a3711)
  )
  (fp_text user "${REFERENCE}" (at 56.3 0) (layer "F.Fab")
    (effects (font (size 1 1) (thickness 0.15)))
    (tstamp 506abdd1-b58c-49ab-af17-f2bcc1fe35ae)
  )
  (fp_text user "${REFERENCE}" (at 152.3 8) (layer "F.Fab")
    (effects (font (size 1 1) (thickness 0.15)))
    (tstamp 50990ca5-d182-4a8b-a772-8e13870f04dc)
  )
  (fp_text user "${REFERENCE}" (at -0.3 72 180) (layer "F.Fab")
    (effects (font (size 1 1) (thickness 0.15)))
    (tstamp 56e0e746-4b4a-498a-967d-6f7452863452)
  )
  (fp_text user "${REFERENCE}" (at 71.7 72 180) (layer "F.Fab")
    (effects (font (size 1 1) (thickness 0.15)))
    (tstamp 5bcdd4a9-844a-4902-abc0-10b45c3736bd)
  )
  (fp_text user "${REFERENCE}" (at -0.3 8 180) (layer "F.Fab")
    (effects (font (size 1 1) (thickness 0.15)))
    (tstamp 5c49ce4f-6ad9-4373-995b-1e9a508cd942)
  )
  (fp_text user "${REFERENCE}" (at 55.7 72 180) (layer "F.Fab")
    (effects (font (size 1 1) (thickness 0.15)))
    (tstamp 6715d575-803d-4fa3-9b95-4c76c05ae248)
  )
  (fp_text user "${REFERENCE}" (at 128.3 0) (layer "F.Fab")
    (effects (font (size 1 1) (thickness 0.15)))
    (tstamp 74c34d0e-112e-4e62-b9a0-64e4f5c2c5f0)
  )
  (fp_text user "${REFERENCE}" (at 152.3 16) (layer "F.Fab")
    (effects (font (size 1 1) (thickness 0.15)))
    (tstamp 78a91190-4933-430a-9385-1634955d1660)
  )
  (fp_text user "${REFERENCE}" (at -0.3 56 180) (layer "F.Fab")
    (effects (font (size 1 1) (thickness 0.15)))
    (tstamp 7d2d79f0-0e57-4bed-a09f-ba6034ee9fe2)
  )
  (fp_text user "${REFERENCE}" (at 103.7 72 180) (layer "F.Fab")
    (effects (font (size 1 1) (thickness 0.15)))
    (tstamp 7f9e33e8-2dfb-4ce0-bc8f-f08ff83c12cf)
  )
  (fp_text user "${REFERENCE}" (at 47.7 72 180) (layer "F.Fab")
    (effects (font (size 1 1) (thickness 0.15)))
    (tstamp 877ef575-0842-4c6f-8996-94ea3be01e39)
  )
  (fp_text user "${REFERENCE}" (at 152.3 40) (layer "F.Fab")
    (effects (font (size 1 1) (thickness 0.15)))
    (tstamp 8910fb9d-1a34-4761-8033-d43ace9235a3)
  )
  (fp_text user "${REFERENCE}" (at 152.3 0) (layer "F.Fab")
    (effects (font (size 1 1) (thickness 0.15)))
    (tstamp 895996fa-62aa-490f-afad-da61113287e7)
  )
  (fp_text user "${REFERENCE}" (at 152 72.3 270) (layer "F.Fab")
    (effects (font (size 1 1) (thickness 0.15)))
    (tstamp 8a8b58ef-cffc-4db7-9dfe-ab7ce20beda0)
  )
  (fp_text user "${REFERENCE}" (at 104.3 0) (layer "F.Fab")
    (effects (font (size 1 1) (thickness 0.15)))
    (tstamp 9306c23d-579f-4b24-ad35-dc882dcca42d)
  )
  (fp_text user "${REFERENCE}" (at 32.3 0) (layer "F.Fab")
    (effects (font (size 1 1) (thickness 0.15)))
    (tstamp 959514f7-9469-4836-a425-9ae737f0e0bf)
  )
  (fp_text user "${REFERENCE}" (at 31.7 72 180) (layer "F.Fab")
    (effects (font (size 1 1) (thickness 0.15)))
    (tstamp 97148c58-425a-4d19-b3ee-5c12c961c58b)
  )
  (fp_text user "${REFERENCE}" (at 79.7 72 180) (layer "F.Fab")
    (effects (font (size 1 1) (thickness 0.15)))
    (tstamp 9bb92b38-62be-4164-a854-81e77a2b8285)
  )
  (fp_text user "${REFERENCE}" (at -0.3 32 180) (layer "F.Fab")
    (effects (font (size 1 1) (thickness 0.15)))
    (tstamp a020573f-1d7a-4fc8-8196-7facb0cefbc0)
  )
  (fp_text user "${REFERENCE}" (at 112.3 0) (layer "F.Fab")
    (effects (font (size 1 1) (thickness 0.15)))
    (tstamp a243dcf3-0dc3-40dc-8e17-7382fa241e62)
  )
  (fp_text user "${REFERENCE}" (at 119.7 72 180) (layer "F.Fab")
    (effects (font (size 1 1) (thickness 0.15)))
    (tstamp a2eb1277-b7b2-4664-87b3-7232c20f84f3)
  )
  (fp_text user "${REFERENCE}" (at 96.3 0) (layer "F.Fab")
    (effects (font (size 1 1) (thickness 0.15)))
    (tstamp a81e6da1-2200-47e8-a3b5-87f334f96bed)
  )
  (fp_text user "${REFERENCE}" (at -0.3 64 180) (layer "F.Fab")
    (effects (font (size 1 1) (thickness 0.15)))
    (tstamp a8a17a65-b34e-4235-8d78-cf70c3be095f)
  )
  (fp_text user "${REFERENCE}" (at -0.3 24 180) (layer "F.Fab")
    (effects (font (size 1 1) (thickness 0.15)))
    (tstamp af22084b-82bc-4c6a-bc6f-72d8956e2536)
  )
  (fp_text user "${REFERENCE}" (at 48.3 0) (layer "F.Fab")
    (effects (font (size 1 1) (thickness 0.15)))
    (tstamp b039acb2-f474-44fe-b0b8-36fadfc621d5)
  )
  (fp_text user "${REFERENCE}" (at 127.7 72 180) (layer "F.Fab")
    (effects (font (size 1 1) (thickness 0.15)))
    (tstamp b319b64b-1c44-4bed-9652-fd4a7969c5ac)
  )
  (fp_text user "${REFERENCE}" (at 0 -0.3 90) (layer "F.Fab")
    (effects (font (size 1 1) (thickness 0.15)))
    (tstamp b8955c1e-63e2-437d-a3ab-88d358cb765d)
  )
  (fp_text user "${REFERENCE}" (at 88.3 0) (layer "F.Fab")
    (effects (font (size 1 1) (thickness 0.15)))
    (tstamp b93ab47b-a949-4cdd-8687-9613754a71d9)
  )
  (fp_text user "${REFERENCE}" (at 144.3 0) (layer "F.Fab")
    (effects (font (size 1 1) (thickness 0.15)))
    (tstamp c083f16c-8e14-4b1b-83ff-3424c45d4be9)
  )
  (fp_text user "${REFERENCE}" (at 143.7 72 180) (layer "F.Fab")
    (effects (font (size 1 1) (thickness 0.15)))
    (tstamp c086d82c-1738-4933-b172-78ea5108a007)
  )
  (fp_text user "${REFERENCE}" (at 72.3 0) (layer "F.Fab")
    (effects (font (size 1 1) (thickness 0.15)))
    (tstamp c2aebd6d-2a32-44db-b10d-f002ebd2472f)
  )
  (fp_text user "${REFERENCE}" (at 64.3 0) (layer "F.Fab")
    (effects (font (size 1 1) (thickness 0.15)))
    (tstamp ca54fb5b-4914-4634-b0d9-a30ef2ffb1a8)
  )
  (fp_text user "${REFERENCE}" (at 24.3 0) (layer "F.Fab")
    (effects (font (size 1 1) (thickness 0.15)))
    (tstamp cc7682bf-fffa-437c-8f7f-5fb85c234119)
  )
  (fp_text user "${REFERENCE}" (at 111.7 72 180) (layer "F.Fab")
    (effects (font (size 1 1) (thickness 0.15)))
    (tstamp dc258115-876f-41a3-9a4e-23c33cd24d16)
  )
  (fp_text user "${REFERENCE}" (at 95.7 72 180) (layer "F.Fab")
    (effects (font (size 1 1) (thickness 0.15)))
    (tstamp dda6626e-61b9-4482-bd5d-7b19b4aa61aa)
  )
  (fp_text user "${REFERENCE}" (at 15.7 72 180) (layer "F.Fab")
    (effects (font (size 1 1) (thickness 0.15)))
    (tstamp e0411185-4923-4e2d-9f06-c7458edcf2cb)
  )
  (fp_text user "${REFERENCE}" (at 63.7 72 180) (layer "F.Fab")
    (effects (font (size 1 1) (thickness 0.15)))
    (tstamp f0d89742-546e-4361-b2d3-97a7acdc3eb1)
  )
  (fp_text user "${REFERENCE}" (at 80.3 0) (layer "F.Fab")
    (effects (font (size 1 1) (thickness 0.15)))
    (tstamp f308d32a-b8db-4fab-94e2-f8338721f33a)
  )
  (fp_text user "${REFERENCE}" (at 39.7 72 180) (layer "F.Fab")
    (effects (font (size 1 1) (thickness 0.15)))
    (tstamp f39d3327-c22c-4836-bed5-4a5e3cb93407)
  )
  (fp_text user "${REFERENCE}" (at 135.7 72 180) (layer "F.Fab")
    (effects (font (size 1 1) (thickness 0.15)))
    (tstamp f48dd27b-73e8-467f-88e2-7d4aa6dae46f)
  )
  (fp_text user "${REFERENCE}" (at 23.7 72 180) (layer "F.Fab")
    (effects (font (size 1 1) (thickness 0.15)))
    (tstamp fb24064c-06cf-4572-b045-4f9e1ef3834f)
  )
  (fp_text user "${REFERENCE}" (at 16.3 0) (layer "F.Fab")
    (effects (font (size 1 1) (thickness 0.15)))
    (tstamp fd4e1187-ceb8-4926-ace6-069992b37568)
  )
  (fp_text user "${REFERENCE}" (at 136.3 0) (layer "F.Fab")
    (effects (font (size 1 1) (thickness 0.15)))
    (tstamp fd4e9c77-ca4c-4fbc-9e00-c9c8e5a66e4c)
  )
  (fp_text user "${REFERENCE}" (at 120.3 0) (layer "F.Fab")
    (effects (font (size 1 1) (thickness 0.15)))
    (tstamp ff4f80ef-4d20-40a0-ba7d-159f2eeb3d1d)
  )
  (fp_line (start 3.95 3.95) (end 3.95 -3.95) (layer "F.SilkS") (width 0.1) (tstamp 2f410e10-d9e9-42ae-866e-23fbefe006db))
  (fp_line (start 0 -3.95) (end 3.95 -3.95) (layer "F.SilkS") (width 0.1) (tstamp 340d4cef-4726-41e1-af63-0cc1829ef3d9))
  (fp_line (start 155.95 72) (end 155.95 68.05) (layer "F.SilkS") (width 0.1) (tstamp 406cd4f1-9c37-47c6-92e5-68fb47b214a5))
  (fp_line (start -3.95 3.95) (end 3.95 3.95) (layer "F.SilkS") (width 0.1) (tstamp 5038f6d6-4a03-4dc1-8cdd-ce7f224530d6))
  (fp_line (start 152 -3.95) (end 148.05 -3.95) (layer "F.SilkS") (width 0.1) (tstamp 6e6586a6-e7f0-4ef3-9da6-a3cf5a7fa3ce))
  (fp_line (start 148.05 68.05) (end 148.05 75.95) (layer "F.SilkS") (width 0.1) (tstamp 6f244a7f-fc3b-46b8-a011-328042b14586))
  (fp_line (start 155.95 68.05) (end 148.05 68.05) (layer "F.SilkS") (width 0.1) (tstamp 73c30075-27b8-483c-adfa-b2db4adbf578))
  (fp_line (start 152 75.95) (end 148.05 75.95) (layer "F.SilkS") (width 0.1) (tstamp 74b7b6f5-25db-4d9f-9dce-4f1325ce514f))
  (fp_line (start 3.95 68.05) (end -3.95 68.05) (layer "F.SilkS") (width 0.1) (tstamp 7e2eaca2-9a5c-491a-9cdd-3a0914221bd6))
  (fp_line (start 148.05 3.95) (end 155.95 3.95) (layer "F.SilkS") (width 0.1) (tstamp 8ef2c4bc-3733-466c-846e-2c9c2a0508be))
  (fp_line (start 3.95 75.95) (end 3.95 68.05) (layer "F.SilkS") (width 0.1) (tstamp bc15288e-886a-432a-aaec-187f882a8c08))
  (fp_line (start 155.95 0) (end 155.95 3.95) (layer "F.SilkS") (width 0.1) (tstamp c355cc2b-a6a0-4740-b65f-dddbc7839c83))
  (fp_line (start 0 75.95) (end 3.95 75.95) (layer "F.SilkS") (width 0.1) (tstamp d13b1ba6-cb9a-471d-bc7f-ae0424889e97))
  (fp_line (start -3.95 72) (end -3.95 68.05) (layer "F.SilkS") (width 0.1) (tstamp e65d7811-5e9b-4bce-a7c5-65cc465c718f))
  (fp_line (start 148.05 -3.95) (end 148.05 3.95) (layer "F.SilkS") (width 0.1) (tstamp e7fc14e8-fbc7-4366-8d84-ee11948514f0))
  (fp_line (start -3.95 0) (end -3.95 3.95) (layer "F.SilkS") (width 0.1) (tstamp e899561c-db2e-4436-a50b-fabbfd1b933e))
  (fp_rect (start 3.95 19.95) (end -3.95 12.05) (layer "F.SilkS") (width 0.1) (fill none) (tstamp 00bb4b17-85c6-43e5-96b6-c5aef85911e5))
  (fp_rect (start 28.05 -3.95) (end 35.95 3.95) (layer "F.SilkS") (width 0.1) (fill none) (tstamp 06330687-b879-4879-9472-b6296898dbd7))
  (fp_rect (start 123.95 75.95) (end 116.05 68.05) (layer "F.SilkS") (width 0.1) (fill none) (tstamp 09c193f3-ec58-4a2d-900b-859f071c1247))
  (fp_rect (start 84.05 -3.95) (end 91.95 3.95) (layer "F.SilkS") (width 0.1) (fill none) (tstamp 0e466e87-e049-47dd-a1c5-7dd1ef63bb21))
  (fp_rect (start 148.05 52.05) (end 155.95 59.95) (layer "F.SilkS") (width 0.1) (fill none) (tstamp 131f79b1-aa50-4534-87df-ddbd3020f8e3))
  (fp_rect (start 92.05 -3.95) (end 99.95 3.95) (layer "F.SilkS") (width 0.1) (fill none) (tstamp 16eaaba7-9a2a-4454-b7c6-d9fe48773a10))
  (fp_rect (start 43.95 75.95) (end 36.05 68.05) (layer "F.SilkS") (width 0.1) (fill none) (tstamp 17ccd0cb-2791-4d99-86c4-04285848a68d))
  (fp_rect (start 99.95 75.95) (end 92.05 68.05) (layer "F.SilkS") (width 0.1) (fill none) (tstamp 1a3be543-7472-4e2b-ab46-ba63d9632bba))
  (fp_rect (start 12.05 -3.95) (end 19.95 3.95) (layer "F.SilkS") (width 0.1) (fill none) (tstamp 1a827f43-ce50-4933-bc28-ad4eb6bc981e))
  (fp_rect (start 3.95 11.95) (end -3.95 4.05) (layer "F.SilkS") (width 0.1) (fill none) (tstamp 3d68a76e-5173-416b-a133-e4958762cee8))
  (fp_rect (start 148.05 36.05) (end 155.95 43.95) (layer "F.SilkS") (width 0.1) (fill none) (tstamp 3ef48437-f334-4324-b8c1-2eabce8ea8c3))
  (fp_rect (start 140.05 -3.95) (end 147.95 3.95) (layer "F.SilkS") (width 0.1) (fill none) (tstamp 40ad7f9c-17ce-4b7f-ae46-1bf2dab6e820))
  (fp_rect (start 35.95 75.95) (end 28.05 68.05) (layer "F.SilkS") (width 0.1) (fill none) (tstamp 420622ba-1665-4884-a61b-086cf9f38049))
  (fp_rect (start 132.05 -3.95) (end 139.95 3.95) (layer "F.SilkS") (width 0.1) (fill none) (tstamp 4c4ac5d0-c0ec-470f-b799-a274b264d17b))
  (fp_rect (start 124.05 -3.95) (end 131.95 3.95) (layer "F.SilkS") (width 0.1) (fill none) (tstamp 4ce35955-917b-422a-9c12-3718a725bb8b))
  (fp_rect (start 108.05 -3.95) (end 115.95 3.95) (layer "F.SilkS") (width 0.1) (fill none) (tstamp 4ec47dec-3c0a-4f3b-b216-9f091f207e2a))
  (fp_rect (start 83.95 75.95) (end 76.05 68.05) (layer "F.SilkS") (width 0.1) (fill none) (tstamp 510c215b-5f9f-4594-aa0f-f2855eeaf9e0))
  (fp_rect (start 27.95 75.95) (end 20.05 68.05) (layer "F.SilkS") (width 0.1) (fill none) (tstamp 5988607b-3f53-4663-8afe-9e3d2968515a))
  (fp_rect (start 116.05 -3.95) (end 123.95 3.95) (layer "F.SilkS") (width 0.1) (fill none) (tstamp 5a69f18d-7705-4866-9de5-419ef4dec561))
  (fp_rect (start 3.95 43.95) (end -3.95 36.05) (layer "F.SilkS") (width 0.1) (fill none) (tstamp 68d98b23-bd0d-4e3a-bfdb-439ae19f6972))
  (fp_rect (start 139.95 75.95) (end 132.05 68.05) (layer "F.SilkS") (width 0.1) (fill none) (tstamp 6ecf4683-5e9d-415f-bde6-f486d2b86a55))
  (fp_rect (start 131.95 75.95) (end 124.05 68.05) (layer "F.SilkS") (width 0.1) (fill none) (tstamp 74a62557-5884-4e84-a2cc-b946c557b615))
  (fp_rect (start 115.95 75.95) (end 108.05 68.05) (layer "F.SilkS") (width 0.1) (fill none) (tstamp 74ab0213-49a7-4d1f-ad52-3dc7492522f2))
  (fp_rect (start 148.05 60.05) (end 155.95 67.95) (layer "F.SilkS") (width 0.1) (fill none) (tstamp 752ba762-31d0-4928-8638-2527f2d07771))
  (fp_rect (start 36.05 -3.95) (end 43.95 3.95) (layer "F.SilkS") (width 0.1) (fill none) (tstamp 7b565960-6f66-4421-adca-892156b2292a))
  (fp_rect (start 148.05 28.05) (end 155.95 35.95) (layer "F.SilkS") (width 0.1) (fill none) (tstamp 7cf75f7c-529f-422f-91de-d924d1a69777))
  (fp_rect (start 147.95 75.95) (end 140.05 68.05) (layer "F.SilkS") (width 0.1) (fill none) (tstamp 7dc3fb37-b6cc-4763-8da8-6a886f803579))
  (fp_rect (start 3.95 59.95) (end -3.95 52.05) (layer "F.SilkS") (width 0.1) (fill none) (tstamp 813a77fd-19ee-414a-9e92-a32673109c6e))
  (fp_rect (start 51.95 75.95) (end 44.05 68.05) (layer "F.SilkS") (width 0.1) (fill none) (tstamp 823cd746-a8fc-4539-b0fb-13d1f611b6a9))
  (fp_rect (start 91.95 75.95) (end 84.05 68.05) (layer "F.SilkS") (width 0.1) (fill none) (tstamp 86dc1b5e-60bb-4352-80fd-6c970bbd274a))
  (fp_rect (start 67.95 75.95) (end 60.05 68.05) (layer "F.SilkS") (width 0.1) (fill none) (tstamp 87b0dd2e-2113-4570-a24b-0b421bc20a24))
  (fp_rect (start 59.95 75.95) (end 52.05 68.05) (layer "F.SilkS") (width 0.1) (fill none) (tstamp 88ef3b06-12e4-48af-bc86-f82888dd4218))
  (fp_rect (start 3.95 27.95) (end -3.95 20.05) (layer "F.SilkS") (width 0.1) (fill none) (tstamp 94cacf05-e5eb-4238-97ca-04f1acdf80f7))
  (fp_rect (start 60.05 -3.95) (end 67.95 3.95) (layer "F.SilkS") (width 0.1) (fill none) (tstamp 9b7047a4-a16f-448c-83cc-760b74705564))
  (fp_rect (start 148.05 4.05) (end 155.95 11.95) (layer "F.SilkS") (width 0.1) (fill none) (tstamp a0240a3b-5e39-4d19-9a87-f7783d3d2c55))
  (fp_rect (start 4.05 -3.95) (end 11.95 3.95) (layer "F.SilkS") (width 0.1) (fill none) (tstamp a3d29f22-0e01-4390-a292-bea1307b00b2))
  (fp_rect (start 11.95 75.95) (end 4.05 68.05) (layer "F.SilkS") (width 0.1) (fill none) (tstamp a786df5c-9171-4193-86d1-7c0cde83b316))
  (fp_rect (start 3.95 67.95) (end -3.95 60.05) (layer "F.SilkS") (width 0.1) (fill none) (tstamp bb5dfd21-200c-4f0f-966f-9df99b6f06fa))
  (fp_rect (start 19.95 75.95) (end 12.05 68.05) (layer "F.SilkS") (width 0.1) (fill none) (tstamp bc906f12-1a5c-45e6-a5c2-6a2a55284f4f))
  (fp_rect (start 148.05 12.05) (end 155.95 19.95) (layer "F.SilkS") (width 0.1) (fill none) (tstamp bf2120d4-df13-493a-b20f-ab34ee054be8))
  (fp_rect (start 148.05 20.05) (end 155.95 27.95) (layer "F.SilkS") (width 0.1) (fill none) (tstamp d092a931-46b2-48b1-8620-ba4d848a0cd2))
  (fp_rect (start 20.05 -3.95) (end 27.95 3.95) (layer "F.SilkS") (width 0.1) (fill none) (tstamp d49f1ce6-155e-4a53-9d38-a06647b6a554))
  (fp_rect (start 68.05 -3.95) (end 75.95 3.95) (layer "F.SilkS") (width 0.1) (fill none) (tstamp dc423380-0dc5-49ef-8be9-94f04b68efb3))
  (fp_rect (start 3.95 35.95) (end -3.95 28.05) (layer "F.SilkS") (width 0.1) (fill none) (tstamp dc5ec6a2-cf2a-49e2-84d8-c9178f64a9a7))
  (fp_rect (start 107.95 75.95) (end 100.05 68.05) (layer "F.SilkS") (width 0.1) (fill none) (tstamp df9ebe7e-0a78-41b0-ad4f-611585a3d201))
  (fp_rect (start 76.05 -3.95) (end 83.95 3.95) (layer "F.SilkS") (width 0.1) (fill none) (tstamp e1b911e3-9c58-4ad3-b85d-d6b08745f83b))
  (fp_rect (start 100.05 -3.95) (end 107.95 3.95) (layer "F.SilkS") (width 0.1) (fill none) (tstamp e6d1e78d-6ae9-4f0d-8338-032a8e84ecbb))
  (fp_rect (start 52.05 -3.95) (end 59.95 3.95) (layer "F.SilkS") (width 0.1) (fill none) (tstamp ed2ec11c-590a-407b-928c-3b08b83ae140))
  (fp_rect (start 3.95 51.95) (end -3.95 44.05) (layer "F.SilkS") (width 0.1) (fill none) (tstamp f4b2da1e-ff39-49b9-a7d1-89de9c20a65d))
  (fp_rect (start 44.05 -3.95) (end 51.95 3.95) (layer "F.SilkS") (width 0.1) (fill none) (tstamp f78c12b3-e688-4d82-98c1-a2962039ab39))
  (fp_rect (start 75.95 75.95) (end 68.05 68.05) (layer "F.SilkS") (width 0.1) (fill none) (tstamp fc16aa65-e685-4ca8-a12e-2bf39558486c))
  (fp_rect (start 148.05 44.05) (end 155.95 51.95) (layer "F.SilkS") (width 0.1) (fill none) (tstamp fc916ab2-e363-45e9-9ad6-bb9df31137f6))
  (fp_arc (start 155.95 72) (mid 154.793072 74.793072) (end 152 75.95) (layer "F.SilkS") (width 0.1) (tstamp 2ddfe980-5864-4f63-b831-c8d0bd8555e6))
  (fp_arc (start 0 75.95) (mid -2.793072 74.793072) (end -3.95 72) (layer "F.SilkS") (width 0.1) (tstamp 45f29e2c-e42d-4968-8ac2-0fe11ed617a1))
  (fp_arc (start 152 -3.95) (mid 154.793072 -2.793072) (end 155.95 0) (layer "F.SilkS") (width 0.1) (tstamp c66137d5-4830-45e9-b7ca-72a54e4537fb))
  (fp_arc (start -3.95 0) (mid -2.793072 -2.793072) (end 0 -3.95) (layer "F.SilkS") (width 0.1) (tstamp e65a2f1d-1fe1-4d62-995e-01bc616bc849))
  (fp_line (start 148.1 -3.9) (end 152 -3.9) (layer "F.CrtYd") (width 0.12) (tstamp 07772694-96f3-4e13-92dc-afea258a634c))
  (fp_line (start 3.9 75.9) (end 3.9 4.05) (layer "F.CrtYd") (width 0.12) (tstamp 27098c55-4359-4f06-87a9-41b504538273))
  (fp_line (start 3.9 4.05) (end -3.9 4.05) (layer "F.CrtYd") (width 0.12) (tstamp 2f9202d2-70cb-48af-b405-a15395b01b74))
  (fp_line (start -3.9 4.05) (end -3.9 72) (layer "F.CrtYd") (width 0.12) (tstamp 3aa0a6fe-c9c4-48f9-bb12-3f85b3ce34b6))
  (fp_line (start 148.1 -3.9) (end 148.1 67.95) (layer "F.CrtYd") (width 0.12) (tstamp 45e7e6fa-c856-43ae-92ff-3c6d7f9f0a15))
  (fp_line (start 155.9 68.1) (end 3.9 68.1) (layer "F.CrtYd") (width 0.12) (tstamp 6415cbb5-662d-47fa-af22-58c9af6cfbf2))
  (fp_line (start 155.9 67.95) (end 155.9 0) (layer "F.CrtYd") (width 0.12) (tstamp 720a7e32-9e31-426e-9eed-a68633000552))
  (fp_line (start 3.9 75.9) (end 152 75.9) (layer "F.CrtYd") (width 0.12) (tstamp 938dc6ef-2e39-46ad-b89f-7c154c1d7acf))
  (fp_line (start 3.9 75.9) (end 0 75.9) (layer "F.CrtYd") (width 0.12) (tstamp 9af9f8e0-ac82-4bc1-93e7-ae6e72ce38ab))
  (fp_line (start 155.9 68.1) (end 155.9 72) (layer "F.CrtYd") (width 0.12) (tstamp afe9ce59-f61f-46d0-8aa6-1a5e51c35b4e))
  (fp_line (start 3.9 75.9) (end 3.9 68.1) (layer "F.CrtYd") (width 0.12) (tstamp c21b6ddf-a48a-455d-8876-81617520cf8f))
  (fp_line (start 148.1 67.95) (end 155.9 67.95) (layer "F.CrtYd") (width 0.12) (tstamp d8ab8a9e-655b-4762-ae55-a1da0a8d1bf5))
  (fp_line (start 148.1 -3.9) (end 148.1 3.9) (layer "F.CrtYd") (width 0.12) (tstamp e356663c-c4f6-4758-ac07-5a5e198fdd3f))
  (fp_line (start 148.1 -3.9) (end 0 -3.9) (layer "F.CrtYd") (width 0.12) (tstamp ed2915bb-68f3-4e85-ac70-fd897197cebd))
  (fp_line (start -3.9 3.9) (end -3.9 0) (layer "F.CrtYd") (width 0.12) (tstamp f300e55f-4476-471a-9d39-2206d46ebae3))
  (fp_line (start -3.9 3.9) (end 148.1 3.9) (layer "F.CrtYd") (width 0.12) (tstamp f8927f0f-6b07-4af5-a14b-5b7b3bfeaac0))
  (fp_arc (start -3.9 0) (mid -2.757716 -2.757716) (end 0 -3.9) (layer "F.CrtYd") (width 0.12) (tstamp 326a9c43-7ef5-48d4-9d9a-3c40a7e16528))
  (fp_arc (start 155.9 72) (mid 154.757716 74.757716) (end 152 75.9) (layer "F.CrtYd") (width 0.12) (tstamp af5b7beb-52e3-45ef-b9eb-d15ff2be33c9))
  (fp_arc (start 152 -3.9) (mid 154.757716 -2.757716) (end 155.9 0) (layer "F.CrtYd") (width 0.12) (tstamp b3b7de93-005a-4736-a826-bd738edf59ac))
  (fp_arc (start 0 75.9) (mid -2.757716 74.757716) (end -3.9 72) (layer "F.CrtYd") (width 0.12) (tstamp b66957cc-5dcf-4a47-8796-72f867170cc5))
  (pad "" np_thru_hole circle (at 0 48 180) (size 4.875 4.875) (drill 4.875) (layers F&B.Cu *.Mask) (tstamp 005290d5-2776-43ca-bee4-6e5fd0e7af9a))
  (pad "" np_thru_hole circle (at 0 40 180) (size 4.875 4.875) (drill 4.875) (layers F&B.Cu *.Mask) (tstamp 035ddfe0-6c88-464d-9b4d-611edffd16d5))
  (pad "" np_thru_hole circle (at 120 72 180) (size 4.875 4.875) (drill 4.875) (layers F&B.Cu *.Mask) (tstamp 05feb121-5575-4865-bf8d-57be338b5514))
  (pad "" np_thru_hole circle (at 152 48) (size 4.875 4.875) (drill 4.875) (layers F&B.Cu *.Mask) (tstamp 09343d60-f3bc-4419-abd9-d14ccc05c113))
  (pad "" np_thru_hole circle (at 56 72 180) (size 4.875 4.875) (drill 4.875) (layers F&B.Cu *.Mask) (tstamp 0c1c6a6c-2c16-4cc3-9a10-47c329a72b79))
  (pad "" np_thru_hole circle (at 48 72 180) (size 4.875 4.875) (drill 4.875) (layers F&B.Cu *.Mask) (tstamp 0e9b56e6-543a-4159-b9fd-25bfc11f7307))
  (pad "" np_thru_hole circle (at 32 0) (size 4.875 4.875) (drill 4.875) (layers F&B.Cu *.Mask) (tstamp 1b88aa36-64fa-4296-89cc-786514c5985d))
  (pad "" np_thru_hole circle (at 128 0) (size 4.875 4.875) (drill 4.875) (layers F&B.Cu *.Mask) (tstamp 1dd03ebf-e2be-43ed-a6d3-1cb2b09ea0d3))
  (pad "" np_thru_hole circle (at 96 0) (size 4.875 4.875) (drill 4.875) (layers F&B.Cu *.Mask) (tstamp 2196e1ce-41d1-452a-b90c-1f645345804e))
  (pad "" np_thru_hole circle (at 40 0) (size 4.875 4.875) (drill 4.875) (layers F&B.Cu *.Mask) (tstamp 2663d779-5e07-4fad-b07f-5671b4b0b03b))
  (pad "" np_thru_hole circle (at 96 72 180) (size 4.875 4.875) (drill 4.875) (layers F&B.Cu *.Mask) (tstamp 27e2f153-545e-46bf-97f9-d0b0069db9ef))
  (pad "" np_thru_hole circle (at 0 0 90) (size 4.875 4.875) (drill 4.875) (layers F&B.Cu *.Mask) (tstamp 2a610bce-6308-4c97-a791-63f8543d9321))
  (pad "" np_thru_hole circle (at 152 16) (size 4.875 4.875) (drill 4.875) (layers F&B.Cu *.Mask) (tstamp 2deab72d-6fb3-43ea-8ab9-5c68c514de4e))
  (pad "" np_thru_hole circle (at 40 72 180) (size 4.875 4.875) (drill 4.875) (layers F&B.Cu *.Mask) (tstamp 38378a68-3fcf-499b-b7f1-bfc2e262deff))
  (pad "" np_thru_hole circle (at 8 72 180) (size 4.875 4.875) (drill 4.875) (layers F&B.Cu *.Mask) (tstamp 3a02d44e-d15d-43e3-840a-d3a7ef95009c))
  (pad "" np_thru_hole circle (at 16 72 180) (size 4.875 4.875) (drill 4.875) (layers F&B.Cu *.Mask) (tstamp 4c2f92ec-6151-4fd8-b4db-b8490bed8f22))
  (pad "" np_thru_hole circle (at 80 0) (size 4.875 4.875) (drill 4.875) (layers F&B.Cu *.Mask) (tstamp 4f4fb640-f757-4f8d-9acb-f498345d9462))
  (pad "" np_thru_hole circle (at 152 8) (size 4.875 4.875) (drill 4.875) (layers F&B.Cu *.Mask) (tstamp 50340513-4b54-4d30-a69e-1fc78c769792))
  (pad "" np_thru_hole circle (at 120 0) (size 4.875 4.875) (drill 4.875) (layers F&B.Cu *.Mask) (tstamp 568ccc0d-8003-41a3-b64c-44e7b96999a2))
  (pad "" np_thru_hole circle (at 56 0) (size 4.875 4.875) (drill 4.875) (layers F&B.Cu *.Mask) (tstamp 56dfd4fb-7c4e-43e3-8eb0-e78ac8d1d0f8))
  (pad "" np_thru_hole circle (at 64 0) (size 4.875 4.875) (drill 4.875) (layers F&B.Cu *.Mask) (tstamp 589e1659-8097-47cb-93aa-b9108f5f22ef))
  (pad "" np_thru_hole circle (at 104 0) (size 4.875 4.875) (drill 4.875) (layers F&B.Cu *.Mask) (tstamp 5b356214-3d31-46d9-a22d-8b4a209b7911))
  (pad "" np_thru_hole circle (at 104 72 180) (size 4.875 4.875) (drill 4.875) (layers F&B.Cu *.Mask) (tstamp 5b65acad-7860-4569-9fca-2f30d32a3b63))
  (pad "" np_thru_hole circle (at 112 0) (size 4.875 4.875) (drill 4.875) (layers F&B.Cu *.Mask) (tstamp 5ea2b527-3999-4c7a-b044-74c980c44ef8))
  (pad "" np_thru_hole circle (at 64 72 180) (size 4.875 4.875) (drill 4.875) (layers F&B.Cu *.Mask) (tstamp 5ec5353b-b2ae-429c-87d8-665116e13f0b))
  (pad "" np_thru_hole circle (at 136 0) (size 4.875 4.875) (drill 4.875) (layers F&B.Cu *.Mask) (tstamp 63e9cdd2-fd86-4e06-ba96-7d3ce8c7893b))
  (pad "" np_thru_hole circle (at 152 32) (size 4.875 4.875) (drill 4.875) (layers F&B.Cu *.Mask) (tstamp 6420c211-15f9-4fbd-af27-aa45d78c4d0d))
  (pad "" np_thru_hole circle (at 32 72 180) (size 4.875 4.875) (drill 4.875) (layers F&B.Cu *.Mask) (tstamp 65679226-05db-447b-b18c-ec5e78b28396))
  (pad "" np_thru_hole circle (at 24 0) (size 4.875 4.875) (drill 4.875) (layers F&B.Cu *.Mask) (tstamp 6dbe6fdc-038b-4f76-a984-117a6e3722fd))
  (pad "" np_thru_hole circle (at 80 72 180) (size 4.875 4.875) (drill 4.875) (layers F&B.Cu *.Mask) (tstamp 71cde850-4b5b-400e-b208-c94d02b6f4e5))
  (pad "" np_thru_hole circle (at 72 72 180) (size 4.875 4.875) (drill 4.875) (layers F&B.Cu *.Mask) (tstamp 7389bd95-d522-4247-835b-306778ad2da8))
  (pad "" np_thru_hole circle (at 8 0) (size 4.875 4.875) (drill 4.875) (layers F&B.Cu *.Mask) (tstamp 74e62f8f-ca0c-4f3c-9f65-19e16a1e775d))
  (pad "" np_thru_hole circle (at 0 64 180) (size 4.875 4.875) (drill 4.875) (layers F&B.Cu *.Mask) (tstamp 775de483-8cbd-487f-beba-e17120f61c9f))
  (pad "" np_thru_hole circle (at 0 24 180) (size 4.875 4.875) (drill 4.875) (layers F&B.Cu *.Mask) (tstamp 9097c652-cd89-4d7c-a25f-3992bbdab13e))
  (pad "" np_thru_hole circle (at 88 72 180) (size 4.875 4.875) (drill 4.875) (layers F&B.Cu *.Mask) (tstamp 96b37a0a-3798-4f21-87be-67f5cf95a6b2))
  (pad "" np_thru_hole circle (at 136 72 180) (size 4.875 4.875) (drill 4.875) (layers F&B.Cu *.Mask) (tstamp 9a7b825f-52f3-432a-a10d-b5f260c488a7))
  (pad "" np_thru_hole circle (at 144 0) (size 4.875 4.875) (drill 4.875) (layers F&B.Cu *.Mask) (tstamp 9d110faa-1344-4699-bd3a-f1f3bf569914))
  (pad "" np_thru_hole circle (at 152 64) (size 4.875 4.875) (drill 4.875) (layers F&B.Cu *.Mask) (tstamp 9df80002-a47e-406f-8c01-204bdb469d32))
  (pad "" np_thru_hole circle (at 144 72 180) (size 4.875 4.875) (drill 4.875) (layers F&B.Cu *.Mask) (tstamp a2c1eb2e-0a39-4766-a307-9864a47e7f03))
  (pad "" np_thru_hole circle (at 88 0) (size 4.875 4.875) (drill 4.875) (layers F&B.Cu *.Mask) (tstamp a6b67852-dab5-48c8-ac50-7547e426b55c))
  (pad "" np_thru_hole circle (at 0 56 180) (size 4.875 4.875) (drill 4.875) (layers F&B.Cu *.Mask) (tstamp b14fd011-228a-40c5-93e2-3c8f3bf9d2bc))
  (pad "" np_thru_hole circle (at 0 16 180) (size 4.875 4.875) (drill 4.875) (layers F&B.Cu *.Mask) (tstamp bde63bc5-3c53-406e-b8c8-70d3a4d252aa))
  (pad "" np_thru_hole circle (at 0 72 180) (size 4.875 4.875) (drill 4.875) (layers F&B.Cu *.Mask) (tstamp be05e5d0-be77-489a-9ffc-6342dc51a6f0))
  (pad "" np_thru_hole circle (at 0 32 180) (size 4.875 4.875) (drill 4.875) (layers F&B.Cu *.Mask) (tstamp c4b14e90-8c66-4454-ab4b-4c9b945d613a))
  (pad "" np_thru_hole circle (at 152 24) (size 4.875 4.875) (drill 4.875) (layers F&B.Cu *.Mask) (tstamp c6c108ea-737d-4ac3-a27b-38cdf1248c18))
  (pad "" np_thru_hole circle (at 112 72 180) (size 4.875 4.875) (drill 4.875) (layers F&B.Cu *.Mask) (tstamp ca77d524-a15a-4edd-8254-646e28f3c9a0))
  (pad "" np_thru_hole circle (at 72 0) (size 4.875 4.875) (drill 4.875) (layers F&B.Cu *.Mask) (tstamp cabdd4cc-0644-46a5-881f-9bc277487784))
  (pad "" np_thru_hole circle (at 16 0) (size 4.875 4.875) (drill 4.875) (layers F&B.Cu *.Mask) (tstamp d8dcfd47-0bce-45b1-b324-5e82b1a8a5ca))
  (pad "" np_thru_hole circle (at 128 72 180) (size 4.875 4.875) (drill 4.875) (layers F&B.Cu *.Mask) (tstamp de8a16b5-be55-49e1-9845-cd84db04ca23))
  (pad "" np_thru_hole circle (at 152 40) (size 4.875 4.875) (drill 4.875) (layers F&B.Cu *.Mask) (tstamp e7499834-cf0d-49bd-bc6c-e9db5d2d7b05))
  (pad "" np_thru_hole circle (at 24 72 180) (size 4.875 4.875) (drill 4.875) (layers F&B.Cu *.Mask) (tstamp e81c270d-8507-4b37-b7aa-6540ae29606b))
  (pad "" np_thru_hole circle (at 48 0) (size 4.875 4.875) (drill 4.875) (layers F&B.Cu *.Mask) (tstamp ea248f08-00df-4948-b8ba-590b284419b9))
  (pad "" np_thru_hole circle (at 152 0) (size 4.875 4.875) (drill 4.875) (layers F&B.Cu *.Mask) (tstamp f3fd4613-4d0c-4a38-aa1b-bbd0691a3514))
  (pad "" np_thru_hole circle (at 152 56) (size 4.875 4.875) (drill 4.875) (layers F&B.Cu *.Mask) (tstamp fa421282-d131-47cd-9466-c65983793d47))
  (pad "" np_thru_hole circle (at 0 8 180) (size 4.875 4.875) (drill 4.875) (layers F&B.Cu *.Mask) (tstamp fbc868f3-6655-40cc-91f6-63616535cc6c))
  (pad "" np_thru_hole circle (at 152 72 270) (size 4.875 4.875) (drill 4.875) (layers F&B.Cu *.Mask) (tstamp ff887699-1e8a-4e17-9282-7221fbcfa167))
)
