(footprint "LegoHole_11u_4875" (version 20211014) (generator pcbnew)
  (layer "F.Cu")
  (tedit 61D86E9B)
  (descr "Mounting Hole 4.9mm, no annular")
  (tags "mounting hole 4.9mm, no annular")
  (property "Sheetfile" "m2x2-rev2.kicad_sch")
  (property "Sheetname" "")
  (attr exclude_from_pos_files)
  (fp_text reference "H1" (at 2.794 3.048) (layer "F.SilkS") hide
    (effects (font (size 1 1) (thickness 0.15)))
    (tstamp 0aae6e9c-cb97-4987-a70b-b5092e33137d)
  )
  (fp_text value "Lego" (at -5.08 2.54 90) (layer "F.Fab") hide
    (effects (font (size 1 1) (thickness 0.15)))
    (tstamp 97f4c906-6099-45db-93d0-2a695338ba85)
  )
  (fp_text user "${REFERENCE}" (at 0.3 24) (layer "F.Fab")
    (effects (font (size 1 1) (thickness 0.15)))
    (tstamp 00690681-d8d7-43c0-8ce8-6ddbcd19ede7)
  )
  (fp_text user "${REFERENCE}" (at 0.3 32) (layer "F.Fab")
    (effects (font (size 1 1) (thickness 0.15)))
    (tstamp 03f375b3-8d49-4d69-b2a1-5299269cc1c0)
  )
  (fp_text user "${REFERENCE}" (at 0.3 8) (layer "F.Fab")
    (effects (font (size 1 1) (thickness 0.15)))
    (tstamp 2b18bc44-2ef9-42fb-a29e-29d21cd05c02)
  )
  (fp_text user "${REFERENCE}" (at 0.3 -8) (layer "F.Fab")
    (effects (font (size 1 1) (thickness 0.15)))
    (tstamp 32599c72-794d-4e05-890f-74d613ccfa97)
  )
  (fp_text user "${REFERENCE}" (at 0.3 16) (layer "F.Fab")
    (effects (font (size 1 1) (thickness 0.15)))
    (tstamp 33c6f175-b21b-48f8-a140-5842ca709787)
  )
  (fp_text user "${REFERENCE}" (at 0.3 48) (layer "F.Fab")
    (effects (font (size 1 1) (thickness 0.15)))
    (tstamp 344d074c-415f-473e-b973-614dee6dbef0)
  )
  (fp_text user "${REFERENCE}" (at 0.3 72) (layer "F.Fab")
    (effects (font (size 1 1) (thickness 0.15)))
    (tstamp 4aaafc03-bf76-43ad-9254-746beac9a2fb)
  )
  (fp_text user "${REFERENCE}" (at 0.3 56) (layer "F.Fab")
    (effects (font (size 1 1) (thickness 0.15)))
    (tstamp 4c7ff0e3-6729-49a2-a8b6-3088c9da31d6)
  )
  (fp_text user "${REFERENCE}" (at 0.3 0) (layer "F.Fab")
    (effects (font (size 1 1) (thickness 0.15)))
    (tstamp 641ee095-84b7-40a6-8e94-7b6ef418bcc6)
  )
  (fp_text user "${REFERENCE}" (at 0.3 40) (layer "F.Fab")
    (effects (font (size 1 1) (thickness 0.15)))
    (tstamp 79e002ed-bd68-4d92-bdc5-88b6a4c4ec84)
  )
  (fp_text user "${REFERENCE}" (at 0.3 64) (layer "F.Fab")
    (effects (font (size 1 1) (thickness 0.15)))
    (tstamp a4276dd6-6b88-4d49-8bcb-09e0b3f74b40)
  )
  (fp_line (start 3.95 -8) (end 3.95 -4.05) (layer "F.SilkS") (width 0.1) (tstamp 34d92d24-29fb-41ff-b60e-183c1b69ee8a))
  (fp_line (start -3.95 -4.05) (end 3.95 -4.05) (layer "F.SilkS") (width 0.1) (tstamp 594463cb-b3ab-43e0-9cc7-ef95d1798123))
  (fp_line (start 0 -11.95) (end -3.95 -11.95) (layer "F.SilkS") (width 0.1) (tstamp cca38453-2c27-4428-8c58-e2b9918a5899))
  (fp_line (start -3.95 -11.95) (end -3.95 -4.05) (layer "F.SilkS") (width 0.1) (tstamp dd5aa5b9-929e-4fa4-b642-63befc698f23))
  (fp_rect (start -3.95 4.05) (end 3.95 11.95) (layer "F.SilkS") (width 0.1) (fill none) (tstamp 05cd9566-9ba6-458a-901c-cf00dcd9924e))
  (fp_rect (start -3.95 28.05) (end 3.95 35.95) (layer "F.SilkS") (width 0.1) (fill none) (tstamp 09ff5049-45fe-4781-8d05-40952591485e))
  (fp_rect (start -3.95 12.05) (end 3.95 19.95) (layer "F.SilkS") (width 0.1) (fill none) (tstamp 36aa0ec0-d86a-4da0-97cd-4ee858c54cf3))
  (fp_rect (start -3.95 60.05) (end 3.95 67.95) (layer "F.SilkS") (width 0.1) (fill none) (tstamp 3e1580aa-ac79-4cfd-863c-b23088348d60))
  (fp_rect (start -3.95 44.05) (end 3.95 51.95) (layer "F.SilkS") (width 0.1) (fill none) (tstamp 4268cecf-e510-440d-ac64-796ba772fb62))
  (fp_rect (start -3.95 20.05) (end 3.95 27.95) (layer "F.SilkS") (width 0.1) (fill none) (tstamp 6a8f1bdd-4af8-440d-9273-3000980fb80e))
  (fp_rect (start -3.95 -3.95) (end 3.95 3.95) (layer "F.SilkS") (width 0.1) (fill none) (tstamp 74b77807-18b7-4dde-9bc3-b0e2b0cfd331))
  (fp_rect (start -3.95 36.05) (end 3.95 43.95) (layer "F.SilkS") (width 0.1) (fill none) (tstamp 76165847-27ac-4391-a29a-1c4849c45618))
  (fp_rect (start -3.95 68.05) (end 3.95 75.95) (layer "F.SilkS") (width 0.1) (fill none) (tstamp d2f03943-935f-43ee-bb7e-b6fcab41141c))
  (fp_rect (start -3.95 52.05) (end 3.95 59.95) (layer "F.SilkS") (width 0.1) (fill none) (tstamp d38761b6-20fd-44f0-8fcd-848bc49693f1))
  (fp_arc (start 0 -11.95) (mid 2.793072 -10.793072) (end 3.95 -8) (layer "F.SilkS") (width 0.1) (tstamp d658f54d-79bc-44b4-aa4e-1ccd1fe8ffd0))
  (fp_line (start 3.9 75.95) (end 3.9 -8) (layer "F.CrtYd") (width 0.12) (tstamp 10605fc2-2584-4115-9b37-6ebef74042b0))
  (fp_line (start -3.9 75.95) (end 3.9 75.95) (layer "F.CrtYd") (width 0.12) (tstamp 1f73dbd8-a0fb-4938-ada6-940ae34ae71d))
  (fp_line (start -3.9 -11.9) (end 0 -11.9) (layer "F.CrtYd") (width 0.12) (tstamp aef10caf-b1e7-4b31-adbe-41b9b6c61e1b))
  (fp_line (start -3.9 -11.9) (end -3.9 75.95) (layer "F.CrtYd") (width 0.12) (tstamp e42c22af-79ed-4788-91ea-437b6f156d21))
  (fp_arc (start 0 -11.9) (mid 2.757716 -10.757716) (end 3.9 -8) (layer "F.CrtYd") (width 0.12) (tstamp 38597bda-67f1-42fd-8dbe-34f21a99080b))
  (pad "" np_thru_hole circle (at 0 -8) (size 4.875 4.875) (drill 4.875) (layers F&B.Cu *.Mask) (tstamp 1f953be9-cb0f-4de8-91ea-21c2326535a7))
  (pad "" np_thru_hole circle (at 0 8) (size 4.875 4.875) (drill 4.875) (layers F&B.Cu *.Mask) (tstamp 569fa5c2-5120-4f1e-a5f0-4f0a568e98d8))
  (pad "" np_thru_hole circle (at 0 64) (size 4.875 4.875) (drill 4.875) (layers F&B.Cu *.Mask) (tstamp 60ac296b-0c8e-4c4c-95e4-ed025e57ced6))
  (pad "" np_thru_hole circle (at 0 40) (size 4.875 4.875) (drill 4.875) (layers F&B.Cu *.Mask) (tstamp 89aa607c-9e8e-43a8-bfcd-e3c82c0ec162))
  (pad "" np_thru_hole circle (at 0 48) (size 4.875 4.875) (drill 4.875) (layers F&B.Cu *.Mask) (tstamp 93d3999e-d4f2-40a8-9e0c-65cee912505b))
  (pad "" np_thru_hole circle (at 0 24) (size 4.875 4.875) (drill 4.875) (layers F&B.Cu *.Mask) (tstamp 9a4ca93f-1b0f-48be-8d01-c21d3cae0aca))
  (pad "" np_thru_hole circle (at 0 72) (size 4.875 4.875) (drill 4.875) (layers F&B.Cu *.Mask) (tstamp a3ba45fc-b2c1-41da-96df-ff58a247b712))
  (pad "" np_thru_hole circle (at 0 56) (size 4.875 4.875) (drill 4.875) (layers F&B.Cu *.Mask) (tstamp cb9df91f-b283-4bb5-97e2-c3377ef7b105))
  (pad "" np_thru_hole circle (at 0 0) (size 4.875 4.875) (drill 4.875) (layers F&B.Cu *.Mask) (tstamp e51eaf24-171f-42d4-81f6-780644f89c1e))
  (pad "" np_thru_hole circle (at 0 16) (size 4.875 4.875) (drill 4.875) (layers F&B.Cu *.Mask) (tstamp f796a726-6d31-4785-ae69-c1c49f9afe2e))
  (pad "" np_thru_hole circle (at 0 32) (size 4.875 4.875) (drill 4.875) (layers F&B.Cu *.Mask) (tstamp fa1f0173-5884-4fb4-af9e-038b5251a83e))
)
