(module "5052781033" (layer F.Cu)
  (descr "505278-1033-2")
  (tags "Connector")
  (attr smd)
  (fp_text reference J** (at -0.000 -0.15) (layer F.SilkS)
    (effects (font (size 1.27 1.27) (thickness 0.254)))
  )
  (fp_text user %R (at -0.000 -0.15) (layer F.Fab)
    (effects (font (size 1.27 1.27) (thickness 0.254)))
  )
  (fp_text value "5052781033" (at -0.000 -0.15) (layer F.SilkS) hide
    (effects (font (size 1.27 1.27) (thickness 0.254)))
  )
  (fp_line (start -4.85 -2.225) (end 4.85 -2.225) (layer F.Fab) (width 0.1))
  (fp_line (start 4.85 -2.225) (end 4.85 2.625) (layer F.Fab) (width 0.1))
  (fp_line (start 4.85 2.625) (end -4.85 2.625) (layer F.Fab) (width 0.1))
  (fp_line (start -4.85 2.625) (end -4.85 -2.225) (layer F.Fab) (width 0.1))
  (fp_line (start -6.55 -3.925) (end 6.55 -3.925) (layer F.CrtYd) (width 0.1))
  (fp_line (start 6.55 -3.925) (end 6.55 3.625) (layer F.CrtYd) (width 0.1))
  (fp_line (start 6.55 3.625) (end -6.55 3.625) (layer F.CrtYd) (width 0.1))
  (fp_line (start -6.55 3.625) (end -6.55 -3.925) (layer F.CrtYd) (width 0.1))
  (fp_line (start -4.85 -2.225) (end -4.85 -2.625) (layer F.Fab) (width 0.1))
  (fp_line (start -4.85 -2.625) (end -4.5 -2.625) (layer F.Fab) (width 0.1))
  (fp_line (start -4.5 -2.625) (end -4.5 -2.225) (layer F.Fab) (width 0.1))
  (fp_line (start 4.85 -2.225) (end 4.85 -2.625) (layer F.Fab) (width 0.1))
  (fp_line (start 4.85 -2.625) (end 4.55 -2.625) (layer F.Fab) (width 0.1))
  (fp_line (start 4.55 -2.625) (end 4.55 -2.225) (layer F.Fab) (width 0.1))
  (fp_line (start -2.25 -3.2) (end -2.25 -3.2) (layer F.SilkS) (width 0.1))
  (fp_line (start -2.25 -3.3) (end -2.25 -3.3) (layer F.SilkS) (width 0.1))
  (fp_line (start -4.85 1.4) (end -4.85 2.6) (layer F.SilkS) (width 0.2))
  (fp_line (start -4.85 2.6) (end 4.85 2.625) (layer F.SilkS) (width 0.2))
  (fp_line (start 4.85 2.625) (end 4.85 1.4) (layer F.SilkS) (width 0.2))
  (fp_arc (start -2.25 -3.25) (end -2.250 -3.2) (angle -180) (layer F.SilkS) (width 0.1))
  (fp_arc (start -2.25 -3.25) (end -2.250 -3.3) (angle -180) (layer F.SilkS) (width 0.1))
  (pad 1 smd rect (at -2.250 -2.425 0) (size 0.300 1.000) (layers F.Cu F.Paste F.Mask))
  (pad 2 smd rect (at -1.750 -2.425 0) (size 0.300 1.000) (layers F.Cu F.Paste F.Mask))
  (pad 3 smd rect (at -1.250 -2.425 0) (size 0.300 1.000) (layers F.Cu F.Paste F.Mask))
  (pad 4 smd rect (at -0.750 -2.425 0) (size 0.300 1.000) (layers F.Cu F.Paste F.Mask))
  (pad 5 smd rect (at -0.250 -2.425 0) (size 0.300 1.000) (layers F.Cu F.Paste F.Mask))
  (pad 6 smd rect (at 0.250 -2.425 0) (size 0.300 1.000) (layers F.Cu F.Paste F.Mask))
  (pad 7 smd rect (at 0.750 -2.425 0) (size 0.300 1.000) (layers F.Cu F.Paste F.Mask))
  (pad 8 smd rect (at 1.250 -2.425 0) (size 0.300 1.000) (layers F.Cu F.Paste F.Mask))
  (pad 9 smd rect (at 1.750 -2.425 0) (size 0.300 1.000) (layers F.Cu F.Paste F.Mask))
  (pad 10 smd rect (at 2.250 -2.425 0) (size 0.300 1.000) (layers F.Cu F.Paste F.Mask))
  (pad MP1 smd rect (at -4.550 0.275 90) (size 1.300 2.000) (layers F.Cu F.Paste F.Mask))
  (pad MP2 smd rect (at 4.550 0.275 90) (size 1.300 2.000) (layers F.Cu F.Paste F.Mask))
  (model 505278-1033.stp
    (at (xyz 0 -0.055905510121443 0.00078740155720335))
    (scale (xyz 1 1 1))
    (rotate (xyz -90 0 0))
  )
)
