(footprint "SW_Cherry_MX_1.00u_PCB-enc-ledfriendly" (version 20221018) (generator pcbnew)
  (layer "F.Cu")
  (descr "Cherry MX keyswitch, 1.00u, PCB mount, http://cherryamericas.com/wp-content/uploads/2014/12/mx_cat.pdf")
  (tags "Cherry MX keyswitch 1.00u PCB")
  (attr through_hole)
  (fp_text reference "SW?" (at -0.16 -7.98) (layer "F.SilkS")
      (effects (font (size 1 1) (thickness 0.15)))
    (tstamp 6435c504-503e-4751-b486-98d0d8007cbc)
  )
  (fp_text value "${REFERENCE}" (at 0 7.874) (layer "F.Fab")
      (effects (font (size 1 1) (thickness 0.15)))
    (tstamp b3ecbdf3-ae6d-488e-b4b6-454a02ee4061)
  )
  (fp_text user "A" (at 7.5 4.775 180 unlocked) (layer "B.SilkS")
      (effects (font (size 1 1) (thickness 0.15)) (justify mirror))
    (tstamp 0c327d64-bbd2-4a65-85a2-8d408493f048)
  )
  (fp_text user "${REFERENCE}" (at 0 -7.93 unlocked) (layer "B.SilkS")
      (effects (font (size 1 1) (thickness 0.15)) (justify mirror))
    (tstamp 5abf742f-691d-4426-8452-7261263cd1a4)
  )
  (fp_text user "B" (at 7.5 -4.375 180 unlocked) (layer "B.SilkS")
      (effects (font (size 1 1) (thickness 0.15)) (justify mirror))
    (tstamp afb72617-f593-4cb8-9afd-9f04f406dc7c)
  )
  (fp_text user "R" (at 2.54 -2.54 unlocked) (layer "B.SilkS")
      (effects (font (size 1 1) (thickness 0.15)) (justify mirror))
    (tstamp c0914eee-d34b-4da5-b9e3-111c5e1a36c9)
  )
  (fp_text user "${VALUE}" (at -3.81 -5.08 unlocked) (layer "B.SilkS")
      (effects (font (size 0.75 0.75) (thickness 0.15)) (justify mirror))
    (tstamp cd9863e3-4ab9-4004-8830-7500bc6e2cab)
  )
  (fp_text user "C" (at -2.29 -3.81 unlocked) (layer "B.SilkS")
      (effects (font (size 1 1) (thickness 0.15)) (justify mirror))
    (tstamp dfc7e997-c545-4cc9-88cf-9ca55786baa9)
  )
  (fp_text user "${VALUE}" (at -0.12 7.58) (layer "B.SilkS")
      (effects (font (size 1 1) (thickness 0.15)) (justify mirror))
    (tstamp e14cfd07-c795-4e67-a9f0-c0c3cb19f64f)
  )
  (fp_text user "A" (at 7.5 4.786 180 unlocked) (layer "F.SilkS")
      (effects (font (size 1 1) (thickness 0.15)))
    (tstamp 3f2cb248-0b99-4f53-bc8b-5c05fc80ef95)
  )
  (fp_text user "${VALUE}" (at -0.12 7.58) (layer "F.SilkS")
      (effects (font (size 1 1) (thickness 0.15)))
    (tstamp 621ff7ae-540f-42db-95ef-0b3d32bd2048)
  )
  (fp_text user "R" (at 2.54 -2.54 unlocked) (layer "F.SilkS")
      (effects (font (size 1 1) (thickness 0.15)))
    (tstamp a088564d-45e9-4a1e-97e5-e0f250e57974)
  )
  (fp_text user "B" (at 7.5 -4.358 180 unlocked) (layer "F.SilkS")
      (effects (font (size 1 1) (thickness 0.15)))
    (tstamp a9cf1048-3fe6-4d8b-b11a-f91114d9acad)
  )
  (fp_text user "C" (at -1.986 -3.791 unlocked) (layer "F.SilkS")
      (effects (font (size 1 1) (thickness 0.15)))
    (tstamp b2ccdeab-6b42-4657-b2ea-7701557e6bc0)
  )
  (fp_text user "${VALUE}" (at -3.81 -5.08 unlocked) (layer "F.SilkS")
      (effects (font (size 0.75 0.75) (thickness 0.15)))
    (tstamp ce726318-9b5d-40f0-812a-297e2ee1010b)
  )
  (fp_line (start -6.985 -6.985) (end 6.985 -6.985)
    (stroke (width 0.12) (type solid)) (layer "F.SilkS") (tstamp a9ac2053-4d34-4641-a149-08a0ee7619e4))
  (fp_line (start -6.985 6.985) (end -6.985 -6.985)
    (stroke (width 0.12) (type solid)) (layer "F.SilkS") (tstamp 81e7a2db-4514-4d9e-ab04-395eb1c3f32a))
  (fp_line (start -6.1 -5.9) (end -2 -5.9)
    (stroke (width 0.12) (type solid)) (layer "F.SilkS") (tstamp cb2a561c-17ee-4f06-a7ab-35ce67e35784))
  (fp_line (start -6.1 -3.3) (end -6.1 -5.9)
    (stroke (width 0.12) (type solid)) (layer "F.SilkS") (tstamp 4502e0d9-4857-4f41-907f-acbaba3101e3))
  (fp_line (start -6.1 1.3) (end -6.1 -1.3)
    (stroke (width 0.12) (type solid)) (layer "F.SilkS") (tstamp eec40bb0-0c65-410a-8891-9daa4a43c834))
  (fp_line (start -6.1 5.9) (end -6.1 3.3)
    (stroke (width 0.12) (type solid)) (layer "F.SilkS") (tstamp 5cc0d4b4-d907-4294-b209-1fcd952efaa8))
  (fp_line (start -2 5.9) (end -6.1 5.9)
    (stroke (width 0.12) (type solid)) (layer "F.SilkS") (tstamp 01e5b535-4489-4fd7-91e5-0d179ef899d3))
  (fp_line (start 0 0.5) (end 0 -0.5)
    (stroke (width 0.12) (type solid)) (layer "F.SilkS") (tstamp 040e1b64-928e-4ab9-8008-2d6a2f483e6d))
  (fp_line (start 0.5 0) (end -0.5 0)
    (stroke (width 0.12) (type solid)) (layer "F.SilkS") (tstamp e6f64154-0d32-4356-afba-7e0b861bcfde))
  (fp_line (start 2 -5.9) (end 6.1 -5.9)
    (stroke (width 0.12) (type solid)) (layer "F.SilkS") (tstamp 9de61a1d-35d4-45ae-96ba-f0f2611fe28f))
  (fp_line (start 2 5.8) (end 6.1 5.8)
    (stroke (width 0.12) (type solid)) (layer "F.SilkS") (tstamp 6b4dfc7c-f9c8-470a-901e-2734812198ab))
  (fp_line (start 6.1 5.8) (end 6.1 -5.9)
    (stroke (width 0.12) (type solid)) (layer "F.SilkS") (tstamp 3833cc67-c912-47ff-b6d4-aebc005a521b))
  (fp_line (start 6.985 -6.985) (end 6.985 6.985)
    (stroke (width 0.12) (type solid)) (layer "F.SilkS") (tstamp 88fcb3b2-e22a-45da-ae72-b8bad33cf65b))
  (fp_line (start 6.985 6.985) (end -6.985 6.985)
    (stroke (width 0.12) (type solid)) (layer "F.SilkS") (tstamp bf798407-0164-46d5-bbe8-3cac96c9565f))
  (fp_line (start 7.2 4.1) (end 7.5 3.8)
    (stroke (width 0.12) (type solid)) (layer "F.SilkS") (tstamp 4c9d6a97-c657-4cb5-a03d-a3347fc03ed9))
  (fp_line (start 7.5 3.8) (end 7.8 4.1)
    (stroke (width 0.12) (type solid)) (layer "F.SilkS") (tstamp 092de400-67da-4ae9-985c-0e7151dfbb50))
  (fp_line (start 7.8 4.1) (end 7.2 4.1)
    (stroke (width 0.12) (type solid)) (layer "F.SilkS") (tstamp a8e78026-d119-40bf-a3dc-0550288bdc93))
  (fp_circle (center 0 0) (end -3 0)
    (stroke (width 0.12) (type solid)) (fill none) (layer "F.SilkS") (tstamp 12efffa5-b077-48b9-a2e8-951e3837e47c))
  (fp_line (start -9.525 -9.525) (end 9.525 -9.525)
    (stroke (width 0.15) (type solid)) (layer "Dwgs.User") (tstamp 17875c8c-8727-42c5-8872-c4d3b4705644))
  (fp_line (start -9.525 9.525) (end -9.525 -9.525)
    (stroke (width 0.15) (type solid)) (layer "Dwgs.User") (tstamp f05e2533-f911-4c72-841c-db33649aaa0b))
  (fp_line (start 9.525 -9.525) (end 9.525 9.525)
    (stroke (width 0.15) (type solid)) (layer "Dwgs.User") (tstamp 3924b59f-04a2-4816-a264-b373ff52ed93))
  (fp_line (start 9.525 9.525) (end -9.525 9.525)
    (stroke (width 0.15) (type solid)) (layer "Dwgs.User") (tstamp 18529aee-fa68-401f-9d49-0e60d0263079))
  (fp_line (start -8 -6.85) (end -8 6.85)
    (stroke (width 0.05) (type solid)) (layer "F.CrtYd") (tstamp 28cc7684-9569-44bd-aa03-a3fc2827a35a))
  (fp_line (start -8 -6.85) (end 8.75 -6.85)
    (stroke (width 0.05) (type solid)) (layer "F.CrtYd") (tstamp c0d829dc-c171-4ff1-807a-1f6dfc961776))
  (fp_line (start 8.75 6.85) (end -8 6.85)
    (stroke (width 0.05) (type solid)) (layer "F.CrtYd") (tstamp baedf986-7722-4fad-992e-4d5ae6578272))
  (fp_line (start 8.75 6.85) (end 8.75 -6.85)
    (stroke (width 0.05) (type solid)) (layer "F.CrtYd") (tstamp 5477ea2b-ddb4-4a53-ba4e-c85c0c41c46a))
  (fp_line (start -6.35 -6.35) (end 6.35 -6.35)
    (stroke (width 0.1) (type solid)) (layer "F.Fab") (tstamp cafe7d40-c316-4f68-8f05-8f4fa2790967))
  (fp_line (start -6.35 6.35) (end -6.35 -6.35)
    (stroke (width 0.1) (type solid)) (layer "F.Fab") (tstamp 11140fd8-0def-4316-a095-29e1c8de2ccd))
  (fp_line (start -6 -5.8) (end 6 -5.8)
    (stroke (width 0.12) (type solid)) (layer "F.Fab") (tstamp 604b2870-7acf-4376-a719-fa3e3fdaf722))
  (fp_line (start -6 5.8) (end -6 -5.8)
    (stroke (width 0.12) (type solid)) (layer "F.Fab") (tstamp eb52c38a-50f6-49de-b52a-1220547bf86c))
  (fp_line (start 0 3) (end 0 -3)
    (stroke (width 0.12) (type solid)) (layer "F.Fab") (tstamp 03f5853e-c8d2-4059-9671-409aee95f2fe))
  (fp_line (start 3 0) (end -3 0)
    (stroke (width 0.12) (type solid)) (layer "F.Fab") (tstamp 8077e339-b0fe-4184-a48e-99d7152b486c))
  (fp_line (start 5 5.8) (end -6 5.8)
    (stroke (width 0.12) (type solid)) (layer "F.Fab") (tstamp 7dc3fa65-09be-4283-9b0c-4998d2e0f9db))
  (fp_line (start 6 -5.8) (end 6 4.7)
    (stroke (width 0.12) (type solid)) (layer "F.Fab") (tstamp eb0fefff-3657-450e-b1e8-6d8281ce921c))
  (fp_line (start 6 4.7) (end 5 5.8)
    (stroke (width 0.12) (type solid)) (layer "F.Fab") (tstamp 27767961-dd8f-4843-84a2-df4c9f2d4431))
  (fp_line (start 6.35 -6.35) (end 6.35 6.35)
    (stroke (width 0.1) (type solid)) (layer "F.Fab") (tstamp 22f7a9a7-52b7-4def-9f01-74ce752895c6))
  (fp_line (start 6.35 6.35) (end -6.35 6.35)
    (stroke (width 0.1) (type solid)) (layer "F.Fab") (tstamp 3d357196-16a7-43c8-a9c0-2fb0aec0b012))
  (fp_circle (center 0 0) (end -3 0)
    (stroke (width 0.12) (type solid)) (fill none) (layer "F.Fab") (tstamp 5912205f-254e-4563-82b6-77bc778ed443))
  (pad "" np_thru_hole circle (at -5.08 0) (size 1.7 1.7) (drill 1.7) (layers "*.Cu" "*.Mask") (tstamp faa47df8-079a-4cf0-9532-c75cf51ad6aa))
  (pad "" np_thru_hole circle (at 0 0) (size 4 4) (drill 4) (layers "*.Cu" "*.Mask") (tstamp 8c6d2a68-1e86-4cd8-86da-9252a6831921))
  (pad "" np_thru_hole circle (at 5.08 0) (size 1.7 1.7) (drill 1.7) (layers "*.Cu" "*.Mask") (tstamp f01dc7a1-172b-4ea2-badd-a4253a165448))
  (pad "1" thru_hole circle (at -7 2.5 180) (size 1.5 1.5) (drill 1) (layers "*.Cu" "*.Mask") (tstamp 658b1124-de91-45d9-9a2a-da965b9bf007))
  (pad "1" thru_hole rect (at 0 -5.6 180) (size 3.2 2) (drill oval 2.8 1.5) (layers "*.Cu" "*.Mask") (tstamp f0154b9f-7c7c-43d1-b49f-f5928d652074))
  (pad "1" thru_hole circle (at 2.54 -5.08) (size 2.2 2.2) (drill 1.5) (layers "*.Cu" "*.Mask") (tstamp 0ae91059-c3cb-42ca-b237-3365d95bbdf4))
  (pad "2" thru_hole circle (at -7 -2.5 180) (size 1.5 1.5) (drill 1) (layers "*.Cu" "*.Mask") (tstamp 82b137cd-ff72-4577-9d8e-5581a936de0b))
  (pad "2" thru_hole circle (at -3.81 -2.54) (size 2.2 2.2) (drill 1.5) (layers "*.Cu" "*.Mask") (tstamp 2c75b0fd-8d39-4134-8230-331aada634fa))
  (pad "A" thru_hole circle (at 7.5 2.5 180) (size 2 2) (drill 1) (layers "*.Mask" "F.Cu" "In1.Cu" "B.Cu") (tstamp ecaeeec5-ce39-493c-8b63-c284c6734265))
  (pad "B" thru_hole circle (at 7.5 -2.5 180) (size 2 2) (drill 1) (layers "*.Mask" "F.Cu" "In1.Cu" "B.Cu") (tstamp 581db449-c40c-4d59-8829-143736cb3784))
  (pad "C" thru_hole rect (at 7.5 0 180) (size 2 2) (drill 1) (layers "*.Mask" "F.Cu" "In1.Cu" "B.Cu") (tstamp b209009d-0d2b-4809-955f-f7fa51fbe22f))
)
