(footprint "SW_Cherry_MX-skmini_1.00u_PCB" (version 20221018) (generator pcbnew)
  (layer "F.Cu")
  (descr "Cherry MX keyswitch, 1.00u, PCB mount, http://cherryamericas.com/wp-content/uploads/2014/12/mx_cat.pdf")
  (tags "Cherry MX keyswitch 1.00u PCB")
  (attr through_hole)
  (fp_text reference "SW?" (at 0 -7.5) (layer "F.SilkS")
      (effects (font (size 0.7 0.7) (thickness 0.1)))
    (tstamp 6435c504-503e-4751-b486-98d0d8007cbc)
  )
  (fp_text value "${REFERENCE}" (at 0 7.874) (layer "F.Fab")
      (effects (font (size 1 1) (thickness 0.15)))
    (tstamp b3ecbdf3-ae6d-488e-b4b6-454a02ee4061)
  )
  (fp_text user "${REFERENCE}" (at 0 -7.5 unlocked) (layer "B.SilkS")
      (effects (font (size 0.7 0.7) (thickness 0.1)) (justify mirror))
    (tstamp 5abf742f-691d-4426-8452-7261263cd1a4)
  )
  (fp_text user "R" (at 2.54 -2.54 unlocked) (layer "B.SilkS")
      (effects (font (size 1 1) (thickness 0.15)) (justify mirror))
    (tstamp c0914eee-d34b-4da5-b9e3-111c5e1a36c9)
  )
  (fp_text user "${VALUE}" (at -1.27 -5.58 unlocked) (layer "B.SilkS")
      (effects (font (size 0.75 0.75) (thickness 0.15)) (justify mirror))
    (tstamp cd9863e3-4ab9-4004-8830-7500bc6e2cab)
  )
  (fp_text user "C" (at -2.29 -3.81 unlocked) (layer "B.SilkS")
      (effects (font (size 1 1) (thickness 0.15)) (justify mirror))
    (tstamp dfc7e997-c545-4cc9-88cf-9ca55786baa9)
  )
  (fp_text user "R" (at 2.54 -2.54 unlocked) (layer "F.SilkS")
      (effects (font (size 1 1) (thickness 0.15)))
    (tstamp a088564d-45e9-4a1e-97e5-e0f250e57974)
  )
  (fp_text user "C" (at -1.986 -3.791 unlocked) (layer "F.SilkS")
      (effects (font (size 1 1) (thickness 0.15)))
    (tstamp b2ccdeab-6b42-4657-b2ea-7701557e6bc0)
  )
  (fp_text user "${VALUE}" (at -2.5 7.9 unlocked) (layer "F.SilkS")
      (effects (font (size 0.75 0.75) (thickness 0.15)))
    (tstamp ce726318-9b5d-40f0-812a-297e2ee1010b)
  )
  (fp_rect (start -6.98 -6.97) (end 6.98 6.97)
    (stroke (width 0.12) (type solid)) (fill none) (layer "B.SilkS") (tstamp b564f512-0751-44f3-97e7-c05d3fda893e))
  (fp_poly
    (pts
      (xy 2.8 6.48)
      (xy 2.2 6.48)
      (xy 2.2 7.08)
    )

    (stroke (width 0.1) (type solid)) (fill solid) (layer "B.SilkS") (tstamp 81fec4f6-73c7-45e0-bf92-6a6c04771961))
  (fp_poly
    (pts
      (xy -1.559784 -18.406089)
      (xy -1.696994 -18.288)
      (xy -1.982337 -18.082951)
      (xy -2.198481 -18.034)
      (xy -2.373937 -18.012256)
      (xy -2.438572 -17.911187)
      (xy -2.445969 -17.78)
      (xy -2.424782 -17.599927)
      (xy -2.326304 -17.533591)
      (xy -2.198481 -17.526)
      (xy -1.916283 -17.443595)
      (xy -1.696994 -17.272)
      (xy -1.398703 -17.062283)
      (xy -1.096505 -17.021307)
      (xy -0.797192 -17.149116)
      (xy -0.661456 -17.265488)
      (xy -0.460946 -17.54752)
      (xy -0.413969 -17.78)
      (xy -0.415277 -17.785053)
      (xy -0.921969 -17.785053)
      (xy -0.978268 -17.592619)
      (xy -1.115903 -17.524817)
      (xy -1.287981 -17.59569)
      (xy -1.348828 -17.65725)
      (xy -1.412783 -17.786068)
      (xy -1.335663 -17.910572)
      (xy -1.331894 -17.914361)
      (xy -1.167203 -17.993161)
      (xy -1.008699 -17.953395)
      (xy -0.924122 -17.816432)
      (xy -0.921969 -17.785053)
      (xy -0.415277 -17.785053)
      (xy -0.489526 -18.071898)
      (xy -0.661456 -18.294513)
      (xy -0.957133 -18.500495)
      (xy -1.258839 -18.537673)
    )

    (stroke (width 0) (type solid)) (fill solid) (layer "B.SilkS") (tstamp acd9715e-3704-41d6-a2b3-2141249a9168))
  (fp_poly
    (pts
      (xy -0.315735 -19.492724)
      (xy -0.438401 -19.361772)
      (xy -0.490726 -19.272839)
      (xy -0.500784 -19.196009)
      (xy -0.449039 -19.109705)
      (xy -0.315958 -18.992351)
      (xy -0.082009 -18.822369)
      (xy 0.268742 -18.58065)
      (xy 0.629705 -18.328892)
      (xy 0.871113 -18.145632)
      (xy 1.01613 -18.008233)
      (xy 1.08792 -17.894063)
      (xy 1.109649 -17.780487)
      (xy 1.110031 -17.758618)
      (xy 1.190532 -17.481125)
      (xy 1.357519 -17.265488)
      (xy 1.653196 -17.059506)
      (xy 1.954902 -17.022328)
      (xy 2.255847 -17.153912)
      (xy 2.393057 -17.272)
      (xy 2.6784 -17.47705)
      (xy 2.894544 -17.526)
      (xy 3.07 -17.547745)
      (xy 3.134635 -17.648814)
      (xy 3.142031 -17.78)
      (xy 3.141437 -17.785053)
      (xy 2.126031 -17.785053)
      (xy 2.069732 -17.592619)
      (xy 1.932097 -17.524817)
      (xy 1.760019 -17.59569)
      (xy 1.699172 -17.65725)
      (xy 1.635217 -17.786068)
      (xy 1.712337 -17.910572)
      (xy 1.716106 -17.914361)
      (xy 1.880797 -17.993161)
      (xy 2.039301 -17.953395)
      (xy 2.123878 -17.816432)
      (xy 2.126031 -17.785053)
      (xy 3.141437 -17.785053)
      (xy 3.120845 -17.960074)
      (xy 3.022367 -18.02641)
      (xy 2.894544 -18.034)
      (xy 2.610723 -18.117989)
      (xy 2.382151 -18.298907)
      (xy 2.198339 -18.462755)
      (xy 2.036255 -18.527952)
      (xy 1.813381 -18.521527)
      (xy 1.733836 -18.511261)
      (xy 1.554349 -18.493014)
      (xy 1.404127 -18.505672)
      (xy 1.244762 -18.56525)
      (xy 1.037845 -18.687761)
      (xy 0.744968 -18.889219)
      (xy 0.627352 -18.972597)
      (xy 0.316946 -19.190091)
      (xy 0.051642 -19.370245)
      (xy -0.134527 -19.490274)
      (xy -0.199988 -19.526495)
    )

    (stroke (width 0) (type solid)) (fill solid) (layer "B.SilkS") (tstamp 5d3301aa-6c48-42ca-80bf-9c17bbddaf8a))
  (fp_line (start -6.985 -6.985) (end 6.985 -6.985)
    (stroke (width 0.12) (type solid)) (layer "F.SilkS") (tstamp a9ac2053-4d34-4641-a149-08a0ee7619e4))
  (fp_line (start -6.985 6.985) (end -6.985 -6.985)
    (stroke (width 0.12) (type solid)) (layer "F.SilkS") (tstamp 81e7a2db-4514-4d9e-ab04-395eb1c3f32a))
  (fp_line (start 6.985 -6.985) (end 6.985 6.985)
    (stroke (width 0.12) (type solid)) (layer "F.SilkS") (tstamp 88fcb3b2-e22a-45da-ae72-b8bad33cf65b))
  (fp_line (start 6.985 6.985) (end -6.985 6.985)
    (stroke (width 0.12) (type solid)) (layer "F.SilkS") (tstamp bf798407-0164-46d5-bbe8-3cac96c9565f))
  (fp_line (start -9.525 -9.525) (end 9.525 -9.525)
    (stroke (width 0.15) (type solid)) (layer "Dwgs.User") (tstamp 17875c8c-8727-42c5-8872-c4d3b4705644))
  (fp_line (start -9.525 9.525) (end -9.525 -9.525)
    (stroke (width 0.15) (type solid)) (layer "Dwgs.User") (tstamp f05e2533-f911-4c72-841c-db33649aaa0b))
  (fp_line (start 9.525 -9.525) (end 9.525 9.525)
    (stroke (width 0.15) (type solid)) (layer "Dwgs.User") (tstamp 3924b59f-04a2-4816-a264-b373ff52ed93))
  (fp_line (start 9.525 9.525) (end -9.525 9.525)
    (stroke (width 0.15) (type solid)) (layer "Dwgs.User") (tstamp 18529aee-fa68-401f-9d49-0e60d0263079))
  (fp_line (start -1.6 3.68) (end -1.6 6.48)
    (stroke (width 0.12) (type solid)) (layer "Cmts.User") (tstamp 6f29648d-6955-41e4-a5eb-fb74f85304be))
  (fp_line (start -1.6 6.48) (end 1.6 6.48)
    (stroke (width 0.12) (type solid)) (layer "Cmts.User") (tstamp 5c38f15a-cd11-42e8-ba37-6e819ed725fa))
  (fp_line (start 1.6 3.68) (end -1.6 3.68)
    (stroke (width 0.12) (type solid)) (layer "Cmts.User") (tstamp 9e108cfc-fd8e-4d75-9b2f-eb0ff4124611))
  (fp_line (start 1.6 6.48) (end 1.6 3.68)
    (stroke (width 0.12) (type solid)) (layer "Cmts.User") (tstamp 4b8a2dc2-bcf2-455d-bdde-b9fc438ee690))
  (fp_line (start -1.7 3.58) (end -1.7 6.58)
    (stroke (width 0.1) (type solid)) (layer "Edge.Cuts") (tstamp 5a6b0bc9-cd1a-4b24-95ff-f1846d0ea4ee))
  (fp_line (start -1.7 6.58) (end 1.7 6.58)
    (stroke (width 0.1) (type solid)) (layer "Edge.Cuts") (tstamp bed2c5d2-9244-45bf-90d2-1fac4f5d83ea))
  (fp_line (start 1.7 3.58) (end -1.7 3.58)
    (stroke (width 0.1) (type solid)) (layer "Edge.Cuts") (tstamp 44129adc-166e-4d95-b500-69bf4c84faa8))
  (fp_line (start 1.7 6.58) (end 1.7 3.58)
    (stroke (width 0.1) (type solid)) (layer "Edge.Cuts") (tstamp a8328ef9-a79c-4ff2-aa09-1873f37da5a7))
  (fp_line (start -6.6 -6.6) (end 6.6 -6.6)
    (stroke (width 0.05) (type solid)) (layer "F.CrtYd") (tstamp afb11357-1c53-4a8e-9b7f-b8995b3d515b))
  (fp_line (start -6.6 6.6) (end -6.6 -6.6)
    (stroke (width 0.05) (type solid)) (layer "F.CrtYd") (tstamp b9db4a05-93ce-46e5-9e56-f394110c5ac4))
  (fp_line (start 6.6 -6.6) (end 6.6 6.6)
    (stroke (width 0.05) (type solid)) (layer "F.CrtYd") (tstamp 1f97d4ba-8dd1-4d23-a1db-1c4549464103))
  (fp_line (start 6.6 6.6) (end -6.6 6.6)
    (stroke (width 0.05) (type solid)) (layer "F.CrtYd") (tstamp f324866e-a735-42d8-a578-c0d2751f87a4))
  (fp_line (start -6.35 -6.35) (end 6.35 -6.35)
    (stroke (width 0.1) (type solid)) (layer "F.Fab") (tstamp cafe7d40-c316-4f68-8f05-8f4fa2790967))
  (fp_line (start -6.35 6.35) (end -6.35 -6.35)
    (stroke (width 0.1) (type solid)) (layer "F.Fab") (tstamp 11140fd8-0def-4316-a095-29e1c8de2ccd))
  (fp_line (start 6.35 -6.35) (end 6.35 6.35)
    (stroke (width 0.1) (type solid)) (layer "F.Fab") (tstamp 22f7a9a7-52b7-4def-9f01-74ce752895c6))
  (fp_line (start 6.35 6.35) (end -6.35 6.35)
    (stroke (width 0.1) (type solid)) (layer "F.Fab") (tstamp 3d357196-16a7-43c8-a9c0-2fb0aec0b012))
  (pad "" np_thru_hole circle (at -5.08 0) (size 1.7 1.7) (drill 1.7) (layers "*.Cu" "*.Mask") (tstamp faa47df8-079a-4cf0-9532-c75cf51ad6aa))
  (pad "" np_thru_hole circle (at 0 0) (size 4 4) (drill 4) (layers "*.Cu" "*.Mask") (tstamp 8c6d2a68-1e86-4cd8-86da-9252a6831921))
  (pad "" np_thru_hole circle (at 5.08 0) (size 1.7 1.7) (drill 1.7) (layers "*.Cu" "*.Mask") (tstamp f01dc7a1-172b-4ea2-badd-a4253a165448))
  (pad "1" thru_hole circle (at 2.54 -5.08) (size 2.2 2.2) (drill 1.5) (layers "*.Cu" "*.Mask") (tstamp 0ae91059-c3cb-42ca-b237-3365d95bbdf4))
  (pad "2" thru_hole circle (at -3.81 -2.54) (size 2.2 2.2) (drill 1.5) (layers "*.Cu" "*.Mask") (tstamp 2c75b0fd-8d39-4134-8230-331aada634fa))
  (pad "3" smd rect (at -2.6 4.33 180) (size 1.7 0.82) (layers "B.Cu" "B.Paste" "B.Mask") (tstamp fd89c949-904d-46d0-9665-4e2c5e154c25))
  (pad "3" thru_hole circle (at -2.15 4.33 180) (size 0.8 0.8) (drill 0.6) (layers "*.Cu" "*.Mask") (tstamp e1a9be37-15cc-454a-b553-005e4a10ae34))
  (pad "4" smd roundrect (at -2.6 5.83 180) (size 1.7 0.82) (layers "B.Cu" "B.Paste" "B.Mask") (roundrect_rratio 0)
    (chamfer_ratio 0.2) (chamfer top_right) (tstamp ad3648ac-f41f-4e3a-8667-595b0f241e6f))
  (pad "4" thru_hole circle (at -2.15 5.83 180) (size 0.8 0.8) (drill 0.6) (layers "*.Cu" "*.Mask") (tstamp e6f21946-6105-4d3d-8d0d-f76e22054462))
  (pad "5" thru_hole circle (at 2.15 5.83 180) (size 0.8 0.8) (drill 0.6) (layers "*.Cu" "*.Mask") (tstamp 277b292b-f318-425b-9048-9ec1814218af))
  (pad "5" smd roundrect (at 2.6 5.83 180) (size 1.7 0.82) (layers "B.Cu" "B.Paste" "B.Mask") (roundrect_rratio 0)
    (chamfer_ratio 0.4) (chamfer top_left) (tstamp d19bfee0-cec8-44ae-b465-9cbb358d325b))
  (pad "6" thru_hole circle (at 2.15 4.33 180) (size 0.8 0.8) (drill 0.6) (layers "*.Cu" "*.Mask") (tstamp dc3a97a2-4ea6-4d35-bab8-5189008fd499))
  (pad "6" smd rect (at 2.6 4.33 180) (size 1.7 0.82) (layers "B.Cu" "B.Paste" "B.Mask") (tstamp 3812495a-abf6-45f8-8d12-66600c82676a))
)
