#VRML V2.0 utf8
DEF TXFM_1 Transform {
  center 0 0 0
  rotation 0 0 1 0
  scale 1 1 1
  scaleOrientation 0 0 1 0
  translation 0 0 0
 children [
DEF TXFM_2 Transform {
  center 0 0 0
  rotation 0 0 1 0
  scale 1 1 1
  scaleOrientation 0 0 1 0
  translation 0 0 0
 children [
DEF TXFM_3 Transform {
  center 0 0 0
  rotation 0 0 1 0
  scale 1 1 1
  scaleOrientation 0 0 1 0
  translation 0 0 0
 children [
DEF SHAPE_1 Shape {
 appearance DEF APP_1 Appearance {
  material Material {
   ambientIntensity 0.20145784
   diffuseColor 0.49411765 0.49411765 0.52549022
   emissiveColor 0 0 0
   shininess 0.1
   specularColor 0.12 0.12 0.12
   transparency 0
} }
 geometry DEF FACE_1 IndexedFaceSet {
  coord DEF COORD_1 Coordinate { point [
  0.45669291 -0.31496063 0.13385827,0.26774548 -0.31496063 0.13385827,
  0.47095853 -0.31308253 0.13385827,0.48425197 -0.3075762 0.13385827,
  0.4956673 -0.29881691 0.13385827,0.5044266 -0.28740157 0.13385827,
  0.50993292 -0.27410814 0.13385827,0.51181102 -0.25984252 0.13385827,
  0.51181102 0.25984252 0.13385827,0.50993292 0.27410814 0.13385827,
  0.5044266 0.28740157 0.13385827,0.4956673 0.29881691 0.13385827,
  0.48425197 0.3075762 0.13385827,0.47095853 0.31308253 0.13385827,
  0.45669291 0.31496063 0.13385827,0.26774548 0.31496063 0.13385827,
  0.33674598 -0.23977069 0.13385827,0.38522382 -0.14996816 0.13385827,
  0.41022456 -0.051025963 0.13385827,0.41022456 0.051025963 0.13385827,
  0.38522382 0.14996816 0.13385827,0.33674598 0.23977069 0.13385827] }
 coordIndex [
  0,16,1,-1,5,2,3,-1,5,3,4,-1,17,16,0,-1,7,0,2,-1,7,5,6,-1,7,2,5,-1,7,17,0,-1,
  18,17,7,-1,8,19,18,-1,8,20,19,-1,8,18,7,-1,14,21,20,-1,14,15,21,-1,14,20,8,-1,11,8,9,-1,
  11,9,10,-1,11,12,13,-1,11,13,14,-1,11,14,8,-1]
  normalPerVertex TRUE
  normal DEF NORM_1 Normal { vector [
  0 0 1,0 0 1,
  0 0 1,0 0 1,
  0 0 1,0 0 1,
  0 0 1,0 0 1,
  0 0 1,0 0 1,
  0 0 1,0 0 1,
  0 0 1,0 0 1,
  0 0 1,0 0 1,
  0 0 1,0 0 1,
  0 0 1,0 0 1,
  0 0 1,0 0 1] }
}
}
DEF SHAPE_2 Shape {
 appearance USE APP_1
 geometry DEF FACE_2 IndexedFaceSet {
  coord DEF COORD_2 Coordinate { point [
  -0.45669291 0.31496063 0.13385827,-0.26774548 0.31496063 0.13385827,
  -0.47095853 0.31308253 0.13385827,-0.48425197 0.3075762 0.13385827,
  -0.4956673 0.29881691 0.13385827,-0.5044266 0.28740157 0.13385827,
  -0.50993292 0.27410814 0.13385827,-0.51181102 0.25984252 0.13385827,
  -0.51181102 -0.25984252 0.13385827,-0.50993292 -0.27410814 0.13385827,
  -0.5044266 -0.28740157 0.13385827,-0.4956673 -0.29881691 0.13385827,
  -0.48425197 -0.3075762 0.13385827,-0.47095853 -0.31308253 0.13385827,
  -0.45669291 -0.31496063 0.13385827,-0.26774548 -0.31496063 0.13385827,
  -0.41338583 0 0.13385827,-0.40372992 -0.088825629 0.13385827,
  -0.37521329 -0.17350166 0.13385827,-0.32916813 -0.25007236 0.13385827,
  -0.32916813 0.25007236 0.13385827,-0.37521329 0.17350166 0.13385827,
  -0.40372992 0.088825629 0.13385827] }
 coordIndex [
  8,9,10,-1,8,10,11,-1,8,11,12,-1,8,12,13,-1,8,13,14,-1,19,14,15,-1,18,8,14,-1,18,14,19,-1,
  17,8,18,-1,16,8,17,-1,7,16,22,-1,7,8,16,-1,21,7,22,-1,4,5,6,-1,2,3,4,-1,0,6,7,-1,
  0,7,21,-1,0,4,6,-1,0,2,4,-1,20,0,21,-1,1,0,20,-1]
  normalPerVertex TRUE
  normal DEF NORM_2 Normal { vector [
  0 0 1,0 0 1,
  0 0 1,0 0 1,
  0 0 1,0 0 1,
  0 0 1,0 0 1,
  0 0 1,0 0 1,
  0 0 1,0 0 1,
  0 0 1,0 0 1,
  0 0 1,0 0 1,
  0 0 1,0 0 1,
  0 0 1,0 0 1,
  0 0 1,0 0 1,
  0 0 1] }
}
}
DEF SHAPE_3 Shape {
 appearance USE APP_1
 geometry DEF FACE_3 IndexedFaceSet {
  coord DEF COORD_3 Coordinate { point [
  0.59055118 -0.31889764 0.14566929,0.59055118 0.31889764 0.14566929,
  0.58800233 0.33825812 0.14566929,0.58052946 0.35629921 0.14566929,
  0.56864185 0.37179145 0.14566929,0.55314961 0.38367907 0.14566929,
  0.53510851 0.39115193 0.14566929,0.51574803 0.39370079 0.14566929,
  -0.51574803 0.39370079 0.14566929,-0.53510851 0.39115193 0.14566929,
  -0.55314961 0.38367907 0.14566929,-0.56864185 0.37179145 0.14566929,
  -0.58052946 0.35629921 0.14566929,-0.58800233 0.33825812 0.14566929,
  -0.59055118 0.31889764 0.14566929,-0.59055118 -0.31889764 0.14566929,
  -0.58800233 -0.33825812 0.14566929,-0.58052946 -0.35629921 0.14566929,
  -0.56864185 -0.37179145 0.14566929,-0.55314961 -0.38367907 0.14566929,
  -0.53510851 -0.39115193 0.14566929,-0.51574803 -0.39370079 0.14566929,
  0.51574803 -0.39370079 0.14566929,0.53510851 -0.39115193 0.14566929,
  0.55314961 -0.38367907 0.14566929,0.56864185 -0.37179145 0.14566929,
  0.58052946 -0.35629921 0.14566929,0.58800233 -0.33825812 0.14566929,
  0.45669291 -0.31496063 0.14566929,-0.45669291 -0.31496063 0.14566929,
  -0.47095853 -0.31308253 0.14566929,-0.48425197 -0.3075762 0.14566929,
  -0.4956673 -0.29881691 0.14566929,-0.5044266 -0.28740157 0.14566929,
  -0.50993292 -0.27410814 0.14566929,-0.51181102 -0.25984252 0.14566929,
  -0.51181102 0.25984252 0.14566929,-0.50993292 0.27410814 0.14566929,
  -0.5044266 0.28740157 0.14566929,-0.4956673 0.29881691 0.14566929,
  -0.48425197 0.3075762 0.14566929,-0.47095853 0.31308253 0.14566929,
  -0.45669291 0.31496063 0.14566929,0.45669291 0.31496063 0.14566929,
  0.47095853 0.31308253 0.14566929,0.48425197 0.3075762 0.14566929,
  0.4956673 0.29881691 0.14566929,0.5044266 0.28740157 0.14566929,
  0.50993292 0.27410814 0.14566929,0.51181102 0.25984252 0.14566929,
  0.51181102 -0.25984252 0.14566929,0.50993292 -0.27410814 0.14566929,
  0.5044266 -0.28740157 0.14566929,0.4956673 -0.29881691 0.14566929,
  0.48425197 -0.3075762 0.14566929,0.47095853 -0.31308253 0.14566929] }
 coordIndex [
  32,16,17,-1,32,17,18,-1,32,18,19,-1,32,19,20,-1,33,15,16,-1,33,16,32,-1,31,20,21,-1,31,32,20,-1,
  34,15,33,-1,30,31,21,-1,35,15,34,-1,29,30,21,-1,36,14,15,-1,36,15,35,-1,37,14,36,-1,38,13,14,-1,
  38,14,37,-1,39,11,12,-1,39,12,13,-1,39,13,38,-1,10,11,39,-1,9,10,39,-1,9,39,40,-1,8,9,40,-1,
  8,40,41,-1,8,41,42,-1,28,21,22,-1,28,29,21,-1,55,28,22,-1,54,22,23,-1,54,55,22,-1,53,54,23,-1,
  53,23,24,-1,53,24,25,-1,26,53,25,-1,27,53,26,-1,27,52,53,-1,0,52,27,-1,0,50,51,-1,0,51,52,-1,
  7,8,42,-1,7,42,43,-1,7,43,44,-1,7,44,45,-1,1,50,0,-1,1,47,48,-1,1,48,49,-1,1,49,50,-1,
  2,47,1,-1,2,46,47,-1,6,7,45,-1,6,45,46,-1,3,46,2,-1,5,6,46,-1,4,5,46,-1,4,46,3,-1]
  normalPerVertex TRUE
  normal DEF NORM_3 Normal { vector [
  0 0 1,0 0 1,
  0 0 1,0 0 1,
  0 0 1,0 0 1,
  0 0 1,0 0 1,
  0 0 1,0 0 1,
  0 0 1,0 0 1,
  0 0 1,0 0 1,
  0 0 1,0 0 1,
  0 0 1,0 0 1,
  0 0 1,0 0 1,
  0 0 1,0 0 1,
  0 0 1,0 0 1,
  0 0 1,0 0 1,
  0 0 1,0 0 1,
  0 0 1,0 0 1,
  0 0 1,0 0 1,
  0 0 1,0 0 1,
  0 0 1,0 0 1,
  0 0 1,0 0 1,
  0 0 1,0 0 1,
  0 0 1,0 0 1,
  0 0 1,0 0 1,
  0 0 1,0 0 1,
  0 0 1,0 0 1,
  0 0 1,0 0 1,
  0 0 1,0 0 1,
  0 0 1,0 0 1,
  0 0 1,0 0 1] }
}
}
DEF SHAPE_4 Shape {
 appearance USE APP_1
 geometry DEF FACE_4 IndexedFaceSet {
  coord DEF COORD_4 Coordinate { point [
  -0.51574803 -0.39370079 0.14566929,-0.51574803 -0.39370079 0.12598425,
  -0.59055118 -0.39370079 0.12598425,-0.59055118 -0.39370079 0.015748031,
  0.59055118 -0.39370079 0.015748031,0.59055118 -0.39370079 0.12598425,
  0.51574803 -0.39370079 0.12598425,0.51574803 -0.39370079 0.14566929] }
 coordIndex [
  1,2,3,-1,6,3,4,-1,6,1,3,-1,7,0,1,-1,7,1,6,-1,5,6,4,-1]
  normalPerVertex TRUE
  normal DEF NORM_4 Normal { vector [
  0 -1 0,0 -1 0,
  0 -1 0,0 -1 0,
  0 -1 0,0 -1 0,
  0 -1 0,0 -1 0] }
}
}
DEF SHAPE_5 Shape {
 appearance USE APP_1
 geometry DEF FACE_5 IndexedFaceSet {
  coord DEF COORD_5 Coordinate { point [
  -0.51574803 0.39370079 0.14566929,0.51574803 0.39370079 0.14566929,
  0.51574803 0.39370079 0.12598425,0.59055118 0.39370079 0.12598425,
  0.59055118 0.39370079 0.015748031,-0.59055118 0.39370079 0.015748031,
  -0.59055118 0.39370079 0.12598425,-0.51574803 0.39370079 0.12598425] }
 coordIndex [
  2,3,4,-1,7,4,5,-1,7,2,4,-1,0,1,2,-1,0,2,7,-1,6,7,5,-1]
  normalPerVertex TRUE
  normal DEF NORM_5 Normal { vector [
  0 1 0,0 1 0,
  0 1 0,0 1 0,
  0 1 0,0 1 0,
  0 1 0,0 1 0] }
}
}
DEF SHAPE_6 Shape {
 appearance USE APP_1
 geometry DEF FACE_6 IndexedFaceSet {
  coord DEF COORD_6 Coordinate { point [
  0.59055118 -0.31889764 0.14566929,0.59055118 -0.31889764 0.12598425,
  0.59055118 -0.39370079 0.12598425,0.59055118 -0.39370079 0.015748031,
  0.59055118 -0.25590551 0.015748031,0.59055118 -0.25590551 0.031496063,
  0.59055118 0.25590551 0.031496063,0.59055118 0.25590551 0.015748031,
  0.59055118 0.39370079 0.015748031,0.59055118 0.39370079 0.12598425,
  0.59055118 0.31889764 0.12598425,0.59055118 0.31889764 0.14566929] }
 coordIndex [
  5,3,4,-1,1,2,3,-1,1,3,5,-1,0,1,5,-1,8,6,7,-1,10,6,8,-1,11,5,6,-1,11,0,5,-1,
  11,6,10,-1,9,10,8,-1]
  normalPerVertex TRUE
  normal DEF NORM_6 Normal { vector [
  1 0 0,1 0 0,
  1 0 0,1 0 0,
  1 0 0,1 0 0,
  1 0 0,1 0 0,
  1 0 0,1 0 0,
  1 0 0,1 0 0] }
}
}
DEF SHAPE_7 Shape {
 appearance USE APP_1
 geometry DEF FACE_7 IndexedFaceSet {
  coord DEF COORD_7 Coordinate { point [
  -0.59055118 0.31889764 0.14566929,-0.59055118 0.31889764 0.12598425,
  -0.59055118 0.39370079 0.12598425,-0.59055118 0.39370079 0.015748031,
  -0.59055118 0.25590551 0.015748031,-0.59055118 0.25590551 0.031496063,
  -0.59055118 -0.25590551 0.031496063,-0.59055118 -0.25590551 0.015748031,
  -0.59055118 -0.39370079 0.015748031,-0.59055118 -0.39370079 0.12598425,
  -0.59055118 -0.31889764 0.12598425,-0.59055118 -0.31889764 0.14566929] }
 coordIndex [
  5,3,4,-1,1,2,3,-1,1,3,5,-1,0,1,5,-1,8,6,7,-1,10,6,8,-1,11,5,6,-1,11,0,5,-1,
  11,6,10,-1,9,10,8,-1]
  normalPerVertex TRUE
  normal DEF NORM_7 Normal { vector [
  -1 0 0,-1 0 0,
  -1 0 0,-1 0 0,
  -1 0 0,-1 0 0,
  -1 0 0,-1 0 0,
  -1 0 0,-1 0 0,
  -1 0 0,-1 0 0] }
}
}
DEF SHAPE_8 Shape {
 appearance USE APP_1
 geometry DEF FACE_8 IndexedFaceSet {
  coord DEF COORD_8 Coordinate { point [
  -0.45669291 0.31496063 0.14566929,0.45669291 0.31496063 0.14566929,
  -0.45669291 0.31496063 0.13385827,-0.26774548 0.31496063 0.13385827,
  -0.26774548 0.31496063 0.14173228,0.26774548 0.31496063 0.14173228,
  0.26774548 0.31496063 0.13385827,0.45669291 0.31496063 0.13385827] }
 coordIndex [
  4,0,2,-1,3,4,2,-1,7,5,6,-1,7,1,5,-1,1,0,4,-1,1,4,5,-1]
  normalPerVertex TRUE
  normal DEF NORM_8 Normal { vector [
  0 -1 0,0 -1 0,
  0 -1 0,0 -1 0,
  0 -1 0,0 -1 0,
  0 -1 0,0 -1 0] }
}
}
DEF SHAPE_9 Shape {
 appearance USE APP_1
 geometry DEF FACE_9 IndexedFaceSet {
  coord DEF COORD_9 Coordinate { point [
  -0.51181102 -0.25984252 0.13385827,-0.51181102 0.25984252 0.13385827,
  -0.51181102 0.25984252 0.14566929,-0.51181102 -0.25984252 0.14566929] }
 coordIndex [
  1,2,3,-1,1,3,0,-1]
  normalPerVertex TRUE
  normal DEF NORM_9 Normal { vector [
  1 0 0,1 0 0,
  1 0 0,1 0 0] }
}
}
DEF SHAPE_10 Shape {
 appearance USE APP_1
 geometry DEF FACE_10 IndexedFaceSet {
  coord DEF COORD_10 Coordinate { point [
  -0.26774548 -0.31496063 0.13385827,-0.45669291 -0.31496063 0.13385827,
  -0.45669291 -0.31496063 0.14566929,0.45669291 -0.31496063 0.14566929,
  0.45669291 -0.31496063 0.13385827,0.26774548 -0.31496063 0.13385827,
  0.26774548 -0.31496063 0.14173228,-0.26774548 -0.31496063 0.14173228] }
 coordIndex [
  7,0,1,-1,7,1,2,-1,4,5,6,-1,3,4,6,-1,2,3,6,-1,2,6,7,-1]
  normalPerVertex TRUE
  normal DEF NORM_10 Normal { vector [
  0 1 0,0 1 0,
  0 1 0,0 1 0,
  0 1 0,0 1 0,
  0 1 0,0 1 0] }
}
}
DEF SHAPE_11 Shape {
 appearance USE APP_1
 geometry DEF FACE_11 IndexedFaceSet {
  coord DEF COORD_11 Coordinate { point [
  0.51181102 0.25984252 0.13385827,0.51181102 -0.25984252 0.13385827,
  0.51181102 -0.25984252 0.14566929,0.51181102 0.25984252 0.14566929] }
 coordIndex [
  3,0,1,-1,3,1,2,-1]
  normalPerVertex TRUE
  normal DEF NORM_11 Normal { vector [
  -1 0 0,-1 0 0,
  -1 0 0,-1 0 0] }
}
}
DEF SHAPE_12 Shape {
 appearance USE APP_1
 geometry DEF FACE_12 IndexedFaceSet {
  coord DEF COORD_12 Coordinate { point [
  -0.41338583 0 0.13385827,-0.41338583 0 0.14173228,
  -0.26774548 0.31496063 0.14173228,-0.32916813 0.25007236 0.14173228,
  -0.37521329 0.17350166 0.14173228,-0.40372992 0.088825629 0.14173228,
  -0.26774548 0.31496063 0.13385827,-0.32916813 0.25007236 0.13385827,
  -0.37521329 0.17350166 0.13385827,-0.40372992 0.088825629 0.13385827] }
 coordIndex [
  9,0,1,-1,9,1,5,-1,8,5,4,-1,8,9,5,-1,7,4,3,-1,7,8,4,-1,6,3,2,-1,6,7,3,-1]
  normalPerVertex TRUE
  normal DEF NORM_12 Normal { vector [
  -0.99414333 0.10806964 0,-0.99414333 0.10806964 0,
  -0.72623454 0.68744701 0,-0.77384536 0.63337458 0,
  -0.89186517 0.45230136 0,-0.96822044 0.25009833 0,
  -0.72623454 0.68744701 0,-0.81765691 0.57570581 0,
  -0.92226188 0.38656568 0,-0.98378229 0.17936667 0] }
}
}
DEF SHAPE_13 Shape {
 appearance USE APP_1
 geometry DEF FACE_13 IndexedFaceSet {
  coord DEF COORD_13 Coordinate { point [
  0.26774548 -0.31496063 0.13385827,0.33674598 -0.23977069 0.13385827,
  0.38522382 -0.14996816 0.13385827,0.41022456 -0.051025963 0.13385827,
  0.41022456 0.051025963 0.13385827,0.38522382 0.14996816 0.13385827,
  0.33674598 0.23977069 0.13385827,0.26774548 0.31496063 0.13385827,
  0.26774548 0.31496063 0.14173228,0.26774548 -0.31496063 0.14173228,
  0.33674598 -0.23977069 0.14173228,0.38522382 -0.14996816 0.14173228,
  0.41022456 -0.051025963 0.14173228,0.41022456 0.051025963 0.14173228,
  0.38522382 0.14996816 0.14173228,0.33674598 0.23977069 0.14173228] }
 coordIndex [
  6,7,8,-1,6,8,15,-1,5,15,14,-1,5,6,15,-1,4,14,13,-1,4,5,14,-1,3,13,12,-1,3,4,13,-1,
  2,12,11,-1,2,3,12,-1,1,11,10,-1,1,2,11,-1,0,10,9,-1,0,1,10,-1]
  normalPerVertex TRUE
  normal DEF NORM_13 Normal { vector [
  0.73678116 -0.67613129 0,0.83793318 -0.54577283 0,
  0.94610342 -0.32386465 0,0.9966143 -0.08221885 0,
  0.98638747 0.1644377 0,0.9160462 0.40107275 0,
  0.78987738 0.61326481 0,0.73678116 0.67613129 0,
  0.73678116 0.67613129 0,0.73678116 -0.67613129 0,
  0.78987738 -0.61326481 0,0.9160462 -0.40107275 0,
  0.98638747 -0.1644377 0,0.9966143 0.08221885 0,
  0.94610342 0.32386465 0,0.83793318 0.54577283 0] }
}
}
DEF SHAPE_14 Shape {
 appearance USE APP_1
 geometry DEF FACE_14 IndexedFaceSet {
  coord DEF COORD_14 Coordinate { point [
  -0.26774548 0.31496063 0.14173228,0.26774548 0.31496063 0.14173228,
  -0.32916813 0.25007236 0.14173228,-0.37521329 0.17350166 0.14173228,
  -0.40372992 0.088825629 0.14173228,-0.41338583 0 0.14173228,
  -0.40372992 -0.088825629 0.14173228,-0.37521329 -0.17350166 0.14173228,
  -0.32916813 -0.25007236 0.14173228,-0.26774548 -0.31496063 0.14173228,
  0.26774548 -0.31496063 0.14173228,0.33674598 -0.23977069 0.14173228,
  0.38522382 -0.14996816 0.14173228,0.41022456 -0.051025963 0.14173228,
  0.41022456 0.051025963 0.14173228,0.38522382 0.14996816 0.14173228,
  0.33674598 0.23977069 0.14173228,-0.31055529 0 0.14173228,
  -0.29997338 -0.080377624 0.14173228,-0.26894877 -0.15527765 0.14173228,
  -0.21959575 -0.21959575 0.14173228,-0.15527765 -0.26894877 0.14173228,
  -0.080377624 -0.29997338 0.14173228,0 -0.31055529 0.14173228,
  0.080377624 -0.29997338 0.14173228,0.15527765 -0.26894877 0.14173228,
  0.21959575 -0.21959575 0.14173228,0.26894877 -0.15527765 0.14173228,
  0.29997338 -0.080377624 0.14173228,0.31055529 0 0.14173228,
  0.29997338 0.080377624 0.14173228,0.26894877 0.15527765 0.14173228,
  0.21959575 0.21959575 0.14173228,0.15527765 0.26894877 0.14173228,
  0.080377624 0.29997338 0.14173228,0 0.31055529 0.14173228,
  -0.080377624 0.29997338 0.14173228,-0.15527765 0.26894877 0.14173228,
  -0.21959575 0.21959575 0.14173228,-0.26894877 0.15527765 0.14173228,
  -0.29997338 0.080377624 0.14173228] }
 coordIndex [
  20,8,9,-1,19,7,8,-1,19,8,20,-1,21,20,9,-1,22,21,9,-1,18,6,7,-1,18,7,19,-1,23,22,9,-1,
  17,4,5,-1,17,5,6,-1,17,6,18,-1,40,4,17,-1,3,4,40,-1,39,3,40,-1,2,3,39,-1,10,24,23,-1,
  10,25,24,-1,26,25,10,-1,38,2,39,-1,0,2,38,-1,11,26,10,-1,27,26,11,-1,37,0,38,-1,36,0,37,-1,
  12,28,27,-1,12,27,11,-1,13,28,12,-1,13,29,28,-1,14,29,13,-1,14,30,29,-1,15,31,30,-1,15,30,14,-1,
  16,31,15,-1,16,32,31,-1,1,33,32,-1,1,34,33,-1,1,32,16,-1,1,0,35,-1,35,0,36,-1,1,35,34,-1,
  9,10,23,-1]
  normalPerVertex TRUE
  normal DEF NORM_14 Normal { vector [
  0 0 1,0 0 1,
  0 0 1,0 0 1,
  0 0 1,0 0 1,
  0 0 1,0 0 1,
  0 0 1,0 0 1,
  0 0 1,0 0 1,
  0 0 1,0 0 1,
  0 0 1,0 0 1,
  0 0 1,0 0 1,
  0 0 1,0 0 1,
  0 0 1,0 0 1,
  0 0 1,0 0 1,
  0 0 1,0 0 1,
  0 0 1,0 0 1,
  0 0 1,0 0 1,
  0 0 1,0 0 1,
  0 0 1,0 0 1,
  0 0 1,0 0 1,
  0 0 1,0 0 1,
  0 0 1,0 0 1,
  0 0 1] }
}
}
DEF SHAPE_15 Shape {
 appearance USE APP_1
 geometry DEF FACE_15 IndexedFaceSet {
  coord DEF COORD_15 Coordinate { point [
  0.094488189 0 0.23622047,0.091268582 0.024455343 0.23622047,
  0.081829172 0.047244094 0.23622047,0.066813239 0.066813239 0.23622047,
  0.047244094 0.081829172 0.23622047,0.024455343 0.091268582 0.23622047,
  0 0.094488189 0.23622047,-0.024455343 0.091268582 0.23622047,
  -0.047244094 0.081829172 0.23622047,-0.066813239 0.066813239 0.23622047,
  -0.081829172 0.047244094 0.23622047,-0.091268582 0.024455343 0.23622047,
  -0.094488189 0 0.23622047,-0.091268582 -0.024455343 0.23622047,
  -0.081829172 -0.047244094 0.23622047,-0.066813239 -0.066813239 0.23622047,
  -0.047244094 -0.081829172 0.23622047,-0.024455343 -0.091268582 0.23622047,
  0 -0.094488189 0.23622047,0.024455343 -0.091268582 0.23622047,
  0.047244094 -0.081829172 0.23622047,0.066813239 -0.066813239 0.23622047,
  0.081829172 -0.047244094 0.23622047,0.091268582 -0.024455343 0.23622047] }
 coordIndex [
  3,0,1,-1,3,1,2,-1,3,4,5,-1,3,5,6,-1,3,6,7,-1,3,7,8,-1,3,8,9,-1,3,9,10,-1,
  3,10,11,-1,3,11,12,-1,3,12,13,-1,3,13,14,-1,3,14,15,-1,3,15,16,-1,3,16,17,-1,3,17,18,-1,
  3,18,19,-1,3,19,20,-1,3,20,21,-1,3,21,22,-1,3,22,23,-1,3,23,0,-1]
  normalPerVertex TRUE
  normal DEF NORM_15 Normal { vector [
  0 0 1,0 0 1,
  0 0 1,0 0 1,
  0 0 1,0 0 1,
  0 0 1,0 0 1,
  0 0 1,0 0 1,
  0 0 1,0 0 1,
  0 0 1,0 0 1,
  0 0 1,0 0 1,
  0 0 1,0 0 1,
  0 0 1,0 0 1,
  0 0 1,0 0 1,
  0 0 1,0 0 1] }
}
}
DEF SHAPE_16 Shape {
 appearance USE APP_1
 geometry DEF FACE_16 IndexedFaceSet {
  coord DEF COORD_16 Coordinate { point [
  -0.31055529 0 0.14173228,-0.16684081 0 0.18005615,
  -0.16115585 0.043181579 0.18005615,-0.14448838 0.083420404 0.18005615,
  -0.11797427 0.11797427 0.18005615,-0.083420404 0.14448838 0.18005615,
  -0.043181579 0.16115585 0.18005615,0 0.16684081 0.18005615,
  0.043181579 0.16115585 0.18005615,0.083420404 0.14448838 0.18005615,
  0.11797427 0.11797427 0.18005615,0.14448838 0.083420404 0.18005615,
  0.16115585 0.043181579 0.18005615,0.16684081 0 0.18005615,
  0.16115585 -0.043181579 0.18005615,0.14448838 -0.083420404 0.18005615,
  0.11797427 -0.11797427 0.18005615,0.083420404 -0.14448838 0.18005615,
  0.043181579 -0.16115585 0.18005615,0 -0.16684081 0.18005615,
  -0.043181579 -0.16115585 0.18005615,-0.083420404 -0.14448838 0.18005615,
  -0.11797427 -0.11797427 0.18005615,-0.14448838 -0.083420404 0.18005615,
  -0.16115585 -0.043181579 0.18005615,-0.16684081 0 0.18005615,
  -0.31055529 0 0.14173228,-0.29997338 -0.080377624 0.14173228,
  -0.26894877 -0.15527765 0.14173228,-0.21959575 -0.21959575 0.14173228,
  -0.15527765 -0.26894877 0.14173228,-0.080377624 -0.29997338 0.14173228,
  0 -0.31055529 0.14173228,0.080377624 -0.29997338 0.14173228,
  0.15527765 -0.26894877 0.14173228,0.21959575 -0.21959575 0.14173228,
  0.26894877 -0.15527765 0.14173228,0.29997338 -0.080377624 0.14173228,
  0.31055529 0 0.14173228,0.29997338 0.080377624 0.14173228,
  0.26894877 0.15527765 0.14173228,0.21959575 0.21959575 0.14173228,
  0.15527765 0.26894877 0.14173228,0.080377624 0.29997338 0.14173228,
  0 0.31055529 0.14173228,-0.080377624 0.29997338 0.14173228,
  -0.15527765 0.26894877 0.14173228,-0.21959575 0.21959575 0.14173228,
  -0.26894877 0.15527765 0.14173228,-0.29997338 0.080377624 0.14173228] }
 coordIndex [
  49,0,1,-1,49,1,2,-1,48,2,3,-1,48,49,2,-1,47,3,4,-1,47,48,3,-1,46,4,5,-1,46,47,4,-1,
  45,5,6,-1,45,46,5,-1,44,6,7,-1,44,45,6,-1,43,7,8,-1,43,44,7,-1,42,8,9,-1,42,43,8,-1,
  41,9,10,-1,41,42,9,-1,40,10,11,-1,40,41,10,-1,39,11,12,-1,39,40,11,-1,38,39,12,-1,38,12,13,-1,
  37,38,13,-1,37,13,14,-1,36,37,14,-1,36,14,15,-1,35,15,16,-1,35,36,15,-1,34,16,17,-1,34,35,16,-1,
  33,17,18,-1,33,34,17,-1,32,18,19,-1,32,33,18,-1,31,19,20,-1,31,20,21,-1,31,32,19,-1,30,31,21,-1,
  29,21,22,-1,29,30,21,-1,28,22,23,-1,28,23,24,-1,28,29,22,-1,27,28,24,-1,26,24,25,-1,26,27,24,-1]
  normalPerVertex TRUE
  normal DEF NORM_16 Normal { vector [
  -0.25751453 0.033902431 0.9656795,-0.25751453 0.033902431 0.9656795,
  -0.24461807 0.082471905 0.96610578,-0.21493761 0.14297356 0.96610578,
  -0.17060951 0.1937318 0.96610578,-0.11465465 0.23128754 0.96610578,
  -0.050886269 0.25308141 0.96610578,0.016349928 0.25762821 0.96610578,
  0.082471905 0.24461807 0.96610578,0.14297356 0.21493761 0.96610578,
  0.1937318 0.17060951 0.96610578,0.23128754 0.11465465 0.96610578,
  0.25308141 0.050886269 0.96610578,0.25762821 -0.016349928 0.96610578,
  0.24461807 -0.082471905 0.96610578,0.21493761 -0.14297356 0.96610578,
  0.17060951 -0.1937318 0.96610578,0.11465465 -0.23128754 0.96610578,
  0.050886269 -0.25308141 0.96610578,-0.016349928 -0.25762821 0.96610578,
  -0.066688001 -0.24888301 0.96623494,-0.12883133 -0.2231424 0.96623494,
  -0.1937318 -0.17060951 0.96610578,-0.2231424 -0.12883133 0.96623494,
  -0.24888301 -0.066688001 0.96623494,-0.25751453 -0.033902431 0.9656795,
  -0.25751453 -0.033902431 0.9656795,-0.24888301 -0.066688001 0.96623494,
  -0.2231424 -0.12883133 0.96623494,-0.17711155 -0.18726906 0.96621002,
  -0.12883133 -0.2231424 0.96623494,-0.066688001 -0.24888301 0.96623494,
  0.0071824437 -0.257656 0.96621002,0.073623989 -0.24701764 0.96621002,
  0.13504818 -0.21954542 0.96621002,0.18726906 -0.17711155 0.96621002,
  0.22672787 -0.12260782 0.96621002,0.25073554 -0.059748573 0.96621002,
  0.257656 0.0071824437 0.96621002,0.24701764 0.073623989 0.96621002,
  0.21954542 0.13504818 0.96621002,0.17711155 0.18726906 0.96621002,
  0.12260782 0.22672787 0.96621002,0.059748573 0.25073554 0.96621002,
  -0.0071824437 0.257656 0.96621002,-0.073623989 0.24701764 0.96621002,
  -0.13504818 0.21954542 0.96621002,-0.18726906 0.17711155 0.96621002,
  -0.22672787 0.12260782 0.96621002,-0.25073554 0.059748573 0.96621002] }
}
}
DEF SHAPE_17 Shape {
 appearance USE APP_1
 geometry DEF FACE_17 IndexedFaceSet {
  coord DEF COORD_17 Coordinate { point [
  -0.11586689 0 0.22264594,-0.11306754 0 0.2271864,
  -0.10932084 0 0.23098302,-0.10481784 0 0.23384223,
  -0.099788135 0 0.23561824,-0.094488189 0 0.23622047,
  0.094488189 0 0.23622047,0.091268582 0.024455343 0.23622047,
  0.081829172 0.047244094 0.23622047,0.066813239 0.066813239 0.23622047,
  0.047244094 0.081829172 0.23622047,0.024455343 0.091268582 0.23622047,
  0 0.094488189 0.23622047,-0.024455343 0.091268582 0.23622047,
  -0.047244094 0.081829172 0.23622047,-0.066813239 0.066813239 0.23622047,
  -0.081829172 0.047244094 0.23622047,-0.091268582 0.024455343 0.23622047,
  -0.094488189 0 0.23622047,-0.091268582 -0.024455343 0.23622047,
  -0.081829172 -0.047244094 0.23622047,-0.066813239 -0.066813239 0.23622047,
  -0.047244094 -0.081829172 0.23622047,-0.024455343 -0.091268582 0.23622047,
  0 -0.094488189 0.23622047,0.024455343 -0.091268582 0.23622047,
  0.047244094 -0.081829172 0.23622047,0.066813239 -0.066813239 0.23622047,
  0.081829172 -0.047244094 0.23622047,0.091268582 -0.024455343 0.23622047,
  -0.11586689 0 0.22264594,-0.11306754 0 0.2271864,
  -0.10932084 0 0.23098302,-0.10481784 0 0.23384223,
  -0.099788135 0 0.23561824,-0.11191882 0.029988557 0.22264594,
  -0.10034367 0.057933443 0.22264594,-0.08193026 0.08193026 0.22264594,
  -0.057933443 0.10034367 0.22264594,-0.029988557 0.11191882 0.22264594,
  0 0.11586689 0.22264594,0.029988557 0.11191882 0.22264594,
  0.057933443 0.10034367 0.22264594,0.08193026 0.08193026 0.22264594,
  0.10034367 0.057933443 0.22264594,0.11191882 0.029988557 0.22264594,
  0.11586689 0 0.22264594,0.11191882 -0.029988557 0.22264594,
  0.10034367 -0.057933443 0.22264594,0.08193026 -0.08193026 0.22264594,
  0.057933443 -0.10034367 0.22264594,0.029988557 -0.11191882 0.22264594,
  0 -0.11586689 0.22264594,-0.029988557 -0.11191882 0.22264594,
  -0.057933443 -0.10034367 0.22264594,-0.08193026 -0.08193026 0.22264594,
  -0.10034367 -0.057933443 0.22264594,-0.11191882 -0.029988557 0.22264594,
  -0.096387937 0.02582707 0.23561824,-0.10124626 0.027128853 0.23384223,
  -0.10559583 0.028294316 0.23098302,-0.10921486 0.029264032 0.2271864,
  -0.08641906 0.049894068 0.23561824,-0.090774912 0.05240892 0.23384223,
  -0.094674627 0.054660422 0.23098302,-0.097919361 0.056533769 0.2271864,
  -0.070560867 0.070560867 0.23561824,-0.074117406 0.074117406 0.23384223,
  -0.07730151 0.07730151 0.23098302,-0.079950823 0.079950823 0.2271864,
  -0.049894068 0.08641906 0.23561824,-0.05240892 0.090774912 0.23384223,
  -0.054660422 0.094674627 0.23098302,-0.056533769 0.097919361 0.2271864,
  -0.02582707 0.096387937 0.23561824,-0.027128853 0.10124626 0.23384223,
  -0.028294316 0.10559583 0.23098302,-0.029264032 0.10921486 0.2271864,
  0 0.099788135 0.23561824,0 0.10481784 0.23384223,
  0 0.10932084 0.23098302,0 0.11306754 0.2271864,
  0.02582707 0.096387937 0.23561824,0.027128853 0.10124626 0.23384223,
  0.028294316 0.10559583 0.23098302,0.029264032 0.10921486 0.2271864,
  0.049894068 0.08641906 0.23561824,0.05240892 0.090774912 0.23384223,
  0.054660422 0.094674627 0.23098302,0.056533769 0.097919361 0.2271864,
  0.070560867 0.070560867 0.23561824,0.074117406 0.074117406 0.23384223,
  0.07730151 0.07730151 0.23098302,0.079950823 0.079950823 0.2271864,
  0.08641906 0.049894068 0.23561824,0.090774912 0.05240892 0.23384223,
  0.094674627 0.054660422 0.23098302,0.097919361 0.056533769 0.2271864,
  0.096387937 0.02582707 0.23561824,0.10124626 0.027128853 0.23384223,
  0.10559583 0.028294316 0.23098302,0.10921486 0.029264032 0.2271864,
  0.099788135 0 0.23561824,0.10481784 0 0.23384223,
  0.10932084 0 0.23098302,0.11306754 0 0.2271864,
  0.096387937 -0.02582707 0.23561824,0.10124626 -0.027128853 0.23384223,
  0.10559583 -0.028294316 0.23098302,0.10921486 -0.029264032 0.2271864,
  0.08641906 -0.049894068 0.23561824,0.090774912 -0.05240892 0.23384223,
  0.094674627 -0.054660422 0.23098302,0.097919361 -0.056533769 0.2271864,
  0.070560867 -0.070560867 0.23561824,0.074117406 -0.074117406 0.23384223,
  0.07730151 -0.07730151 0.23098302,0.079950823 -0.079950823 0.2271864,
  0.049894068 -0.08641906 0.23561824,0.05240892 -0.090774912 0.23384223,
  0.054660422 -0.094674627 0.23098302,0.056533769 -0.097919361 0.2271864,
  0.02582707 -0.096387937 0.23561824,0.027128853 -0.10124626 0.23384223,
  0.028294316 -0.10559583 0.23098302,0.029264032 -0.10921486 0.2271864,
  0 -0.099788135 0.23561824,0 -0.10481784 0.23384223,
  0 -0.10932084 0.23098302,0 -0.11306754 0.2271864,
  -0.02582707 -0.096387937 0.23561824,-0.027128853 -0.10124626 0.23384223,
  -0.028294316 -0.10559583 0.23098302,-0.029264032 -0.10921486 0.2271864,
  -0.049894068 -0.08641906 0.23561824,-0.05240892 -0.090774912 0.23384223,
  -0.054660422 -0.094674627 0.23098302,-0.056533769 -0.097919361 0.2271864,
  -0.070560867 -0.070560867 0.23561824,-0.074117406 -0.074117406 0.23384223,
  -0.07730151 -0.07730151 0.23098302,-0.079950823 -0.079950823 0.2271864,
  -0.08641906 -0.049894068 0.23561824,-0.090774912 -0.05240892 0.23384223,
  -0.094674627 -0.054660422 0.23098302,-0.097919361 -0.056533769 0.2271864,
  -0.096387937 -0.02582707 0.23561824,-0.10124626 -0.027128853 0.23384223,
  -0.10559583 -0.028294316 0.23098302,-0.10921486 -0.029264032 0.2271864] }
 coordIndex [
  34,19,18,-1,58,4,5,-1,58,5,17,-1,59,3,4,-1,59,4,58,-1,60,2,3,-1,60,3,59,-1,61,0,1,-1,
  61,1,2,-1,61,35,0,-1,61,2,60,-1,62,58,17,-1,62,17,16,-1,63,58,62,-1,63,59,58,-1,64,59,63,-1,
  64,60,59,-1,65,35,61,-1,65,36,35,-1,65,60,64,-1,65,61,60,-1,66,16,15,-1,66,62,16,-1,67,63,62,-1,
  67,62,66,-1,68,63,67,-1,68,64,63,-1,69,65,64,-1,69,37,36,-1,69,64,68,-1,69,36,65,-1,70,15,14,-1,
  70,66,15,-1,71,67,66,-1,71,66,70,-1,72,67,71,-1,72,68,67,-1,73,37,69,-1,73,38,37,-1,73,68,72,-1,
  73,69,68,-1,74,14,13,-1,74,70,14,-1,75,70,74,-1,75,71,70,-1,76,72,71,-1,76,71,75,-1,77,39,38,-1,
  77,73,72,-1,77,38,73,-1,77,72,76,-1,78,13,12,-1,78,74,13,-1,79,75,74,-1,79,74,78,-1,80,75,79,-1,
  80,76,75,-1,81,39,77,-1,81,40,39,-1,81,77,76,-1,81,76,80,-1,82,12,11,-1,82,78,12,-1,83,78,82,-1,
  83,79,78,-1,84,79,83,-1,84,80,79,-1,85,41,40,-1,85,40,81,-1,85,81,80,-1,85,80,84,-1,86,11,10,-1,
  86,82,11,-1,87,83,82,-1,87,82,86,-1,88,83,87,-1,88,84,83,-1,89,84,88,-1,89,42,41,-1,89,41,85,-1,
  89,85,84,-1,90,10,9,-1,90,86,10,-1,91,86,90,-1,91,87,86,-1,92,87,91,-1,92,88,87,-1,93,88,92,-1,
  93,42,89,-1,93,43,42,-1,93,89,88,-1,94,9,8,-1,94,90,9,-1,95,90,94,-1,95,91,90,-1,96,92,91,-1,
  96,91,95,-1,97,93,92,-1,97,43,93,-1,97,92,96,-1,97,44,43,-1,98,8,7,-1,98,94,8,-1,99,94,98,-1,
  99,95,94,-1,100,95,99,-1,100,96,95,-1,101,97,96,-1,101,44,97,-1,101,96,100,-1,101,45,44,-1,102,7,6,-1,
  102,98,7,-1,103,98,102,-1,103,99,98,-1,104,99,103,-1,104,100,99,-1,105,101,100,-1,105,45,101,-1,105,46,45,-1,
  105,100,104,-1,106,6,29,-1,106,102,6,-1,107,103,102,-1,107,102,106,-1,108,104,103,-1,108,103,107,-1,109,47,46,-1,
  109,46,105,-1,109,105,104,-1,109,104,108,-1,110,106,29,-1,110,28,27,-1,110,29,28,-1,111,106,110,-1,111,107,106,-1,
  112,108,107,-1,112,107,111,-1,113,108,112,-1,113,48,47,-1,113,47,109,-1,113,109,108,-1,114,110,27,-1,115,110,114,-1,
  115,111,110,-1,116,113,112,-1,116,112,111,-1,116,111,115,-1,117,113,116,-1,117,49,48,-1,117,48,113,-1,118,27,26,-1,
  118,114,27,-1,119,115,114,-1,119,114,118,-1,120,116,115,-1,120,115,119,-1,121,50,49,-1,121,51,50,-1,121,117,116,-1,
  121,49,117,-1,121,116,120,-1,122,26,25,-1,122,118,26,-1,123,119,118,-1,123,118,122,-1,124,119,123,-1,124,120,119,-1,
  125,120,124,-1,125,121,120,-1,125,51,121,-1,126,24,23,-1,126,25,24,-1,126,122,25,-1,127,122,126,-1,127,123,122,-1,
  128,124,123,-1,128,123,127,-1,129,125,124,-1,129,51,125,-1,129,124,128,-1,129,52,51,-1,129,53,52,-1,130,126,23,-1,
  131,127,126,-1,131,126,130,-1,131,128,127,-1,132,128,131,-1,133,129,128,-1,133,53,129,-1,133,128,132,-1,134,23,22,-1,
  134,130,23,-1,135,130,134,-1,135,131,130,-1,136,132,131,-1,136,131,135,-1,137,53,133,-1,137,133,132,-1,137,132,136,-1,
  137,54,53,-1,138,22,21,-1,138,134,22,-1,139,136,135,-1,139,135,134,-1,139,134,138,-1,140,136,139,-1,141,137,136,-1,
  141,54,137,-1,141,55,54,-1,141,136,140,-1,142,21,20,-1,142,138,21,-1,143,139,138,-1,143,138,142,-1,144,140,139,-1,
  144,139,143,-1,145,56,55,-1,145,55,141,-1,145,141,140,-1,145,140,144,-1,146,20,19,-1,146,142,20,-1,146,19,34,-1,
  147,34,33,-1,147,143,142,-1,147,142,146,-1,147,146,34,-1,148,33,32,-1,148,143,147,-1,148,144,143,-1,148,147,33,-1,
  149,31,30,-1,149,32,31,-1,149,57,56,-1,149,30,57,-1,149,56,145,-1,149,145,144,-1,149,148,32,-1,149,144,148,-1]
  normalPerVertex TRUE
  normal DEF NORM_17 Normal { vector [
  -0.84592619 0.1113683 0.52154193,-0.78234278 0.10299738 0.61427299,
  -0.65511717 0.086247812 0.75058831,-0.47104768 0.062014603 0.87992515,
  -0.26213847 0.034511185 0.96441298,-0.11289164 0.014862467 0.99349614,
  0.11290262 -0.005136511 0.99359278,0.11038499 0.024259861 0.99359278,
  0.1003448 0.052002963 0.99359278,0.083466273 0.076202149 0.99359278,
  0.060899661 0.095208285 0.99359278,0.034182838 0.10772613 0.99359278,
  0.005136511 0.11290262 0.99359278,-0.024259861 0.11038499 0.99359278,
  -0.052002963 0.1003448 0.99359278,-0.076202149 0.083466273 0.99359278,
  -0.095208285 0.060899661 0.99359278,-0.10772613 0.034182838 0.99359278,
  -0.11289164 -0.014862467 0.99349614,-0.11038499 -0.024259861 0.99359278,
  -0.1003448 -0.052002963 0.99359278,-0.083466273 -0.076202149 0.99359278,
  -0.060899661 -0.095208285 0.99359278,-0.029221735 -0.109057 0.99360589,
  0 -0.11290411 0.99360589,0.024259861 -0.11038499 0.99359278,
  0.052002963 -0.1003448 0.99359278,0.079835264 -0.079835264 0.99360589,
  0.09777783 -0.056452057 0.99360589,0.10772613 -0.034182838 0.99359278,
  -0.84592619 -0.1113683 0.52154193,-0.78234278 -0.10299738 0.61427299,
  -0.65511717 -0.086247812 0.75058831,-0.47104768 -0.062014603 0.87992515,
  -0.2271294 -0.029902153 0.97340541,-0.81215735 0.25563619 0.52445264,
  -0.71832025 0.45712738 0.52445264,-0.57553081 0.62746611 0.52445264,
  -0.39351989 0.75504405 0.52445264,-0.18469125 0.83116699 0.52445264,
  0.036723803 0.85064728 0.52445264,0.25563619 0.81215735 0.52445264,
  0.45712738 0.71832025 0.52445264,0.62746611 0.57553081 0.52445264,
  0.75504405 0.39351989 0.52445264,0.83116699 0.18469125 0.52445264,
  0.85064728 -0.036723803 0.52445264,0.81215735 -0.25563619 0.52445264,
  0.71832025 -0.45712738 0.52445264,0.57553081 -0.62746611 0.52445264,
  0.42561073 -0.73717941 0.52480665,0.22031233 -0.8222168 0.52480665,
  0 -0.85122146 0.52480665,-0.22031233 -0.8222168 0.52480665,
  -0.45712738 -0.71832025 0.52445264,-0.62746611 -0.57553081 0.52445264,
  -0.75504405 -0.39351989 0.52445264,-0.8222168 -0.22031233 0.52480665,
  -0.21717345 0.063745523 0.97404938,-0.4224943 0.11874604 0.89855325,
  -0.60631612 0.16754808 0.77737276,-0.76885396 0.17030897 0.61632657,
  -0.19327489 0.11778207 0.97404938,-0.37736442 0.22404944 0.89855325,
  -0.54229176 0.31876518 0.77737276,-0.69857669 0.36349988 0.61632657,
  -0.15620497 0.16379197 0.97404938,-0.30651778 0.31408424 0.89855325,
  -0.44131112 0.44825895 0.77737276,-0.58069258 0.53191888 0.61632657,
  -0.10848993 0.19863971 0.97404938,-0.21478246 0.38271472 0.89855325,
  -0.31025586 0.54720462 0.77737276,-0.42323522 0.66408848 0.61632657,
  -0.053381485 0.21995049 0.97404938,-0.10841006 0.42526382 0.89855325,
  -0.15805717 0.6088592 0.77737276,-0.23693509 0.75100155 0.61632657,
  0.0053648208 0.226272 0.97404938,0.0053502971 0.4388319 0.89855325,
  0.0049128589 0.62902103 0.77737276,-0.034488215 0.7867351 0.61632657,
  0.063745523 0.21717345 0.97404938,0.11874604 0.4224943 0.89855325,
  0.16754808 0.60631612 0.77737276,0.17030897 0.76885396 0.61632657,
  0.11778207 0.19327489 0.97404938,0.22404944 0.37736442 0.89855325,
  0.31876518 0.54229176 0.77737276,0.36349988 0.69857669 0.61632657,
  0.16379197 0.15620497 0.97404938,0.31408424 0.30651778 0.89855325,
  0.44825895 0.44131112 0.77737276,0.53191888 0.58069258 0.61632657,
  0.19863971 0.10848993 0.97404938,0.38271472 0.21478246 0.89855325,
  0.54720462 0.31025586 0.77737276,0.66408848 0.42323522 0.61632657,
  0.21995049 0.053381485 0.97404938,0.42526382 0.10841006 0.89855325,
  0.6088592 0.15805717 0.77737276,0.75100155 0.23693509 0.61632657,
  0.226272 -0.0053648208 0.97404938,0.4388319 -0.0053502971 0.89855325,
  0.62902103 -0.0049128589 0.77737276,0.7867351 0.034488215 0.61632657,
  0.21717345 -0.063745523 0.97404938,0.4224943 -0.11874604 0.89855325,
  0.60631612 -0.16754808 0.77737276,0.76885396 -0.17030897 0.61632657,
  0.17930072 -0.111224 0.97748682,0.37736442 -0.22404944 0.89855325,
  0.53566884 -0.29341662 0.79181158,0.68134873 -0.37420229 0.62907596,
  0.16839266 -0.18136466 0.96889152,0.30651778 -0.31408424 0.89855325,
  0.46063503 -0.44693351 0.76685449,0.58223188 -0.5497196 0.59901118,
  0.10848993 -0.19863971 0.97404938,0.21478246 -0.38271472 0.89855325,
  0.31025586 -0.54720462 0.77737276,0.40983414 -0.68386786 0.603623,
  0.053381485 -0.21995049 0.97404938,0.10841006 -0.42526382 0.89855325,
  0.15805717 -0.6088592 0.77737276,0.21767544 -0.74147307 0.63469291,
  -0.0066724506 -0.21089097 0.97748682,0.0084789798 -0.41752803 0.90862448,
  -0.01402813 -0.6165535 0.78718803,0.012992847 -0.79716401 0.603623,
  -0.072870068 -0.23651465 0.96889152,-0.11165492 -0.43975459 0.89115043,
  -0.18584885 -0.61877042 0.76327149,-0.18222407 -0.75097224 0.63469291,
  -0.11778207 -0.19327489 0.97404938,-0.201421 -0.36582937 0.90862448,
  -0.32042547 -0.52693693 0.78718803,-0.36349988 -0.69857669 0.61632657,
  -0.16379197 -0.15620497 0.97404938,-0.31657329 -0.32501118 0.89115043,
  -0.47033504 -0.44294648 0.76327149,-0.53191888 -0.58069258 0.61632657,
  -0.19863971 -0.10848993 0.97404938,-0.38271472 -0.21478246 0.89855325,
  -0.54720462 -0.31025586 0.77737276,-0.66408848 -0.42323522 0.61632657,
  -0.1954578 -0.055336519 0.97914969,-0.39029322 -0.10457875 0.91473192,
  -0.57844636 -0.15499424 0.80085991,-0.76070769 -0.20383101 0.61626027] }
}
}
DEF SHAPE_18 Shape {
 appearance USE APP_1
 geometry DEF FACE_18 IndexedFaceSet {
  coord DEF COORD_18 Coordinate { point [
  -0.16684081 0 0.18005615,-0.16115585 0.043181579 0.18005615,
  -0.14448838 0.083420404 0.18005615,-0.11797427 0.11797427 0.18005615,
  -0.083420404 0.14448838 0.18005615,-0.043181579 0.16115585 0.18005615,
  0 0.16684081 0.18005615,0.043181579 0.16115585 0.18005615,
  0.083420404 0.14448838 0.18005615,0.11797427 0.11797427 0.18005615,
  0.14448838 0.083420404 0.18005615,0.16115585 0.043181579 0.18005615,
  0.16684081 0 0.18005615,0.16115585 -0.043181579 0.18005615,
  0.14448838 -0.083420404 0.18005615,0.11797427 -0.11797427 0.18005615,
  0.083420404 -0.14448838 0.18005615,0.043181579 -0.16115585 0.18005615,
  0 -0.16684081 0.18005615,-0.043181579 -0.16115585 0.18005615,
  -0.083420404 -0.14448838 0.18005615,-0.11797427 -0.11797427 0.18005615,
  -0.14448838 -0.083420404 0.18005615,-0.16115585 -0.043181579 0.18005615,
  -0.16684081 0 0.18005615,-0.11586689 0 0.22264594,
  -0.12478321 0 0.20804409,-0.13664301 0 0.19571284,
  -0.15088636 0 0.18623436,-0.11586689 0 0.22264594,
  -0.11191882 0.029988557 0.22264594,-0.10034367 0.057933443 0.22264594,
  -0.08193026 0.08193026 0.22264594,-0.057933443 0.10034367 0.22264594,
  -0.029988557 0.11191882 0.22264594,0 0.11586689 0.22264594,
  0.029988557 0.11191882 0.22264594,0.057933443 0.10034367 0.22264594,
  0.08193026 0.08193026 0.22264594,0.10034367 0.057933443 0.22264594,
  0.11191882 0.029988557 0.22264594,0.11586689 0 0.22264594,
  0.11191882 -0.029988557 0.22264594,0.10034367 -0.057933443 0.22264594,
  0.08193026 -0.08193026 0.22264594,0.057933443 -0.10034367 0.22264594,
  0.029988557 -0.11191882 0.22264594,0 -0.11586689 0.22264594,
  -0.029988557 -0.11191882 0.22264594,-0.057933443 -0.10034367 0.22264594,
  -0.08193026 -0.08193026 0.22264594,-0.10034367 -0.057933443 0.22264594,
  -0.11191882 -0.029988557 0.22264594,-0.12478321 0 0.20804409,
  -0.13664301 0 0.19571284,-0.15088636 0 0.18623436,
  -0.14574503 0.039052264 0.18623436,-0.13198701 0.035365813 0.19571284,
  -0.12053132 0.032296271 0.20804409,-0.13067142 0.07544318 0.18623436,
  -0.11833632 0.068321505 0.19571284,-0.10806543 0.062391605 0.20804409,
  -0.10669277 0.10669277 0.18623436,-0.096621198 0.096621198 0.19571284,
  -0.088235053 0.088235053 0.20804409,-0.07544318 0.13067142 0.18623436,
  -0.068321505 0.11833632 0.19571284,-0.062391605 0.10806543 0.20804409,
  -0.039052264 0.14574503 0.18623436,-0.035365813 0.13198701 0.19571284,
  -0.032296271 0.12053132 0.20804409,0 0.15088636 0.18623436,
  0 0.13664301 0.19571284,0 0.12478321 0.20804409,
  0.039052264 0.14574503 0.18623436,0.035365813 0.13198701 0.19571284,
  0.032296271 0.12053132 0.20804409,0.07544318 0.13067142 0.18623436,
  0.068321505 0.11833632 0.19571284,0.062391605 0.10806543 0.20804409,
  0.10669277 0.10669277 0.18623436,0.096621198 0.096621198 0.19571284,
  0.088235053 0.088235053 0.20804409,0.13067142 0.07544318 0.18623436,
  0.11833632 0.068321505 0.19571284,0.10806543 0.062391605 0.20804409,
  0.14574503 0.039052264 0.18623436,0.13198701 0.035365813 0.19571284,
  0.12053132 0.032296271 0.20804409,0.15088636 0 0.18623436,
  0.13664301 0 0.19571284,0.12478321 0 0.20804409,
  0.14574503 -0.039052264 0.18623436,0.13198701 -0.035365813 0.19571284,
  0.12053132 -0.032296271 0.20804409,0.13067142 -0.07544318 0.18623436,
  0.11833632 -0.068321505 0.19571284,0.10806543 -0.062391605 0.20804409,
  0.10669277 -0.10669277 0.18623436,0.096621198 -0.096621198 0.19571284,
  0.088235053 -0.088235053 0.20804409,0.07544318 -0.13067142 0.18623436,
  0.068321505 -0.11833632 0.19571284,0.062391605 -0.10806543 0.20804409,
  0.039052264 -0.14574503 0.18623436,0.035365813 -0.13198701 0.19571284,
  0.032296271 -0.12053132 0.20804409,0 -0.15088636 0.18623436,
  0 -0.13664301 0.19571284,0 -0.12478321 0.20804409,
  -0.039052264 -0.14574503 0.18623436,-0.035365813 -0.13198701 0.19571284,
  -0.032296271 -0.12053132 0.20804409,-0.07544318 -0.13067142 0.18623436,
  -0.068321505 -0.11833632 0.19571284,-0.062391605 -0.10806543 0.20804409,
  -0.10669277 -0.10669277 0.18623436,-0.096621198 -0.096621198 0.19571284,
  -0.088235053 -0.088235053 0.20804409,-0.13067142 -0.07544318 0.18623436,
  -0.11833632 -0.068321505 0.19571284,-0.10806543 -0.062391605 0.20804409,
  -0.14574503 -0.039052264 0.18623436,-0.13198701 -0.035365813 0.19571284,
  -0.12053132 -0.032296271 0.20804409] }
 coordIndex [
  56,1,0,-1,56,0,55,-1,57,55,54,-1,57,56,55,-1,58,57,54,-1,58,29,30,-1,58,53,29,-1,58,54,53,-1,
  59,2,1,-1,59,1,56,-1,60,56,57,-1,60,59,56,-1,61,30,31,-1,61,57,58,-1,61,58,30,-1,61,60,57,-1,
  62,3,2,-1,62,2,59,-1,63,59,60,-1,63,62,59,-1,64,61,31,-1,64,31,32,-1,64,60,61,-1,64,63,60,-1,
  65,4,3,-1,65,3,62,-1,66,62,63,-1,66,65,62,-1,67,32,33,-1,67,63,64,-1,67,66,63,-1,67,64,32,-1,
  68,5,4,-1,68,4,65,-1,69,65,66,-1,69,68,65,-1,70,33,34,-1,70,69,66,-1,70,67,33,-1,70,66,67,-1,
  71,6,5,-1,71,5,68,-1,72,68,69,-1,72,71,68,-1,73,34,35,-1,73,70,34,-1,73,72,69,-1,73,69,70,-1,
  74,7,6,-1,74,6,71,-1,75,71,72,-1,75,74,71,-1,76,75,72,-1,76,35,36,-1,76,73,35,-1,76,72,73,-1,
  77,8,7,-1,77,7,74,-1,78,77,74,-1,78,74,75,-1,79,36,37,-1,79,75,76,-1,79,76,36,-1,79,78,75,-1,
  80,8,77,-1,80,9,8,-1,80,10,9,-1,81,80,77,-1,81,77,78,-1,81,78,79,-1,82,37,38,-1,82,79,37,-1,
  82,81,79,-1,83,10,80,-1,83,11,10,-1,84,83,80,-1,84,80,81,-1,85,82,38,-1,85,38,39,-1,85,81,82,-1,
  85,84,81,-1,86,11,83,-1,87,83,84,-1,87,84,85,-1,87,86,83,-1,88,87,85,-1,88,39,40,-1,88,85,39,-1,
  89,12,11,-1,89,11,86,-1,90,89,86,-1,90,86,87,-1,91,88,40,-1,91,90,87,-1,91,40,41,-1,91,87,88,-1,
  92,12,89,-1,92,13,12,-1,93,92,89,-1,93,89,90,-1,94,90,91,-1,94,91,41,-1,94,93,90,-1,94,41,42,-1,
  95,14,13,-1,95,13,92,-1,96,92,93,-1,96,95,92,-1,97,93,94,-1,97,94,42,-1,97,96,93,-1,97,42,43,-1,
  98,15,14,-1,98,14,95,-1,99,95,96,-1,99,96,97,-1,99,98,95,-1,100,97,43,-1,100,99,97,-1,100,43,44,-1,
  101,16,15,-1,101,15,98,-1,102,101,98,-1,102,98,99,-1,103,102,99,-1,103,99,100,-1,103,100,44,-1,103,44,45,-1,
  104,17,16,-1,104,16,101,-1,105,104,101,-1,105,101,102,-1,105,102,103,-1,106,45,46,-1,106,46,47,-1,106,103,45,-1,
  106,105,103,-1,107,18,17,-1,107,17,104,-1,108,107,104,-1,108,104,105,-1,108,105,106,-1,109,106,47,-1,109,108,106,-1,
  110,19,18,-1,110,20,19,-1,110,18,107,-1,111,107,108,-1,111,110,107,-1,112,47,48,-1,112,109,47,-1,112,108,109,-1,
  112,111,108,-1,113,21,20,-1,113,20,110,-1,114,113,110,-1,114,110,111,-1,114,111,112,-1,115,48,49,-1,115,49,50,-1,
  115,114,112,-1,115,112,48,-1,116,22,21,-1,116,21,113,-1,117,113,114,-1,117,116,113,-1,118,117,114,-1,118,115,50,-1,
  118,114,115,-1,119,22,116,-1,120,116,117,-1,120,119,116,-1,121,50,51,-1,121,118,50,-1,121,117,118,-1,121,120,117,-1,
  122,23,22,-1,122,24,23,-1,122,28,24,-1,122,119,120,-1,122,22,119,-1,123,122,120,-1,123,27,28,-1,123,28,122,-1,
  124,121,51,-1,124,120,121,-1,124,25,26,-1,124,26,27,-1,124,51,52,-1,124,52,25,-1,124,123,120,-1,124,27,123,-1]
  normalPerVertex TRUE
  normal DEF NORM_18 Normal { vector [
  -0.36070342 0.047487506 0.93147087,-0.34493703 0.10774965 0.93242075,
  -0.30529593 0.19335444 0.93242075,-0.24484941 0.26578245 0.93242075,
  -0.16771681 0.32009782 0.93242075,-0.079154584 0.35259906 0.93242075,
  0.014801894 0.36107125 0.93242075,0.10774965 0.34493703 0.93242075,
  0.19335444 0.30529593 0.93242075,0.2553439 0.2553439 0.93252291,
  0.30529593 0.19335444 0.93242075,0.34880626 0.093462355 0.93252291,
  0.36107125 -0.014801894 0.93242075,0.34493703 -0.10774965 0.93242075,
  0.30529593 -0.19335444 0.93242075,0.24484941 -0.26578245 0.93242075,
  0.16771681 -0.32009782 0.93242075,0.079154584 -0.35259906 0.93242075,
  -0.014801894 -0.36107125 0.93242075,-0.093462355 -0.34880626 0.93252291,
  -0.16771681 -0.32009782 0.93242075,-0.24484941 -0.26578245 0.93242075,
  -0.31273114 -0.18055541 0.93252291,-0.34880626 -0.093462355 0.93252291,
  -0.36070342 -0.047487506 0.93147087,-0.84812749 -0.1116581 0.5178921,
  -0.78752696 -0.10367989 0.60749632,-0.66451568 -0.087485149 0.7421356,
  -0.48922158 -0.064407243 0.86977811,-0.84812749 0.1116581 0.5178921,
  -0.81357591 0.25867984 0.52074848,-0.71890272 0.46043447 0.52074848,
  -0.57523749 0.63081127 0.52074848,-0.39237078 0.75819931 0.52074848,
  -0.18276465 0.83391733 0.52074848,0.039296593 0.85280525 0.52074848,
  0.25867984 0.81357591 0.52074848,0.46043447 0.71890272 0.52074848,
  0.63081127 0.57523749 0.52074848,0.75819931 0.39237078 0.52074848,
  0.83391733 0.18276465 0.52074848,0.85280525 -0.039296593 0.52074848,
  0.81357591 -0.25867984 0.52074848,0.71890272 -0.46043447 0.52074848,
  0.57523749 -0.63081127 0.52074848,0.39237078 -0.75819931 0.52074848,
  0.22089286 -0.82438338 0.52115102,0 -0.85346448 0.52115102,
  -0.25867984 -0.81357591 0.52074848,-0.42673224 -0.73912192 0.52115102,
  -0.60349052 -0.60349052 0.52115102,-0.75819931 -0.39237078 0.52074848,
  -0.82438338 -0.22089286 0.52115102,-0.78752696 0.10367989 0.60749632,
  -0.66451568 0.087485149 0.7421356,-0.48922158 0.064407243 0.86977811,
  -0.44089216 0.12047264 0.88943827,-0.61648689 0.16624522 0.76961447,
  -0.77156307 0.17075838 0.61280666,-0.39468851 0.23047892 0.88943827,
  -0.55245318 0.3201391 0.76961447,-0.70107718 0.36463514 0.61280666,
  -0.32158749 0.32477845 0.88943827,-0.4507707 0.45221603 0.76961447,
  -0.58281403 0.53366263 0.61280666,-0.22657082 0.39694486 0.88943827,
  -0.31836894 0.55347519 0.76961447,-0.42483307 0.66632189 0.61280666,
  -0.11611372 0.44206013 0.88943827,-0.16427086 0.61701592 0.76961447,
  -0.23790044 0.75357241 0.61280666,0.0022563455 0.45704974 0.88943827,
  0.001022003 0.63850804 0.76961447,-0.034755291 0.78946822 0.61280666,
  0.12047264 0.44089216 0.88943827,0.16624522 0.61648689 0.76961447,
  0.17075838 0.77156307 0.61280666,0.23047892 0.39468851 0.88943827,
  0.29764855 0.54727529 0.78223724,0.37710238 0.68263867 0.62593789,
  0.31940533 0.3062055 0.89678226,0.45123225 0.46776213 0.75999214,
  0.55347514 0.58357758 0.59422426,0.40566278 0.21129322 0.88926536,
  0.53140885 0.32513003 0.78223724,0.66789957 0.40263124 0.62593789,
  0.46526933 0.11065019 0.87822605,0.62465966 0.17947776 0.75999214,
  0.77111232 0.22865544 0.59422426,0.45704974 -0.0022563455 0.88943827,
  0.63850804 -0.001022003 0.76961447,0.78946822 0.034755291 0.61280666,
  0.44089216 -0.12047264 0.88943827,0.61648689 -0.16624522 0.76961447,
  0.77156307 -0.17075838 0.61280666,0.39468851 -0.23047892 0.88943827,
  0.54727529 -0.29764855 0.78223724,0.68263867 -0.37710238 0.62593789,
  0.32158749 -0.32477845 0.88943827,0.46776213 -0.45123225 0.75999214,
  0.58357758 -0.55347514 0.59422426,0.22657082 -0.39694486 0.88943827,
  0.32513003 -0.53140885 0.78223724,0.40263124 -0.66789957 0.62593789,
  0.11611372 -0.44206013 0.88943827,0.19218057 -0.60927984 0.76931444,
  0.19226688 -0.77563009 0.60119166,-0.0022563455 -0.45704974 0.88943827,
  0.011688388 -0.64982716 0.75999214,0 -0.79179416 0.61078803,
  -0.12351038 -0.42488441 0.89678226,-0.14586115 -0.60566444 0.78223724,
  -0.18757304 -0.7569796 0.62593789,-0.24566766 -0.38581669 0.88926536,
  -0.31479114 -0.56861102 0.75999214,-0.4062357 -0.70362087 0.58300105,
  -0.33715345 -0.30908684 0.88926536,-0.45221603 -0.4507707 0.76961447,
  -0.53497193 -0.56397071 0.62908034,-0.39861775 -0.23014207 0.88777166,
  -0.54803429 -0.30227815 0.77992714,-0.66632189 -0.42483307 0.61280666,
  -0.42488441 -0.12351038 0.89678226,-0.60566444 -0.14586115 0.78223724,
  -0.76213852 -0.2042144 0.61436255] }
}
}
DEF SHAPE_19 Shape {
 appearance USE APP_1
 geometry DEF FACE_19 IndexedFaceSet {
  coord DEF COORD_19 Coordinate { point [
  0.51574803 0.39370079 0.12598425,0.53510851 0.39115193 0.12598425,
  0.55314961 0.38367907 0.12598425,0.56864185 0.37179145 0.12598425,
  0.58052946 0.35629921 0.12598425,0.58800233 0.33825812 0.12598425,
  0.59055118 0.31889764 0.12598425,0.51574803 0.39370079 0.14566929,
  0.59055118 0.31889764 0.14566929,0.58800233 0.33825812 0.14566929,
  0.58052946 0.35629921 0.14566929,0.56864185 0.37179145 0.14566929,
  0.55314961 0.38367907 0.14566929,0.53510851 0.39115193 0.14566929] }
 coordIndex [
  9,6,5,-1,9,8,6,-1,10,5,4,-1,10,9,5,-1,11,4,3,-1,11,10,4,-1,12,3,2,-1,12,11,3,-1,
  13,2,1,-1,13,12,2,-1,7,1,0,-1,7,13,1,-1]
  normalPerVertex TRUE
  normal DEF NORM_19 Normal { vector [
  0.13052619 0.99144486 0,0.21622209 0.9763442 0,
  0.46155098 0.88711369 0,0.67542593 0.73742784 0,
  0.84327172 0.5374875 0,0.95364993 0.30091828 0,
  0.99144486 0.13052619 0,0.13052619 0.99144486 0,
  0.99144486 0.13052619 0,0.9763442 0.21622209 0,
  0.88711369 0.46155098 0,0.73742784 0.67542593 0,
  0.5374875 0.84327172 0,0.30091828 0.95364993 0] }
}
}
DEF SHAPE_20 Shape {
 appearance USE APP_1
 geometry DEF FACE_20 IndexedFaceSet {
  coord DEF COORD_20 Coordinate { point [
  0.59055118 -0.31889764 0.12598425,0.58800233 -0.33825812 0.12598425,
  0.58052946 -0.35629921 0.12598425,0.56864185 -0.37179145 0.12598425,
  0.55314961 -0.38367907 0.12598425,0.53510851 -0.39115193 0.12598425,
  0.51574803 -0.39370079 0.12598425,0.59055118 -0.31889764 0.14566929,
  0.51574803 -0.39370079 0.14566929,0.53510851 -0.39115193 0.14566929,
  0.55314961 -0.38367907 0.14566929,0.56864185 -0.37179145 0.14566929,
  0.58052946 -0.35629921 0.14566929,0.58800233 -0.33825812 0.14566929] }
 coordIndex [
  9,6,5,-1,9,8,6,-1,10,5,4,-1,10,9,5,-1,11,4,3,-1,11,10,4,-1,12,3,2,-1,12,11,3,-1,
  13,2,1,-1,13,12,2,-1,7,1,0,-1,7,13,1,-1]
  normalPerVertex TRUE
  normal DEF NORM_20 Normal { vector [
  0.99144486 -0.13052619 0,0.9763442 -0.21622209 0,
  0.88711369 -0.46155098 0,0.73742784 -0.67542593 0,
  0.5374875 -0.84327172 0,0.30091828 -0.95364993 0,
  0.13052619 -0.99144486 0,0.99144486 -0.13052619 0,
  0.13052619 -0.99144486 0,0.21622209 -0.9763442 0,
  0.46155098 -0.88711369 0,0.67542593 -0.73742784 0,
  0.84327172 -0.5374875 0,0.95364993 -0.30091828 0] }
}
}
DEF SHAPE_21 Shape {
 appearance USE APP_1
 geometry DEF FACE_21 IndexedFaceSet {
  coord DEF COORD_21 Coordinate { point [
  -0.51574803 -0.39370079 0.12598425,-0.53510851 -0.39115193 0.12598425,
  -0.55314961 -0.38367907 0.12598425,-0.56864185 -0.37179145 0.12598425,
  -0.58052946 -0.35629921 0.12598425,-0.58800233 -0.33825812 0.12598425,
  -0.59055118 -0.31889764 0.12598425,-0.51574803 -0.39370079 0.14566929,
  -0.59055118 -0.31889764 0.14566929,-0.58800233 -0.33825812 0.14566929,
  -0.58052946 -0.35629921 0.14566929,-0.56864185 -0.37179145 0.14566929,
  -0.55314961 -0.38367907 0.14566929,-0.53510851 -0.39115193 0.14566929] }
 coordIndex [
  9,6,5,-1,9,8,6,-1,10,5,4,-1,10,9,5,-1,11,4,3,-1,11,10,4,-1,12,3,2,-1,12,11,3,-1,
  13,2,1,-1,13,12,2,-1,7,1,0,-1,7,13,1,-1]
  normalPerVertex TRUE
  normal DEF NORM_21 Normal { vector [
  -0.13052619 -0.99144486 0,-0.21622209 -0.9763442 0,
  -0.46155098 -0.88711369 0,-0.67542593 -0.73742784 0,
  -0.84327172 -0.5374875 0,-0.95364993 -0.30091828 0,
  -0.99144486 -0.13052619 0,-0.13052619 -0.99144486 0,
  -0.99144486 -0.13052619 0,-0.9763442 -0.21622209 0,
  -0.88711369 -0.46155098 0,-0.73742784 -0.67542593 0,
  -0.5374875 -0.84327172 0,-0.30091828 -0.95364993 0] }
}
}
DEF SHAPE_22 Shape {
 appearance USE APP_1
 geometry DEF FACE_22 IndexedFaceSet {
  coord DEF COORD_22 Coordinate { point [
  -0.59055118 0.31889764 0.12598425,-0.58800233 0.33825812 0.12598425,
  -0.58052946 0.35629921 0.12598425,-0.56864185 0.37179145 0.12598425,
  -0.55314961 0.38367907 0.12598425,-0.53510851 0.39115193 0.12598425,
  -0.51574803 0.39370079 0.12598425,-0.59055118 0.31889764 0.14566929,
  -0.51574803 0.39370079 0.14566929,-0.53510851 0.39115193 0.14566929,
  -0.55314961 0.38367907 0.14566929,-0.56864185 0.37179145 0.14566929,
  -0.58052946 0.35629921 0.14566929,-0.58800233 0.33825812 0.14566929] }
 coordIndex [
  9,6,5,-1,9,8,6,-1,10,5,4,-1,10,9,5,-1,11,4,3,-1,11,10,4,-1,12,3,2,-1,12,11,3,-1,
  13,2,1,-1,13,12,2,-1,7,1,0,-1,7,13,1,-1]
  normalPerVertex TRUE
  normal DEF NORM_22 Normal { vector [
  -0.99144486 0.13052619 0,-0.9763442 0.21622209 0,
  -0.88711369 0.46155098 0,-0.73742784 0.67542593 0,
  -0.5374875 0.84327172 0,-0.30091828 0.95364993 0,
  -0.13052619 0.99144486 0,-0.99144486 0.13052619 0,
  -0.13052619 0.99144486 0,-0.21622209 0.9763442 0,
  -0.46155098 0.88711369 0,-0.67542593 0.73742784 0,
  -0.84327172 0.5374875 0,-0.95364993 0.30091828 0] }
}
}
DEF SHAPE_23 Shape {
 appearance USE APP_1
 geometry DEF FACE_23 IndexedFaceSet {
  coord DEF COORD_23 Coordinate { point [
  -0.51181102 0.25984252 0.13385827,-0.51181102 0.25984252 0.14566929,
  -0.50993292 0.27410814 0.14566929,-0.5044266 0.28740157 0.14566929,
  -0.4956673 0.29881691 0.14566929,-0.48425197 0.3075762 0.14566929,
  -0.47095853 0.31308253 0.14566929,-0.45669291 0.31496063 0.14566929,
  -0.45669291 0.31496063 0.13385827,-0.47095853 0.31308253 0.13385827,
  -0.48425197 0.3075762 0.13385827,-0.4956673 0.29881691 0.13385827,
  -0.5044266 0.28740157 0.13385827,-0.50993292 0.27410814 0.13385827] }
 coordIndex [
  13,1,0,-1,13,2,1,-1,12,3,2,-1,12,2,13,-1,11,4,3,-1,11,3,12,-1,10,5,4,-1,10,4,11,-1,
  9,6,5,-1,9,5,10,-1,8,7,6,-1,8,6,9,-1]
  normalPerVertex TRUE
  normal DEF NORM_23 Normal { vector [
  0.99144486 -0.13052619 0,0.99144486 -0.13052619 0,
  0.95364993 -0.30091828 0,0.84327172 -0.5374875 0,
  0.67542593 -0.73742784 0,0.46155098 -0.88711369 0,
  0.21622209 -0.9763442 0,0.13052619 -0.99144486 0,
  0.13052619 -0.99144486 0,0.30091828 -0.95364993 0,
  0.5374875 -0.84327172 0,0.73742784 -0.67542593 0,
  0.88711369 -0.46155098 0,0.9763442 -0.21622209 0] }
}
}
DEF SHAPE_24 Shape {
 appearance USE APP_1
 geometry DEF FACE_24 IndexedFaceSet {
  coord DEF COORD_24 Coordinate { point [
  -0.45669291 -0.31496063 0.13385827,-0.45669291 -0.31496063 0.14566929,
  -0.47095853 -0.31308253 0.14566929,-0.48425197 -0.3075762 0.14566929,
  -0.4956673 -0.29881691 0.14566929,-0.5044266 -0.28740157 0.14566929,
  -0.50993292 -0.27410814 0.14566929,-0.51181102 -0.25984252 0.14566929,
  -0.51181102 -0.25984252 0.13385827,-0.50993292 -0.27410814 0.13385827,
  -0.5044266 -0.28740157 0.13385827,-0.4956673 -0.29881691 0.13385827,
  -0.48425197 -0.3075762 0.13385827,-0.47095853 -0.31308253 0.13385827] }
 coordIndex [
  13,1,0,-1,13,2,1,-1,12,3,2,-1,12,2,13,-1,11,4,3,-1,11,3,12,-1,10,5,4,-1,10,4,11,-1,
  9,6,5,-1,9,5,10,-1,8,7,6,-1,8,6,9,-1]
  normalPerVertex TRUE
  normal DEF NORM_24 Normal { vector [
  0.13052619 0.99144486 0,0.13052619 0.99144486 0,
  0.30091828 0.95364993 0,0.5374875 0.84327172 0,
  0.73742784 0.67542593 0,0.88711369 0.46155098 0,
  0.9763442 0.21622209 0,0.99144486 0.13052619 0,
  0.99144486 0.13052619 0,0.95364993 0.30091828 0,
  0.84327172 0.5374875 0,0.67542593 0.73742784 0,
  0.46155098 0.88711369 0,0.21622209 0.9763442 0] }
}
}
DEF SHAPE_25 Shape {
 appearance USE APP_1
 geometry DEF FACE_25 IndexedFaceSet {
  coord DEF COORD_25 Coordinate { point [
  0.51181102 -0.25984252 0.13385827,0.51181102 -0.25984252 0.14566929,
  0.50993292 -0.27410814 0.14566929,0.5044266 -0.28740157 0.14566929,
  0.4956673 -0.29881691 0.14566929,0.48425197 -0.3075762 0.14566929,
  0.47095853 -0.31308253 0.14566929,0.45669291 -0.31496063 0.14566929,
  0.45669291 -0.31496063 0.13385827,0.47095853 -0.31308253 0.13385827,
  0.48425197 -0.3075762 0.13385827,0.4956673 -0.29881691 0.13385827,
  0.5044266 -0.28740157 0.13385827,0.50993292 -0.27410814 0.13385827] }
 coordIndex [
  13,1,0,-1,13,2,1,-1,12,3,2,-1,12,2,13,-1,11,4,3,-1,11,3,12,-1,10,5,4,-1,10,4,11,-1,
  9,6,5,-1,9,5,10,-1,8,7,6,-1,8,6,9,-1]
  normalPerVertex TRUE
  normal DEF NORM_25 Normal { vector [
  -0.99144486 0.13052619 0,-0.99144486 0.13052619 0,
  -0.95364993 0.30091828 0,-0.84327172 0.5374875 0,
  -0.67542593 0.73742784 0,-0.46155098 0.88711369 0,
  -0.21622209 0.9763442 0,-0.13052619 0.99144486 0,
  -0.13052619 0.99144486 0,-0.30091828 0.95364993 0,
  -0.5374875 0.84327172 0,-0.73742784 0.67542593 0,
  -0.88711369 0.46155098 0,-0.9763442 0.21622209 0] }
}
}
DEF SHAPE_26 Shape {
 appearance USE APP_1
 geometry DEF FACE_26 IndexedFaceSet {
  coord DEF COORD_26 Coordinate { point [
  0.45669291 0.31496063 0.13385827,0.45669291 0.31496063 0.14566929,
  0.47095853 0.31308253 0.14566929,0.48425197 0.3075762 0.14566929,
  0.4956673 0.29881691 0.14566929,0.5044266 0.28740157 0.14566929,
  0.50993292 0.27410814 0.14566929,0.51181102 0.25984252 0.14566929,
  0.51181102 0.25984252 0.13385827,0.50993292 0.27410814 0.13385827,
  0.5044266 0.28740157 0.13385827,0.4956673 0.29881691 0.13385827,
  0.48425197 0.3075762 0.13385827,0.47095853 0.31308253 0.13385827] }
 coordIndex [
  13,1,0,-1,13,2,1,-1,12,3,2,-1,12,2,13,-1,11,4,3,-1,11,3,12,-1,10,5,4,-1,10,4,11,-1,
  9,6,5,-1,9,5,10,-1,8,7,6,-1,8,6,9,-1]
  normalPerVertex TRUE
  normal DEF NORM_26 Normal { vector [
  -0.13052619 -0.99144486 0,-0.13052619 -0.99144486 0,
  -0.30091828 -0.95364993 0,-0.5374875 -0.84327172 0,
  -0.73742784 -0.67542593 0,-0.88711369 -0.46155098 0,
  -0.9763442 -0.21622209 0,-0.99144486 -0.13052619 0,
  -0.99144486 -0.13052619 0,-0.95364993 -0.30091828 0,
  -0.84327172 -0.5374875 0,-0.67542593 -0.73742784 0,
  -0.46155098 -0.88711369 0,-0.21622209 -0.9763442 0] }
}
}
DEF SHAPE_27 Shape {
 appearance USE APP_1
 geometry DEF FACE_27 IndexedFaceSet {
  coord DEF COORD_27 Coordinate { point [
  0.51574803 0.39370079 0.12598425,0.59055118 0.39370079 0.12598425,
  0.53510851 0.39115193 0.12598425,0.55314961 0.38367907 0.12598425,
  0.56864185 0.37179145 0.12598425,0.58052946 0.35629921 0.12598425,
  0.58800233 0.33825812 0.12598425,0.59055118 0.31889764 0.12598425] }
 coordIndex [
  1,3,4,-1,1,4,5,-1,1,5,6,-1,1,0,2,-1,1,2,3,-1,7,1,6,-1]
  normalPerVertex TRUE
  normal DEF NORM_27 Normal { vector [
  0 0 1,0 0 1,
  0 0 1,0 0 1,
  0 0 1,0 0 1,
  0 0 1,0 0 1] }
}
}
DEF SHAPE_28 Shape {
 appearance USE APP_1
 geometry DEF FACE_28 IndexedFaceSet {
  coord DEF COORD_28 Coordinate { point [
  0.59055118 -0.31889764 0.12598425,0.59055118 -0.39370079 0.12598425,
  0.58800233 -0.33825812 0.12598425,0.58052946 -0.35629921 0.12598425,
  0.56864185 -0.37179145 0.12598425,0.55314961 -0.38367907 0.12598425,
  0.53510851 -0.39115193 0.12598425,0.51574803 -0.39370079 0.12598425] }
 coordIndex [
  1,4,5,-1,1,5,6,-1,1,6,7,-1,3,4,1,-1,2,3,1,-1,1,0,2,-1]
  normalPerVertex TRUE
  normal DEF NORM_28 Normal { vector [
  0 0 1,0 0 1,
  0 0 1,0 0 1,
  0 0 1,0 0 1,
  0 0 1,0 0 1] }
}
}
DEF SHAPE_29 Shape {
 appearance USE APP_1
 geometry DEF FACE_29 IndexedFaceSet {
  coord DEF COORD_29 Coordinate { point [
  -0.51574803 -0.39370079 0.12598425,-0.59055118 -0.39370079 0.12598425,
  -0.53510851 -0.39115193 0.12598425,-0.55314961 -0.38367907 0.12598425,
  -0.56864185 -0.37179145 0.12598425,-0.58052946 -0.35629921 0.12598425,
  -0.58800233 -0.33825812 0.12598425,-0.59055118 -0.31889764 0.12598425] }
 coordIndex [
  5,1,4,-1,3,4,1,-1,6,1,5,-1,2,3,1,-1,0,2,1,-1,7,1,6,-1]
  normalPerVertex TRUE
  normal DEF NORM_29 Normal { vector [
  0 0 1,0 0 1,
  0 0 1,0 0 1,
  0 0 1,0 0 1,
  0 0 1,0 0 1] }
}
}
DEF SHAPE_30 Shape {
 appearance USE APP_1
 geometry DEF FACE_30 IndexedFaceSet {
  coord DEF COORD_30 Coordinate { point [
  -0.50142824 -0.32480315 0.015748031,-0.50142824 -0.32480315 0,
  0.50142824 -0.32480315 0.015748031,0.50142824 -0.32480315 0] }
 coordIndex [
  2,0,1,-1,2,1,3,-1]
  normalPerVertex TRUE
  normal DEF NORM_30 Normal { vector [
  0 -1 0,0 -1 0,
  0 -1 0,0 -1 0] }
}
}
DEF SHAPE_31 Shape {
 appearance USE APP_1
 geometry DEF FACE_31 IndexedFaceSet {
  coord DEF COORD_31 Coordinate { point [
  -0.50142824 0.32480315 0.015748031,-0.50142824 0.32480315 0,
  -0.50142824 -0.32480315 0.015748031,-0.50142824 -0.32480315 0] }
 coordIndex [
  1,2,0,-1,1,3,2,-1]
  normalPerVertex TRUE
  normal DEF NORM_31 Normal { vector [
  -1 0 0,-1 0 0,
  -1 0 0,-1 0 0] }
}
}
DEF SHAPE_32 Shape {
 appearance USE APP_1
 geometry DEF FACE_32 IndexedFaceSet {
  coord DEF COORD_32 Coordinate { point [
  0.50142824 0.32480315 0.015748031,0.50142824 0.32480315 0,
  -0.50142824 0.32480315 0.015748031,-0.50142824 0.32480315 0] }
 coordIndex [
  1,2,0,-1,1,3,2,-1]
  normalPerVertex TRUE
  normal DEF NORM_32 Normal { vector [
  0 1 0,0 1 0,
  0 1 0,0 1 0] }
}
}
DEF SHAPE_33 Shape {
 appearance USE APP_1
 geometry DEF FACE_33 IndexedFaceSet {
  coord DEF COORD_33 Coordinate { point [
  0.50142824 -0.32480315 0.015748031,0.50142824 -0.32480315 0,
  0.50142824 0.32480315 0.015748031,0.50142824 0.32480315 0] }
 coordIndex [
  2,0,1,-1,2,1,3,-1]
  normalPerVertex TRUE
  normal DEF NORM_33 Normal { vector [
  1 0 0,1 0 0,
  1 0 0,1 0 0] }
}
}
DEF SHAPE_34 Shape {
 appearance USE APP_1
 geometry DEF FACE_34 IndexedFaceSet {
  coord DEF COORD_34 Coordinate { point [
  0.50142824 0.32480315 0,-0.50142824 0.32480315 0,
  -0.50142824 -0.32480315 0,0.50142824 -0.32480315 0] }
 coordIndex [
  0,2,1,-1,0,3,2,-1]
  normalPerVertex TRUE
  normal DEF NORM_34 Normal { vector [
  0 0 -1,0 0 -1,
  0 0 -1,0 0 -1] }
}
}
DEF SHAPE_35 Shape {
 appearance USE APP_1
 geometry DEF FACE_35 IndexedFaceSet {
  coord DEF COORD_35 Coordinate { point [
  0.68897638 -0.25590551 0.015748031,0.68897638 -0.14173228 0.015748031,
  0.68897638 -0.14173228 0.031496063,0.68897638 -0.25590551 0.031496063] }
 coordIndex [
  2,0,1,-1,2,3,0,-1]
  normalPerVertex TRUE
  normal DEF NORM_35 Normal { vector [
  1 0 0,1 0 0,
  1 0 0,1 0 0] }
}
}
DEF SHAPE_36 Shape {
 appearance USE APP_1
 geometry DEF FACE_36 IndexedFaceSet {
  coord DEF COORD_36 Coordinate { point [
  -0.68897638 0.25590551 0.015748031,-0.68897638 0.14173228 0.015748031,
  -0.68897638 0.14173228 0.031496063,-0.68897638 0.25590551 0.031496063] }
 coordIndex [
  2,0,1,-1,2,3,0,-1]
  normalPerVertex TRUE
  normal DEF NORM_36 Normal { vector [
  -1 0 0,-1 0 0,
  -1 0 0,-1 0 0] }
}
}
DEF SHAPE_37 Shape {
 appearance USE APP_1
 geometry DEF FACE_37 IndexedFaceSet {
  coord DEF COORD_37 Coordinate { point [
  -0.68897638 0.14173228 0.031496063,-0.68897638 0.25590551 0.031496063,
  -0.68750072 0.13052358 0.031496063,-0.68317433 0.12007874 0.031496063,
  -0.67629203 0.11110955 0.031496063,-0.66732283 0.10422725 0.031496063,
  -0.65687799 0.09990085 0.031496063,-0.64566929 0.098425197 0.031496063,
  -0.64047897 0.095834673 0.031496063,-0.6360765 0.092057315 0.031496063,
  -0.63272736 0.087320916 0.031496063,-0.63063352 0.081911104 0.031496063,
  -0.62992126 0.076154117 0.031496063,-0.62992126 -0.076154117 0.031496063,
  -0.63063352 -0.081911104 0.031496063,-0.63272736 -0.087320916 0.031496063,
  -0.6360765 -0.092057315 0.031496063,-0.64047897 -0.095834673 0.031496063,
  -0.64566929 -0.098425197 0.031496063,-0.65687799 -0.09990085 0.031496063,
  -0.66732283 -0.10422725 0.031496063,-0.67629203 -0.11110955 0.031496063,
  -0.68317433 -0.12007874 0.031496063,-0.68750072 -0.13052358 0.031496063,
  -0.68897638 -0.14173228 0.031496063,-0.68897638 -0.25590551 0.031496063,
  -0.59055118 -0.25590551 0.031496063,-0.59055118 0.25590551 0.031496063] }
 coordIndex [
  24,25,26,-1,18,19,20,-1,18,20,21,-1,18,21,22,-1,18,22,23,-1,18,23,24,-1,18,24,26,-1,17,18,26,-1,
  16,17,26,-1,15,16,26,-1,14,15,26,-1,13,14,26,-1,7,0,2,-1,7,2,3,-1,7,3,4,-1,7,4,5,-1,
  7,5,6,-1,27,1,0,-1,27,7,8,-1,27,8,9,-1,27,9,10,-1,27,10,11,-1,27,11,12,-1,27,0,7,-1,
  26,27,13,-1,13,27,12,-1]
  normalPerVertex TRUE
  normal DEF NORM_37 Normal { vector [
  0 0 1,0 0 1,
  0 0 1,0 0 1,
  0 0 1,0 0 1,
  0 0 1,0 0 1,
  0 0 1,0 0 1,
  0 0 1,0 0 1,
  0 0 1,0 0 1,
  0 0 1,0 0 1,
  0 0 1,0 0 1,
  0 0 1,0 0 1,
  0 0 1,0 0 1,
  0 0 1,0 0 1,
  0 0 1,0 0 1,
  0 0 1,0 0 1] }
}
}
DEF SHAPE_38 Shape {
 appearance USE APP_1
 geometry DEF FACE_38 IndexedFaceSet {
  coord DEF COORD_38 Coordinate { point [
  -0.62992126 -0.076154117 0.015748031,-0.62992126 0.076154117 0.015748031,
  -0.63063352 0.081911104 0.015748031,-0.63272736 0.087320916 0.015748031,
  -0.6360765 0.092057315 0.015748031,-0.64047897 0.095834673 0.015748031,
  -0.64566929 0.098425197 0.015748031,-0.65687799 0.09990085 0.015748031,
  -0.66732283 0.10422725 0.015748031,-0.67629203 0.11110955 0.015748031,
  -0.68317433 0.12007874 0.015748031,-0.68750072 0.13052358 0.015748031,
  -0.68897638 0.14173228 0.015748031,-0.68897638 0.25590551 0.015748031,
  -0.59055118 0.25590551 0.015748031,-0.59055118 0.39370079 0.015748031,
  0.59055118 0.39370079 0.015748031,0.59055118 0.25590551 0.015748031,
  0.68897638 0.25590551 0.015748031,0.68897638 0.14173228 0.015748031,
  0.68750072 0.13052358 0.015748031,0.68317433 0.12007874 0.015748031,
  0.67629203 0.11110955 0.015748031,0.66732283 0.10422725 0.015748031,
  0.65687799 0.09990085 0.015748031,0.64566929 0.098425197 0.015748031,
  0.64047897 0.095834673 0.015748031,0.6360765 0.092057315 0.015748031,
  0.63272736 0.087320916 0.015748031,0.63063352 0.081911104 0.015748031,
  0.62992126 0.076154117 0.015748031,0.62992126 -0.076154117 0.015748031,
  0.63063352 -0.081911104 0.015748031,0.63272736 -0.087320916 0.015748031,
  0.6360765 -0.092057315 0.015748031,0.64047897 -0.095834673 0.015748031,
  0.64566929 -0.098425197 0.015748031,0.65687799 -0.09990085 0.015748031,
  0.66732283 -0.10422725 0.015748031,0.67629203 -0.11110955 0.015748031,
  0.68317433 -0.12007874 0.015748031,0.68750072 -0.13052358 0.015748031,
  0.68897638 -0.14173228 0.015748031,0.68897638 -0.25590551 0.015748031,
  0.59055118 -0.25590551 0.015748031,0.59055118 -0.39370079 0.015748031,
  -0.59055118 -0.39370079 0.015748031,-0.59055118 -0.25590551 0.015748031,
  -0.68897638 -0.25590551 0.015748031,-0.68897638 -0.14173228 0.015748031,
  -0.68750072 -0.13052358 0.015748031,-0.68317433 -0.12007874 0.015748031,
  -0.67629203 -0.11110955 0.015748031,-0.66732283 -0.10422725 0.015748031,
  -0.65687799 -0.09990085 0.015748031,-0.64566929 -0.098425197 0.015748031,
  -0.64047897 -0.095834673 0.015748031,-0.6360765 -0.092057315 0.015748031,
  -0.63272736 -0.087320916 0.015748031,-0.63063352 -0.081911104 0.015748031,
  0.50142824 0.32480315 0.015748031,-0.50142824 0.32480315 0.015748031,
  -0.50142824 -0.32480315 0.015748031,0.50142824 -0.32480315 0.015748031] }
 coordIndex [
  42,43,44,-1,63,44,45,-1,39,40,41,-1,37,38,39,-1,36,41,42,-1,36,42,44,-1,36,39,41,-1,36,37,39,-1,
  35,36,44,-1,34,35,44,-1,33,34,44,-1,32,44,63,-1,32,33,44,-1,31,32,63,-1,25,19,20,-1,25,20,21,-1,
  25,21,22,-1,25,22,23,-1,25,23,24,-1,17,19,25,-1,17,18,19,-1,17,25,26,-1,17,26,27,-1,17,27,28,-1,
  17,28,29,-1,60,16,17,-1,60,17,29,-1,60,29,30,-1,60,30,31,-1,60,31,63,-1,46,62,63,-1,46,63,45,-1,
  47,62,46,-1,56,57,47,-1,58,47,57,-1,55,56,47,-1,49,47,48,-1,49,55,47,-1,59,62,47,-1,59,47,58,-1,
  0,62,59,-1,50,55,49,-1,51,55,50,-1,53,54,55,-1,52,55,51,-1,52,53,55,-1,8,6,7,-1,9,6,8,-1,
  11,9,10,-1,61,0,1,-1,61,1,2,-1,61,62,0,-1,12,9,11,-1,12,6,9,-1,14,2,3,-1,14,3,4,-1,
  14,4,5,-1,14,5,6,-1,14,61,2,-1,14,6,12,-1,13,14,12,-1,15,61,14,-1,15,16,60,-1,15,60,61,-1]
  normalPerVertex TRUE
  normal DEF NORM_38 Normal { vector [
  0 0 -1,0 0 -1,
  0 0 -1,0 0 -1,
  0 0 -1,0 0 -1,
  0 0 -1,0 0 -1,
  0 0 -1,0 0 -1,
  0 0 -1,0 0 -1,
  0 0 -1,0 0 -1,
  0 0 -1,0 0 -1,
  0 0 -1,0 0 -1,
  0 0 -1,0 0 -1,
  0 0 -1,0 0 -1,
  0 0 -1,0 0 -1,
  0 0 -1,0 0 -1,
  0 0 -1,0 0 -1,
  0 0 -1,0 0 -1,
  0 0 -1,0 0 -1,
  0 0 -1,0 0 -1,
  0 0 -1,0 0 -1,
  0 0 -1,0 0 -1,
  0 0 -1,0 0 -1,
  0 0 -1,0 0 -1,
  0 0 -1,0 0 -1,
  0 0 -1,0 0 -1,
  0 0 -1,0 0 -1,
  0 0 -1,0 0 -1,
  0 0 -1,0 0 -1,
  0 0 -1,0 0 -1,
  0 0 -1,0 0 -1,
  0 0 -1,0 0 -1,
  0 0 -1,0 0 -1,
  0 0 -1,0 0 -1,
  0 0 -1,0 0 -1] }
}
}
DEF SHAPE_39 Shape {
 appearance USE APP_1
 geometry DEF FACE_39 IndexedFaceSet {
  coord DEF COORD_39 Coordinate { point [
  -0.59055118 0.31889764 0.12598425,-0.59055118 0.39370079 0.12598425,
  -0.58800233 0.33825812 0.12598425,-0.58052946 0.35629921 0.12598425,
  -0.56864185 0.37179145 0.12598425,-0.55314961 0.38367907 0.12598425,
  -0.53510851 0.39115193 0.12598425,-0.51574803 0.39370079 0.12598425] }
 coordIndex [
  1,2,3,-1,4,1,3,-1,5,1,4,-1,1,0,2,-1,7,1,6,-1,6,1,5,-1]
  normalPerVertex TRUE
  normal DEF NORM_39 Normal { vector [
  0 0 1,0 0 1,
  0 0 1,0 0 1,
  0 0 1,0 0 1,
  0 0 1,0 0 1] }
}
}
DEF SHAPE_40 Shape {
 appearance USE APP_1
 geometry DEF FACE_40 IndexedFaceSet {
  coord DEF COORD_40 Coordinate { point [
  0.68897638 0.25590551 0.031496063,0.68897638 0.14173228 0.031496063,
  0.68897638 0.14173228 0.015748031,0.68897638 0.25590551 0.015748031] }
 coordIndex [
  0,1,2,-1,0,2,3,-1]
  normalPerVertex TRUE
  normal DEF NORM_40 Normal { vector [
  1 0 0,1 0 0,
  1 0 0,1 0 0] }
}
}
DEF SHAPE_41 Shape {
 appearance USE APP_1
 geometry DEF FACE_41 IndexedFaceSet {
  coord DEF COORD_41 Coordinate { point [
  -0.68897638 -0.25590551 0.031496063,-0.68897638 -0.14173228 0.031496063,
  -0.68897638 -0.14173228 0.015748031,-0.68897638 -0.25590551 0.015748031] }
 coordIndex [
  0,1,2,-1,0,2,3,-1]
  normalPerVertex TRUE
  normal DEF NORM_41 Normal { vector [
  -1 0 0,-1 0 0,
  -1 0 0,-1 0 0] }
}
}
DEF SHAPE_42 Shape {
 appearance USE APP_1
 geometry DEF FACE_42 IndexedFaceSet {
  coord DEF COORD_42 Coordinate { point [
  0.68897638 0.25590551 0.031496063,0.59055118 0.25590551 0.031496063,
  0.68897638 0.25590551 0.015748031,0.59055118 0.25590551 0.015748031] }
 coordIndex [
  1,0,2,-1,1,2,3,-1]
  normalPerVertex TRUE
  normal DEF NORM_42 Normal { vector [
  0 1 0,0 1 0,
  0 1 0,0 1 0] }
}
}
DEF SHAPE_43 Shape {
 appearance USE APP_1
 geometry DEF FACE_43 IndexedFaceSet {
  coord DEF COORD_43 Coordinate { point [
  0.62992126 0.076154117 0.031496063,0.62992126 -0.076154117 0.031496063,
  0.63063352 0.081911104 0.031496063,0.63272736 0.087320916 0.031496063,
  0.6360765 0.092057315 0.031496063,0.64047897 0.095834673 0.031496063,
  0.64566929 0.098425197 0.031496063,0.65687799 0.09990085 0.031496063,
  0.66732283 0.10422725 0.031496063,0.67629203 0.11110955 0.031496063,
  0.68317433 0.12007874 0.031496063,0.68750072 0.13052358 0.031496063,
  0.68897638 0.14173228 0.031496063,0.68897638 0.25590551 0.031496063,
  0.59055118 0.25590551 0.031496063,0.59055118 -0.25590551 0.031496063,
  0.68897638 -0.25590551 0.031496063,0.68897638 -0.14173228 0.031496063,
  0.68750072 -0.13052358 0.031496063,0.68317433 -0.12007874 0.031496063,
  0.67629203 -0.11110955 0.031496063,0.66732283 -0.10422725 0.031496063,
  0.65687799 -0.09990085 0.031496063,0.64566929 -0.098425197 0.031496063,
  0.64047897 -0.095834673 0.031496063,0.6360765 -0.092057315 0.031496063,
  0.63272736 -0.087320916 0.031496063,0.63063352 -0.081911104 0.031496063] }
 coordIndex [
  24,25,15,-1,26,15,25,-1,23,24,15,-1,17,15,16,-1,17,23,15,-1,27,15,26,-1,1,15,27,-1,18,23,17,-1,
  19,23,18,-1,21,22,23,-1,20,23,19,-1,20,21,23,-1,9,6,7,-1,9,7,8,-1,12,9,10,-1,12,10,11,-1,
  12,6,9,-1,14,0,2,-1,14,2,3,-1,14,3,4,-1,14,4,5,-1,14,5,6,-1,14,6,12,-1,13,14,12,-1,
  14,15,1,-1,14,1,0,-1]
  normalPerVertex TRUE
  normal DEF NORM_43 Normal { vector [
  0 0 1,0 0 1,
  0 0 1,0 0 1,
  0 0 1,0 0 1,
  0 0 1,0 0 1,
  0 0 1,0 0 1,
  0 0 1,0 0 1,
  0 0 1,0 0 1,
  0 0 1,0 0 1,
  0 0 1,0 0 1,
  0 0 1,0 0 1,
  0 0 1,0 0 1,
  0 0 1,0 0 1,
  0 0 1,0 0 1,
  0 0 1,0 0 1] }
}
}
DEF SHAPE_44 Shape {
 appearance USE APP_1
 geometry DEF FACE_44 IndexedFaceSet {
  coord DEF COORD_44 Coordinate { point [
  0.59055118 -0.25590551 0.031496063,0.68897638 -0.25590551 0.031496063,
  0.59055118 -0.25590551 0.015748031,0.68897638 -0.25590551 0.015748031] }
 coordIndex [
  3,1,0,-1,3,0,2,-1]
  normalPerVertex TRUE
  normal DEF NORM_44 Normal { vector [
  0 -1 0,0 -1 0,
  0 -1 0,0 -1 0] }
}
}
DEF SHAPE_45 Shape {
 appearance USE APP_1
 geometry DEF FACE_45 IndexedFaceSet {
  coord DEF COORD_45 Coordinate { point [
  -0.68897638 -0.25590551 0.031496063,-0.59055118 -0.25590551 0.031496063,
  -0.68897638 -0.25590551 0.015748031,-0.59055118 -0.25590551 0.015748031] }
 coordIndex [
  3,1,0,-1,3,0,2,-1]
  normalPerVertex TRUE
  normal DEF NORM_45 Normal { vector [
  0 -1 0,0 -1 0,
  0 -1 0,0 -1 0] }
}
}
DEF SHAPE_46 Shape {
 appearance USE APP_1
 geometry DEF FACE_46 IndexedFaceSet {
  coord DEF COORD_46 Coordinate { point [
  -0.59055118 0.25590551 0.031496063,-0.68897638 0.25590551 0.031496063,
  -0.59055118 0.25590551 0.015748031,-0.68897638 0.25590551 0.015748031] }
 coordIndex [
  1,0,2,-1,1,2,3,-1]
  normalPerVertex TRUE
  normal DEF NORM_46 Normal { vector [
  0 1 0,0 1 0,
  0 1 0,0 1 0] }
}
}
DEF SHAPE_47 Shape {
 appearance USE APP_1
 geometry DEF FACE_47 IndexedFaceSet {
  coord DEF COORD_47 Coordinate { point [
  -0.62992126 0.076154117 0.031496063,-0.62992126 -0.076154117 0.031496063,
  -0.62992126 0.076154117 0.015748031,-0.62992126 -0.076154117 0.015748031] }
 coordIndex [
  0,2,3,-1,0,3,1,-1]
  normalPerVertex TRUE
  normal DEF NORM_47 Normal { vector [
  -1 0 0,-1 0 0,
  -1 0 0,-1 0 0] }
}
}
DEF SHAPE_48 Shape {
 appearance USE APP_1
 geometry DEF FACE_48 IndexedFaceSet {
  coord DEF COORD_48 Coordinate { point [
  0.62992126 -0.076154117 0.031496063,0.62992126 -0.076154117 0.015748031,
  0.62992126 0.076154117 0.031496063,0.62992126 0.076154117 0.015748031] }
 coordIndex [
  2,0,1,-1,2,1,3,-1]
  normalPerVertex TRUE
  normal DEF NORM_48 Normal { vector [
  1 0 0,1 0 0,
  1 0 0,1 0 0] }
}
}
DEF SHAPE_49 Shape {
 appearance USE APP_1
 geometry DEF FACE_49 IndexedFaceSet {
  coord DEF COORD_49 Coordinate { point [
  -0.64566929 0.098425197 0.015748031,-0.65687799 0.09990085 0.015748031,
  -0.66732283 0.10422725 0.015748031,-0.67629203 0.11110955 0.015748031,
  -0.68317433 0.12007874 0.015748031,-0.68750072 0.13052358 0.015748031,
  -0.68897638 0.14173228 0.015748031,-0.64566929 0.098425197 0.031496063,
  -0.68897638 0.14173228 0.031496063,-0.68750072 0.13052358 0.031496063,
  -0.68317433 0.12007874 0.031496063,-0.67629203 0.11110955 0.031496063,
  -0.66732283 0.10422725 0.031496063,-0.65687799 0.09990085 0.031496063] }
 coordIndex [
  9,6,5,-1,9,8,6,-1,10,5,4,-1,10,9,5,-1,11,4,3,-1,11,10,4,-1,12,3,2,-1,12,11,3,-1,
  13,2,1,-1,13,12,2,-1,7,1,0,-1,7,13,1,-1]
  normalPerVertex TRUE
  normal DEF NORM_49 Normal { vector [
  -0.13052619 -0.99144486 0,-0.21622209 -0.9763442 0,
  -0.46155098 -0.88711369 0,-0.67542593 -0.73742784 0,
  -0.84327172 -0.5374875 0,-0.95364993 -0.30091828 0,
  -0.99144486 -0.13052619 0,-0.13052619 -0.99144486 0,
  -0.99144486 -0.13052619 0,-0.9763442 -0.21622209 0,
  -0.88711369 -0.46155098 0,-0.73742784 -0.67542593 0,
  -0.5374875 -0.84327172 0,-0.30091828 -0.95364993 0] }
}
}
DEF SHAPE_50 Shape {
 appearance USE APP_1
 geometry DEF FACE_50 IndexedFaceSet {
  coord DEF COORD_50 Coordinate { point [
  -0.68897638 -0.14173228 0.015748031,-0.68750072 -0.13052358 0.015748031,
  -0.68317433 -0.12007874 0.015748031,-0.67629203 -0.11110955 0.015748031,
  -0.66732283 -0.10422725 0.015748031,-0.65687799 -0.09990085 0.015748031,
  -0.64566929 -0.098425197 0.015748031,-0.68897638 -0.14173228 0.031496063,
  -0.64566929 -0.098425197 0.031496063,-0.65687799 -0.09990085 0.031496063,
  -0.66732283 -0.10422725 0.031496063,-0.67629203 -0.11110955 0.031496063,
  -0.68317433 -0.12007874 0.031496063,-0.68750072 -0.13052358 0.031496063] }
 coordIndex [
  9,6,5,-1,9,8,6,-1,10,5,4,-1,10,9,5,-1,11,4,3,-1,11,10,4,-1,12,3,2,-1,12,11,3,-1,
  13,2,1,-1,13,12,2,-1,7,1,0,-1,7,13,1,-1]
  normalPerVertex TRUE
  normal DEF NORM_50 Normal { vector [
  -0.99144486 0.13052619 0,-0.9763442 0.21622209 0,
  -0.88711369 0.46155098 0,-0.73742784 0.67542593 0,
  -0.5374875 0.84327172 0,-0.30091828 0.95364993 0,
  -0.13052619 0.99144486 0,-0.99144486 0.13052619 0,
  -0.13052619 0.99144486 0,-0.21622209 0.9763442 0,
  -0.46155098 0.88711369 0,-0.67542593 0.73742784 0,
  -0.84327172 0.5374875 0,-0.95364993 0.30091828 0] }
}
}
DEF SHAPE_51 Shape {
 appearance USE APP_1
 geometry DEF FACE_51 IndexedFaceSet {
  coord DEF COORD_51 Coordinate { point [
  0.68897638 0.14173228 0.015748031,0.68750072 0.13052358 0.015748031,
  0.68317433 0.12007874 0.015748031,0.67629203 0.11110955 0.015748031,
  0.66732283 0.10422725 0.015748031,0.65687799 0.09990085 0.015748031,
  0.64566929 0.098425197 0.015748031,0.68897638 0.14173228 0.031496063,
  0.64566929 0.098425197 0.031496063,0.65687799 0.09990085 0.031496063,
  0.66732283 0.10422725 0.031496063,0.67629203 0.11110955 0.031496063,
  0.68317433 0.12007874 0.031496063,0.68750072 0.13052358 0.031496063] }
 coordIndex [
  1,0,7,-1,1,7,13,-1,2,13,12,-1,2,1,13,-1,3,12,11,-1,3,2,12,-1,4,11,10,-1,4,3,11,-1,
  5,10,9,-1,5,4,10,-1,6,9,8,-1,6,5,9,-1]
  normalPerVertex TRUE
  normal DEF NORM_51 Normal { vector [
  0.99144486 -0.13052619 0,0.9763442 -0.21622209 0,
  0.88711369 -0.46155098 0,0.73742784 -0.67542593 0,
  0.5374875 -0.84327172 0,0.30091828 -0.95364993 0,
  0.13052619 -0.99144486 0,0.99144486 -0.13052619 0,
  0.13052619 -0.99144486 0,0.21622209 -0.9763442 0,
  0.46155098 -0.88711369 0,0.67542593 -0.73742784 0,
  0.84327172 -0.5374875 0,0.95364993 -0.30091828 0] }
}
}
DEF SHAPE_52 Shape {
 appearance USE APP_1
 geometry DEF FACE_52 IndexedFaceSet {
  coord DEF COORD_52 Coordinate { point [
  0.64566929 -0.098425197 0.015748031,0.65687799 -0.09990085 0.015748031,
  0.66732283 -0.10422725 0.015748031,0.67629203 -0.11110955 0.015748031,
  0.68317433 -0.12007874 0.015748031,0.68750072 -0.13052358 0.015748031,
  0.68897638 -0.14173228 0.015748031,0.64566929 -0.098425197 0.031496063,
  0.68897638 -0.14173228 0.031496063,0.68750072 -0.13052358 0.031496063,
  0.68317433 -0.12007874 0.031496063,0.67629203 -0.11110955 0.031496063,
  0.66732283 -0.10422725 0.031496063,0.65687799 -0.09990085 0.031496063] }
 coordIndex [
  1,0,7,-1,1,7,13,-1,2,13,12,-1,2,1,13,-1,3,12,11,-1,3,2,12,-1,4,11,10,-1,4,3,11,-1,
  5,10,9,-1,5,4,10,-1,6,9,8,-1,6,5,9,-1]
  normalPerVertex TRUE
  normal DEF NORM_52 Normal { vector [
  0.13052619 0.99144486 0,0.21622209 0.9763442 0,
  0.46155098 0.88711369 0,0.67542593 0.73742784 0,
  0.84327172 0.5374875 0,0.95364993 0.30091828 0,
  0.99144486 0.13052619 0,0.13052619 0.99144486 0,
  0.99144486 0.13052619 0,0.9763442 0.21622209 0,
  0.88711369 0.46155098 0,0.73742784 0.67542593 0,
  0.5374875 0.84327172 0,0.30091828 0.95364993 0] }
}
}
DEF SHAPE_53 Shape {
 appearance USE APP_1
 geometry DEF FACE_53 IndexedFaceSet {
  coord DEF COORD_53 Coordinate { point [
  -0.64566929 0.098425197 0.031496063,-0.64566929 0.098425197 0.015748031,
  -0.64047897 0.095834673 0.031496063,-0.6360765 0.092057315 0.031496063,
  -0.63272736 0.087320916 0.031496063,-0.63063352 0.081911104 0.031496063,
  -0.62992126 0.076154117 0.031496063,-0.62992126 0.076154117 0.015748031,
  -0.63063352 0.081911104 0.015748031,-0.63272736 0.087320916 0.015748031,
  -0.6360765 0.092057315 0.015748031,-0.64047897 0.095834673 0.015748031] }
 coordIndex [
  5,7,6,-1,5,8,7,-1,4,9,8,-1,4,8,5,-1,3,10,9,-1,3,9,4,-1,2,11,10,-1,2,10,3,-1,
  0,1,11,-1,0,11,2,-1]
  normalPerVertex TRUE
  normal DEF NORM_53 Normal { vector [
  -0.44657416 -0.89474662 0,-0.44657416 -0.89474662 0,
  -0.58691715 -0.80964699 0,-0.76654121 -0.64219512 0,
  -0.89993905 -0.43601573 0,-0.97906612 -0.20354244 0,
  -0.99243326 -0.12278531 0,-0.99243326 -0.12278531 0,
  -0.95898156 -0.28346848 0,-0.86098111 -0.50863694 0,
  -0.71105925 -0.70313209 0,-0.51825701 -0.85522493 0] }
}
}
DEF SHAPE_54 Shape {
 appearance USE APP_1
 geometry DEF FACE_54 IndexedFaceSet {
  coord DEF COORD_54 Coordinate { point [
  -0.62992126 -0.076154117 0.015748031,-0.62992126 -0.076154117 0.031496063,
  -0.63063352 -0.081911104 0.031496063,-0.63272736 -0.087320916 0.031496063,
  -0.6360765 -0.092057315 0.031496063,-0.64047897 -0.095834673 0.031496063,
  -0.64566929 -0.098425197 0.031496063,-0.64566929 -0.098425197 0.015748031,
  -0.64047897 -0.095834673 0.015748031,-0.6360765 -0.092057315 0.015748031,
  -0.63272736 -0.087320916 0.015748031,-0.63063352 -0.081911104 0.015748031] }
 coordIndex [
  5,7,6,-1,5,8,7,-1,4,9,8,-1,4,8,5,-1,3,10,9,-1,3,9,4,-1,2,11,10,-1,2,10,3,-1,
  1,0,11,-1,1,11,2,-1]
  normalPerVertex TRUE
  normal DEF NORM_54 Normal { vector [
  -0.99243326 0.12278531 0,-0.99243326 0.12278531 0,
  -0.95898156 0.28346848 0,-0.86098111 0.50863694 0,
  -0.71105925 0.70313209 0,-0.51825701 0.85522493 0,
  -0.44657416 0.89474662 0,-0.44657416 0.89474662 0,
  -0.58691715 0.80964699 0,-0.76654121 0.64219512 0,
  -0.89993905 0.43601573 0,-0.97906612 0.20354244 0] }
}
}
DEF SHAPE_55 Shape {
 appearance USE APP_1
 geometry DEF FACE_55 IndexedFaceSet {
  coord DEF COORD_55 Coordinate { point [
  0.62992126 0.076154117 0.015748031,0.62992126 0.076154117 0.031496063,
  0.63063352 0.081911104 0.031496063,0.63272736 0.087320916 0.031496063,
  0.6360765 0.092057315 0.031496063,0.64047897 0.095834673 0.031496063,
  0.64566929 0.098425197 0.031496063,0.64566929 0.098425197 0.015748031,
  0.64047897 0.095834673 0.015748031,0.6360765 0.092057315 0.015748031,
  0.63272736 0.087320916 0.015748031,0.63063352 0.081911104 0.015748031] }
 coordIndex [
  5,7,6,-1,5,8,7,-1,4,9,8,-1,4,8,5,-1,3,10,9,-1,3,9,4,-1,2,11,10,-1,2,10,3,-1,
  1,0,11,-1,1,11,2,-1]
  normalPerVertex TRUE
  normal DEF NORM_55 Normal { vector [
  0.99243326 -0.12278531 0,0.99243326 -0.12278531 0,
  0.95898156 -0.28346848 0,0.86098111 -0.50863694 0,
  0.71105925 -0.70313209 0,0.51825701 -0.85522493 0,
  0.44657416 -0.89474662 0,0.44657416 -0.89474662 0,
  0.58691715 -0.80964699 0,0.76654121 -0.64219512 0,
  0.89993905 -0.43601573 0,0.97906612 -0.20354244 0] }
}
}
DEF SHAPE_56 Shape {
 appearance USE APP_1
 geometry DEF FACE_56 IndexedFaceSet {
  coord DEF COORD_56 Coordinate { point [
  0.64566929 -0.098425197 0.031496063,0.64566929 -0.098425197 0.015748031,
  0.64047897 -0.095834673 0.031496063,0.6360765 -0.092057315 0.031496063,
  0.63272736 -0.087320916 0.031496063,0.63063352 -0.081911104 0.031496063,
  0.62992126 -0.076154117 0.031496063,0.62992126 -0.076154117 0.015748031,
  0.63063352 -0.081911104 0.015748031,0.63272736 -0.087320916 0.015748031,
  0.6360765 -0.092057315 0.015748031,0.64047897 -0.095834673 0.015748031] }
 coordIndex [
  5,7,6,-1,5,8,7,-1,4,9,8,-1,4,8,5,-1,3,10,9,-1,3,9,4,-1,2,11,10,-1,2,10,3,-1,
  0,1,11,-1,0,11,2,-1]
  normalPerVertex TRUE
  normal DEF NORM_56 Normal { vector [
  0.44657416 0.89474662 0,0.44657416 0.89474662 0,
  0.58691715 0.80964699 0,0.76654121 0.64219512 0,
  0.89993905 0.43601573 0,0.97906612 0.20354244 0,
  0.99243326 0.12278531 0,0.99243326 0.12278531 0,
  0.95898156 0.28346848 0,0.86098111 0.50863694 0,
  0.71105925 0.70313209 0,0.51825701 0.85522493 0] }
}
}
DEF SHAPE_57 Shape {
 appearance USE APP_1
 geometry DEF FACE_57 IndexedFaceSet {
  coord DEF COORD_57 Coordinate { point [
  -0.41338583 0 0.13385827,-0.41338583 0 0.14173228,
  -0.40372992 -0.088825629 0.13385827,-0.37521329 -0.17350166 0.13385827,
  -0.32916813 -0.25007236 0.13385827,-0.26774548 -0.31496063 0.13385827,
  -0.26774548 -0.31496063 0.14173228,-0.40372992 -0.088825629 0.14173228,
  -0.37521329 -0.17350166 0.14173228,-0.32916813 -0.25007236 0.14173228] }
 coordIndex [
  4,5,6,-1,4,6,9,-1,3,9,8,-1,3,4,9,-1,2,8,7,-1,2,3,8,-1,0,7,1,-1,0,2,7,-1]
  normalPerVertex TRUE
  normal DEF NORM_57 Normal { vector [
  -0.99414333 -0.10806964 0,-0.99414333 -0.10806964 0,
  -0.96822044 -0.25009833 0,-0.89186517 -0.45230136 0,
  -0.77384536 -0.63337458 0,-0.72623454 -0.68744701 0,
  -0.72623454 -0.68744701 0,-0.98378229 -0.17936667 0,
  -0.92226188 -0.38656568 0,-0.81765691 -0.57570581 0] }
}
}
] }
] }
] }
