#VRML V2.0 utf8
DEF TXFM_1 Transform {
  center 0 0 0
  rotation 0 0 1 0
  scale 1 1 1
  scaleOrientation 0 0 1 0
  translation 0 0 0
 children [
DEF TXFM_2 Transform {
  center 0 0 0
  rotation 0 0 1 0
  scale 1 1 1
  scaleOrientation 0 0 1 0
  translation 0 0 0
 children [
DEF TXFM_3 Transform {
  center 0 0 0
  rotation 0 0 1 0
  scale 1 1 1
  scaleOrientation 0 0 1 0
  translation 0 0 0
 children [
DEF SHAPE_1 Shape {
 appearance DEF APP_1 Appearance {
  material Material {
   ambientIntensity 0.1861314
   diffuseColor 0.53725487 0.53725487 0.53725487
   emissiveColor 0 0 0
   shininess 0.1
   specularColor 0.12 0.12 0.12
   transparency 0
} }
 geometry DEF FACE_1 IndexedFaceSet {
  coord DEF COORD_1 Coordinate { point [
  8.6614175 5.2188978 0,8.6614175 9.448819 0,
  8.6614175 5.2188978 0.090551181,8.6614175 9.448819 0.090551181] }
 coordIndex [
  2,1,0,-1,2,3,1,-1]
  normalPerVertex TRUE
  normal DEF NORM_1 Normal { vector [
  -1 0 0,-1 0 0,
  -1 0 0,-1 0 0] }
}
}
DEF SHAPE_2 Shape {
 appearance USE APP_1
 geometry DEF FACE_2 IndexedFaceSet {
  coord DEF COORD_2 Coordinate { point [
  8.6614175 9.448819 0,18.614173 9.448819 0,
  8.6614175 9.448819 0.090551181,18.614173 9.448819 0.090551181] }
 coordIndex [
  0,3,1,-1,2,3,0,-1]
  normalPerVertex TRUE
  normal DEF NORM_2 Normal { vector [
  0 1 0,0 1 0,
  0 1 0,0 1 0] }
}
}
DEF SHAPE_3 Shape {
 appearance USE APP_1
 geometry DEF FACE_3 IndexedFaceSet {
  coord DEF COORD_3 Coordinate { point [
  18.614173 9.448819 0,18.614173 5.2188978 0,
  18.614173 9.448819 0.090551181,18.614173 5.2188978 0.090551181] }
 coordIndex [
  0,3,1,-1,2,3,0,-1]
  normalPerVertex TRUE
  normal DEF NORM_3 Normal { vector [
  1 0 0,1 0 0,
  1 0 0,1 0 0] }
}
}
DEF SHAPE_4 Shape {
 appearance USE APP_1
 geometry DEF FACE_4 IndexedFaceSet {
  coord DEF COORD_4 Coordinate { point [
  18.614173 5.2188978 0,8.6614175 5.2188978 0,
  18.614173 5.2188978 0.090551181,8.6614175 5.2188978 0.090551181] }
 coordIndex [
  2,1,0,-1,2,3,1,-1]
  normalPerVertex TRUE
  normal DEF NORM_4 Normal { vector [
  0 -1 0,0 -1 0,
  0 -1 0,0 -1 0] }
}
}
DEF SHAPE_5 Shape {
 appearance USE APP_1
 geometry DEF FACE_5 IndexedFaceSet {
  coord DEF COORD_5 Coordinate { point [
  8.6614175 5.2188978 0.090551181,18.614173 5.2188978 0.090551181,
  18.614173 9.448819 0.090551181,8.6614175 9.448819 0.090551181] }
 coordIndex [
  2,0,1,-1,2,3,0,-1]
  normalPerVertex TRUE
  normal DEF NORM_5 Normal { vector [
  0 0 1,0 0 1,
  0 0 1,0 0 1] }
}
}
DEF SHAPE_6 Shape {
 appearance USE APP_1
 geometry DEF FACE_6 IndexedFaceSet {
  coord DEF COORD_6 Coordinate { point [
  18.614173 9.448819 0,18.614173 5.2188978 0,
  8.6614175 9.448819 0,8.6614175 5.2188978 0] }
 coordIndex [
  0,3,2,-1,0,1,3,-1]
  normalPerVertex TRUE
  normal DEF NORM_6 Normal { vector [
  0 0 -1,0 0 -1,
  0 0 -1,0 0 -1] }
}
}
] }
DEF TXFM_4 Transform {
  center 0 0 0
  rotation 0 0 1 0
  scale 1 1 1
  scaleOrientation 0 0 1 0
  translation 0 0 0
 children [
DEF SHAPE_7 Shape {
 appearance DEF APP_2 Appearance {
  material Material {
   ambientIntensity 0.57954544
   diffuseColor 0.17254902 0.17254902 0.17254902
   emissiveColor 0 0 0
   shininess 0.1
   specularColor 0.12 0.12 0.12
   transparency 0
} }
 geometry DEF FACE_7 IndexedFaceSet {
  coord DEF COORD_7 Coordinate { point [
  18.614173 9.448819 0,18.614173 5.2188978 0,
  18.614173 5.2188978 0.090551181,18.614173 9.448819 0.090551181] }
 coordIndex [
  2,0,1,-1,2,3,0,-1]
  normalPerVertex TRUE
  normal DEF NORM_7 Normal { vector [
  -1 0 0,-1 0 0,
  -1 0 0,-1 0 0] }
}
}
DEF SHAPE_8 Shape {
 appearance USE APP_2
 geometry DEF FACE_8 IndexedFaceSet {
  coord DEF COORD_8 Coordinate { point [
  8.6614175 9.448819 0,18.614173 9.448819 0,
  18.614173 9.448819 0.090551181,8.6614175 9.448819 0.090551181] }
 coordIndex [
  2,0,1,-1,2,3,0,-1]
  normalPerVertex TRUE
  normal DEF NORM_8 Normal { vector [
  0 -1 0,0 -1 0,
  0 -1 0,0 -1 0] }
}
}
DEF SHAPE_9 Shape {
 appearance USE APP_2
 geometry DEF FACE_9 IndexedFaceSet {
  coord DEF COORD_9 Coordinate { point [
  8.6614175 5.2188978 0,8.6614175 9.448819 0,
  8.6614175 9.448819 0.090551181,8.6614175 5.2188978 0.090551181] }
 coordIndex [
  1,3,0,-1,2,3,1,-1]
  normalPerVertex TRUE
  normal DEF NORM_9 Normal { vector [
  1 0 0,1 0 0,
  1 0 0,1 0 0] }
}
}
DEF SHAPE_10 Shape {
 appearance USE APP_2
 geometry DEF FACE_10 IndexedFaceSet {
  coord DEF COORD_10 Coordinate { point [
  18.614173 5.2188978 0,8.6614175 5.2188978 0,
  8.6614175 5.2188978 0.090551181,18.614173 5.2188978 0.090551181] }
 coordIndex [
  1,3,0,-1,2,3,1,-1]
  normalPerVertex TRUE
  normal DEF NORM_10 Normal { vector [
  0 1 0,0 1 0,
  0 1 0,0 1 0] }
}
}
DEF SHAPE_11 Shape {
 appearance USE APP_2
 geometry DEF FACE_11 IndexedFaceSet {
  coord DEF COORD_11 Coordinate { point [
  8.1377954 9.9716537 0,19.594488 9.9716537 0,
  8.1377954 9.9716537 0.090551181,19.594488 9.9716537 0.090551181] }
 coordIndex [
  2,1,0,-1,2,3,1,-1]
  normalPerVertex TRUE
  normal DEF NORM_11 Normal { vector [
  0 1 0,0 1 0,
  0 1 0,0 1 0] }
}
}
DEF SHAPE_12 Shape {
 appearance USE APP_2
 geometry DEF FACE_12 IndexedFaceSet {
  coord DEF COORD_12 Coordinate { point [
  19.594488 9.9716537 0,19.594488 4.6960631 0,
  19.594488 9.9716537 0.090551181,19.594488 4.6960631 0.090551181] }
 coordIndex [
  2,1,0,-1,2,3,1,-1]
  normalPerVertex TRUE
  normal DEF NORM_12 Normal { vector [
  1 0 0,1 0 0,
  1 0 0,1 0 0] }
}
}
DEF SHAPE_13 Shape {
 appearance USE APP_2
 geometry DEF FACE_13 IndexedFaceSet {
  coord DEF COORD_13 Coordinate { point [
  8.1377954 4.6960631 0,19.594488 4.6960631 0,
  19.594488 4.6960631 0.090551181,8.1377954 4.6960631 0.090551181] }
 coordIndex [
  2,0,1,-1,2,3,0,-1]
  normalPerVertex TRUE
  normal DEF NORM_13 Normal { vector [
  0 -1 0,0 -1 0,
  0 -1 0,0 -1 0] }
}
}
DEF SHAPE_14 Shape {
 appearance USE APP_2
 geometry DEF FACE_14 IndexedFaceSet {
  coord DEF COORD_14 Coordinate { point [
  8.1377954 9.9716537 0,8.1377954 4.6960631 0,
  8.1377954 4.6960631 0.090551181,8.1377954 9.9716537 0.090551181] }
 coordIndex [
  2,0,1,-1,2,3,0,-1]
  normalPerVertex TRUE
  normal DEF NORM_14 Normal { vector [
  -1 0 0,-1 0 0,
  -1 0 0,-1 0 0] }
}
}
DEF SHAPE_15 Shape {
 appearance USE APP_2
 geometry DEF FACE_15 IndexedFaceSet {
  coord DEF COORD_15 Coordinate { point [
  8.1377954 9.9716537 0.090551181,8.1377954 4.6960631 0.090551181,
  19.594488 4.6960631 0.090551181,19.594488 9.9716537 0.090551181,
  18.614173 5.2188978 0.090551181,8.6614175 5.2188978 0.090551181,
  8.6614175 9.448819 0.090551181,18.614173 9.448819 0.090551181] }
 coordIndex [
  0,1,5,-1,6,0,5,-1,4,5,1,-1,2,4,1,-1,3,7,4,-1,3,4,2,-1,3,0,6,-1,3,6,7,-1]
  normalPerVertex TRUE
  normal DEF NORM_15 Normal { vector [
  0 0 1,0 0 1,
  0 0 1,0 0 1,
  0 0 1,0 0 1,
  0 0 1,0 0 1] }
}
}
DEF SHAPE_16 Shape {
 appearance USE APP_2
 geometry DEF FACE_16 IndexedFaceSet {
  coord DEF COORD_16 Coordinate { point [
  8.1377954 4.6960631 0,19.594488 4.6960631 0,
  19.594488 9.9716537 0,8.1377954 9.9716537 0,
  8.6614175 5.2188978 0,8.6614175 9.448819 0,
  18.614173 9.448819 0,18.614173 5.2188978 0] }
 coordIndex [
  3,4,0,-1,5,4,3,-1,7,0,4,-1,1,0,7,-1,2,7,6,-1,2,1,7,-1,2,5,3,-1,2,6,5,-1]
  normalPerVertex TRUE
  normal DEF NORM_16 Normal { vector [
  0 0 -1,0 0 -1,
  0 0 -1,0 0 -1,
  0 0 -1,0 0 -1,
  0 0 -1,0 0 -1] }
}
}
] }
DEF TXFM_5 Transform {
  center 0 0 0
  rotation 0 0 1 0
  scale 1 1 1
  scaleOrientation 0 0 1 0
  translation 0 0 0
 children [
DEF SHAPE_17 Shape {
 appearance DEF APP_3 Appearance {
  material Material {
   ambientIntensity 0.10374985
   diffuseColor 0.96470588 0.96470588 0.95294118
   emissiveColor 0 0 0
   shininess 0.1
   specularColor 0.12 0.12 0.12
   transparency 0
} }
 geometry DEF FACE_17 IndexedFaceSet {
  coord DEF COORD_17 Coordinate { point [
  19.95942 10.089764 0,19.95942 10.089764 -0.059055118,
  19.95942 4.5779529 -0.059055118,19.95942 4.5779529 0] }
 coordIndex [
  1,3,2,-1,1,0,3,-1]
  normalPerVertex TRUE
  normal DEF NORM_17 Normal { vector [
  1 0 0,1 0 0,
  1 0 0,1 0 0] }
}
}
DEF SHAPE_18 Shape {
 appearance USE APP_3
 geometry DEF FACE_18 IndexedFaceSet {
  coord DEF COORD_18 Coordinate { point [
  19.95942 10.089764 -0.059055118,20.61811 10.089764 -0.059055118,
  20.61811 4.5779529 -0.059055118,19.95942 4.5779529 -0.059055118] }
 coordIndex [
  0,2,1,-1,0,3,2,-1]
  normalPerVertex TRUE
  normal DEF NORM_18 Normal { vector [
  0 0 1,0 0 1,
  0 0 1,0 0 1] }
}
}
DEF SHAPE_19 Shape {
 appearance USE APP_3
 geometry DEF FACE_19 IndexedFaceSet {
  coord DEF COORD_19 Coordinate { point [
  19.95942 4.5779529 0,19.95942 10.089764 0,
  8.0196852 10.089764 0,8.0196852 4.5779529 0] }
 coordIndex [
  1,2,3,-1,1,3,0,-1]
  normalPerVertex TRUE
  normal DEF NORM_19 Normal { vector [
  0 0 1,0 0 1,
  0 0 1,0 0 1] }
}
}
DEF SHAPE_20 Shape {
 appearance USE APP_3
 geometry DEF FACE_20 IndexedFaceSet {
  coord DEF COORD_20 Coordinate { point [
  19.95942 10.089764 0,19.95942 10.089764 -0.059055118,
  20.61811 10.089764 -0.059055118,20.61811 10.089764 -0.20275591,
  8.0196852 10.089764 -0.20275591,8.0196852 10.089764 0] }
 coordIndex [
  1,4,5,-1,1,5,0,-1,3,1,2,-1,3,4,1,-1]
  normalPerVertex TRUE
  normal DEF NORM_20 Normal { vector [
  0 1 0,0 1 0,
  0 1 0,0 1 0,
  0 1 0,0 1 0] }
}
}
DEF SHAPE_21 Shape {
 appearance USE APP_3
 geometry DEF FACE_21 IndexedFaceSet {
  coord DEF COORD_21 Coordinate { point [
  8.0196852 10.089764 0,8.0196852 4.5779529 0,
  8.0196852 10.089764 -0.20275591,8.0196852 4.5779529 -0.20275591] }
 coordIndex [
  0,3,1,-1,2,3,0,-1]
  normalPerVertex TRUE
  normal DEF NORM_21 Normal { vector [
  -1 0 0,-1 0 0,
  -1 0 0,-1 0 0] }
}
}
DEF SHAPE_22 Shape {
 appearance USE APP_3
 geometry DEF FACE_22 IndexedFaceSet {
  coord DEF COORD_22 Coordinate { point [
  19.95942 4.5779529 -0.059055118,19.95942 4.5779529 0,
  8.0196852 4.5779529 0,8.0196852 4.5779529 -0.20275591,
  20.61811 4.5779529 -0.20275591,20.61811 4.5779529 -0.059055118] }
 coordIndex [
  0,4,5,-1,2,0,1,-1,3,0,2,-1,3,4,0,-1]
  normalPerVertex TRUE
  normal DEF NORM_22 Normal { vector [
  0 -1 0,0 -1 0,
  0 -1 0,0 -1 0,
  0 -1 0,0 -1 0] }
}
}
DEF SHAPE_23 Shape {
 appearance USE APP_3
 geometry DEF FACE_23 IndexedFaceSet {
  coord DEF COORD_23 Coordinate { point [
  20.61811 10.089764 -0.059055118,20.61811 4.5779529 -0.059055118,
  20.61811 4.5779529 -0.20275591,20.61811 10.089764 -0.20275591] }
 coordIndex [
  2,0,1,-1,2,3,0,-1]
  normalPerVertex TRUE
  normal DEF NORM_23 Normal { vector [
  1 0 0,1 0 0,
  1 0 0,1 0 0] }
}
}
DEF SHAPE_24 Shape {
 appearance USE APP_3
 geometry DEF FACE_24 IndexedFaceSet {
  coord DEF COORD_24 Coordinate { point [
  20.61811 10.089764 -0.20275591,20.61811 4.5779529 -0.20275591,
  8.0196852 4.5779529 -0.20275591,8.0196852 10.089764 -0.20275591] }
 coordIndex [
  2,0,1,-1,3,0,2,-1]
  normalPerVertex TRUE
  normal DEF NORM_24 Normal { vector [
  0 0 -1,0 0 -1,
  0 0 -1,0 0 -1] }
}
}
] }
DEF TXFM_6 Transform {
  center 0 0 0
  rotation 0 0 1 0
  scale 1 1 1
  scaleOrientation 0 0 1 0
  translation 0 0 0
 children [
DEF SHAPE_25 Shape {
 appearance USE APP_2
 geometry DEF FACE_25 IndexedFaceSet {
  coord DEF COORD_25 Coordinate { point [
  9.5772841 8.6970025 -0.20275591,9.5772841 6.0458562 -0.20275591,
  9.5772841 8.6970025 -0.59645669,9.5772841 6.0458562 -0.59645669] }
 coordIndex [
  2,1,0,-1,2,3,1,-1]
  normalPerVertex TRUE
  normal DEF NORM_25 Normal { vector [
  -1 0 0,-1 0 0,
  -1 0 0,-1 0 0] }
}
}
DEF SHAPE_26 Shape {
 appearance USE APP_2
 geometry DEF FACE_26 IndexedFaceSet {
  coord DEF COORD_26 Coordinate { point [
  9.5772841 6.0458562 -0.20275591,17.184921 6.0458562 -0.20275591,
  9.5772841 6.0458562 -0.59645669,17.184921 6.0458562 -0.59645669] }
 coordIndex [
  2,1,0,-1,2,3,1,-1]
  normalPerVertex TRUE
  normal DEF NORM_26 Normal { vector [
  0 -1 0,0 -1 0,
  0 -1 0,0 -1 0] }
}
}
DEF SHAPE_27 Shape {
 appearance USE APP_2
 geometry DEF FACE_27 IndexedFaceSet {
  coord DEF COORD_27 Coordinate { point [
  17.184921 6.0458562 -0.20275591,17.184921 8.6970025 -0.20275591,
  17.184921 6.0458562 -0.59645669,17.184921 8.6970025 -0.59645669] }
 coordIndex [
  2,1,0,-1,2,3,1,-1]
  normalPerVertex TRUE
  normal DEF NORM_27 Normal { vector [
  1 0 0,1 0 0,
  1 0 0,1 0 0] }
}
}
DEF SHAPE_28 Shape {
 appearance USE APP_2
 geometry DEF FACE_28 IndexedFaceSet {
  coord DEF COORD_28 Coordinate { point [
  17.184921 8.6970025 -0.20275591,9.5772841 8.6970025 -0.20275591,
  17.184921 8.6970025 -0.59645669,9.5772841 8.6970025 -0.59645669] }
 coordIndex [
  2,1,0,-1,2,3,1,-1]
  normalPerVertex TRUE
  normal DEF NORM_28 Normal { vector [
  0 1 0,0 1 0,
  0 1 0,0 1 0] }
}
}
DEF SHAPE_29 Shape {
 appearance USE APP_2
 geometry DEF FACE_29 IndexedFaceSet {
  coord DEF COORD_29 Coordinate { point [
  9.5772841 8.6970025 -0.59645669,17.184921 8.6970025 -0.59645669,
  17.184921 6.0458562 -0.59645669,9.5772841 6.0458562 -0.59645669] }
 coordIndex [
  3,1,2,-1,0,1,3,-1]
  normalPerVertex TRUE
  normal DEF NORM_29 Normal { vector [
  0 0 -1,0 0 -1,
  0 0 -1,0 0 -1] }
}
}
DEF SHAPE_30 Shape {
 appearance USE APP_2
 geometry DEF FACE_30 IndexedFaceSet {
  coord DEF COORD_30 Coordinate { point [
  17.184921 6.0458562 -0.20275591,17.184921 8.6970025 -0.20275591,
  9.5772841 6.0458562 -0.20275591,9.5772841 8.6970025 -0.20275591] }
 coordIndex [
  1,3,2,-1,0,1,2,-1]
  normalPerVertex TRUE
  normal DEF NORM_30 Normal { vector [
  0 0 1,0 0 1,
  0 0 1,0 0 1] }
}
}
] }
DEF TXFM_7 Transform {
  center 0 0 0
  rotation 0 0 1 0
  scale 1 1 1
  scaleOrientation 0 0 1 0
  translation 0 0 0
 children [
DEF SHAPE_31 Shape {
 appearance DEF APP_4 Appearance {
  material Material {
   ambientIntensity 0.11198179
   diffuseColor 0.95686275 0.89803922 0.65490198
   emissiveColor 0 0 0
   shininess 0.1
   specularColor 0.12 0.12 0.12
   transparency 0
} }
 geometry DEF FACE_31 IndexedFaceSet {
  coord DEF COORD_31 Coordinate { point [
  21.011811 5.6803151 -1.6732283,21.01853 5.6294845 -1.6732079,
  21.036162 5.5855484 -1.6728674,21.060148 5.55114 -1.6718124,
  21.090021 5.5232938 -1.6695135,21.126092 5.5016278 -1.6652906,
  21.165936 5.4882107 -1.6587137,21.187503 5.4846417 -1.6543301,
  21.208662 5.4834647 -1.6494519,21.208662 5.4834647 -1.608855,
  21.158998 5.4898774 -1.6199604,21.115442 5.5069742 -1.6270031,
  21.080917 5.5305764 -1.6308162,21.052762 5.560196 -1.6327889,
  21.030659 5.5962835 -1.6336321,21.016782 5.6365849 -1.6338514,
  21.01305 5.6585896 -1.6338635,21.011811 5.6803151 -1.6338583] }
 coordIndex [
  7,8,9,-1,7,9,10,-1,6,7,10,-1,5,10,11,-1,5,6,10,-1,4,11,12,-1,4,5,11,-1,3,12,13,-1,
  3,4,12,-1,2,13,14,-1,2,3,13,-1,1,14,15,-1,1,15,16,-1,1,2,14,-1,0,16,17,-1,0,1,16,-1]
  normalPerVertex TRUE
  normal DEF NORM_31 Normal { vector [
  -0.99362435 -0.1089807 -0.028876606,-0.9659475 -0.25806478 -0.018654793,
  -0.87356167 -0.48661401 -0.0098397198,-0.74575368 -0.66617889 -0.0075582698,
  -0.58782674 -0.80895116 -0.0075991301,-0.39976294 -0.91661471 -0.0026579263,
  -0.26557365 -0.96407136 -0.0060874442,-0.12487654 -0.99189646 0.023393623,
  -0.055540482 -0.99845644 0,-0.11245272 -0.99330061 0.026613598,
  -0.25589914 -0.96654549 0.017477133,-0.48023206 -0.87708947 0.0095512404,
  -0.65915934 -0.75196538 0.0075521828,-0.80330987 -0.59551126 0.0077198709,
  -0.9134259 -0.40699578 0.0027481546,-0.96229483 -0.27193512 0.0063210063,
  -0.99212704 -0.12265065 -0.02531321,-0.99837819 -0.056929724 0] }
}
}
DEF SHAPE_32 Shape {
 appearance USE APP_4
 geometry DEF FACE_32 IndexedFaceSet {
  coord DEF COORD_32 Coordinate { point [
  21.011811 5.6803151 -1.6732283,21.01853 5.6294845 -1.6732079,
  21.036162 5.5855484 -1.6728674,21.060148 5.55114 -1.6718124,
  21.090021 5.5232938 -1.6695135,21.126092 5.5016278 -1.6652906,
  21.165936 5.4882107 -1.6587137,21.187503 5.4846417 -1.6543301,
  21.208662 5.4834647 -1.6494519,21.011811 6.0543308 -1.6732283,
  21.011811 8.613386 -1.6732283,21.011811 8.9874017 -1.6732283,
  21.208662 9.1842521 -1.6494519,21.158917 9.1778184 -1.660018,
  21.115345 9.1606906 -1.6667146,21.080839 9.1370747 -1.6703382,
  21.052712 9.1074563 -1.6722124,21.030634 9.0713816 -1.6730135,
  21.016775 9.0311031 -1.6732218,21.013048 9.0091127 -1.6732333,
  21.011811 9.1842521 -0.019685039,21.209755 9.1842521 -0.043730247,
  21.396184 9.1842521 -0.11446724,21.560257 9.1842521 -0.22778151,
  21.692428 9.1842521 -0.37708194,21.785009 9.1842521 -0.55368427,
  21.832617 9.1842521 -0.74731614,21.832481 9.1842521 -0.94671467,
  21.78461 9.1842521 -1.1402815,21.691788 9.1842521 -1.3167577,
  21.559414 9.1842521 -1.465878,21.395187 9.1842521 -1.5789688,
  21.011811 5.4834647 -0.019685039,21.209755 5.4834647 -0.043730247,
  21.396184 5.4834647 -0.11446724,21.560257 5.4834647 -0.22778151,
  21.692428 5.4834647 -0.37708194,21.785009 5.4834647 -0.55368427,
  21.832617 5.4834647 -0.74731614,21.832481 5.4834647 -0.94671467,
  21.78461 5.4834647 -1.1402815,21.691788 5.4834647 -1.3167577,
  21.559414 5.4834647 -1.465878,21.395187 5.4834647 -1.5789688] }
 coordIndex [
  20,32,33,-1,21,20,33,-1,22,33,34,-1,22,21,33,-1,23,34,35,-1,23,22,34,-1,24,35,36,-1,24,23,35,-1,
  25,36,37,-1,25,37,38,-1,25,24,36,-1,26,38,39,-1,26,25,38,-1,27,26,39,-1,28,39,40,-1,28,27,39,-1,
  29,40,41,-1,29,28,40,-1,30,41,42,-1,30,29,41,-1,0,2,1,-1,31,42,43,-1,31,30,42,-1,9,3,2,-1,
  9,4,3,-1,9,2,0,-1,9,5,4,-1,9,6,5,-1,12,8,7,-1,12,31,43,-1,12,43,8,-1,13,6,9,-1,
  13,12,7,-1,13,7,6,-1,10,14,13,-1,10,15,14,-1,10,13,9,-1,16,15,10,-1,17,16,10,-1,11,17,10,-1,
  18,17,11,-1,19,18,11,-1]
  normalPerVertex TRUE
  normal DEF NORM_32 Normal { vector [
  0.015595411 0.00019856173 -0.99987836,0.027297687 0.0032064773 -0.99962221,
  0.031480866 0.00094202319 -0.99950391,0.066242322 0.0035555374 -0.99779723,
  0.10470723 0.0084644201 -0.99446707,0.14827538 0.016457495 -0.98880916,
  0.10844384 0.00050673809 -0.99410245,0.20966361 6.2204532e-05 -0.97777358,
  0.34110176 0 -0.94002638,0.092505861 0.00060820525 -0.99571195,
  0.090867886 -0.0013864743 -0.99586199,0.011942509 -0.00013021073 -0.99992868,
  0.33230439 1.0964984e-05 -0.9431722,0.11771153 -0.0003941699 -0.99304775,
  0.13840504 -0.01439641 -0.99027107,0.093161707 -0.006785043 -0.99562787,
  0.056651307 -0.0026368224 -0.99839054,0.026554266 -0.00066798668 -0.99964715,
  0.020023804 -0.0021252994 -0.99979724,0.0066721054 -0.00060862527 -0.99997756,
  0.12058866 0 0.99270256,0.23941735 0 0.97091675,
  0.42870764 0 0.90344328,0.63253942 0 0.77452817,
  0.7995786 0 0.60056146,0.9352018 0 0.35411522,
  0.99682305 0 0.079648056,0.99262024 0 -0.12126441,
  0.94833197 0 -0.3172798,0.84478911 0 -0.5350994,
  0.69210781 0 -0.72179414,0.49916903 0 -0.86650463,
  0.12058866 0 0.99270256,0.23941735 0 0.97091675,
  0.5003483 0 0.86582422,0.69308988 0 0.72085117,
  0.84551685 0 0.53394873,0.9352018 0 0.35411522,
  0.98712005 0 0.1599813,0.99262024 0 -0.12126441,
  0.91957499 0 -0.39291454,0.7987602 0 -0.60164951,
  0.63148433 0 -0.77538864,0.42747722 0 -0.90402612] }
}
}
DEF SHAPE_33 Shape {
 appearance USE APP_4
 geometry DEF FACE_33 IndexedFaceSet {
  coord DEF COORD_33 Coordinate { point [
  21.011811 5.6803151 -1.6732283,21.011811 6.0543308 -1.6732283,
  21.011811 6.0543308 -1.6338583,21.011811 5.6803151 -1.6338583] }
 coordIndex [
  2,1,0,-1,2,0,3,-1]
  normalPerVertex TRUE
  normal DEF NORM_33 Normal { vector [
  -1 0 0,-1 0 0,
  -1 0 0,-1 0 0] }
}
}
DEF SHAPE_34 Shape {
 appearance USE APP_4
 geometry DEF FACE_34 IndexedFaceSet {
  coord DEF COORD_34 Coordinate { point [
  21.011811 6.0543308 -1.6732283,21.011811 6.0543308 -1.6338583,
  20.814961 6.2511812 -1.6732283,20.865909 6.2444737 -1.6732283,
  20.913386 6.2248083 -1.6732283,20.954155 6.1935251 -1.6732283,
  20.985438 6.152756 -1.6732283,21.005104 6.1052795 -1.6732283,
  20.814961 6.2511812 -1.6338583,21.005104 6.1052795 -1.6338583,
  20.985438 6.152756 -1.6338583,20.954155 6.1935251 -1.6338583,
  20.913386 6.2248083 -1.6338583,20.865909 6.2444737 -1.6338583] }
 coordIndex [
  9,0,1,-1,9,7,0,-1,10,6,7,-1,10,7,9,-1,11,5,6,-1,11,6,10,-1,12,4,5,-1,12,5,11,-1,
  13,3,4,-1,13,4,12,-1,8,2,3,-1,8,3,13,-1]
  normalPerVertex TRUE
  normal DEF NORM_34 Normal { vector [
  -0.99144486 -0.13052619 0,-0.99144486 -0.13052619 0,
  -0.13052619 -0.99144486 0,-0.21622209 -0.9763442 0,
  -0.46155098 -0.88711369 0,-0.67542593 -0.73742784 0,
  -0.84327172 -0.5374875 0,-0.95364993 -0.30091828 0,
  -0.13052619 -0.99144486 0,-0.9763442 -0.21622209 0,
  -0.88711369 -0.46155098 0,-0.73742784 -0.67542593 0,
  -0.5374875 -0.84327172 0,-0.30091828 -0.95364993 0] }
}
}
DEF SHAPE_35 Shape {
 appearance USE APP_4
 geometry DEF FACE_35 IndexedFaceSet {
  coord DEF COORD_35 Coordinate { point [
  20.814961 8.4165356 -1.6732283,20.814961 8.4165356 -1.6338583,
  21.011811 8.613386 -1.6732283,21.005104 8.5624373 -1.6732283,
  20.985438 8.5149608 -1.6732283,20.954155 8.4741917 -1.6732283,
  20.913386 8.4429085 -1.6732283,20.865909 8.4232431 -1.6732283,
  21.011811 8.613386 -1.6338583,20.865909 8.4232431 -1.6338583,
  20.913386 8.4429085 -1.6338583,20.954155 8.4741917 -1.6338583,
  20.985438 8.5149608 -1.6338583,21.005104 8.5624373 -1.6338583] }
 coordIndex [
  9,0,1,-1,9,7,0,-1,10,6,7,-1,10,7,9,-1,11,5,6,-1,11,6,10,-1,12,4,5,-1,12,5,11,-1,
  13,3,4,-1,13,4,12,-1,8,2,3,-1,8,3,13,-1]
  normalPerVertex TRUE
  normal DEF NORM_35 Normal { vector [
  -0.13052619 0.99144486 0,-0.13052619 0.99144486 0,
  -0.99144486 0.13052619 0,-0.9763442 0.21622209 0,
  -0.88711369 0.46155098 0,-0.73742784 0.67542593 0,
  -0.5374875 0.84327172 0,-0.30091828 0.95364993 0,
  -0.99144486 0.13052619 0,-0.21622209 0.9763442 0,
  -0.46155098 0.88711369 0,-0.67542593 0.73742784 0,
  -0.84327172 0.5374875 0,-0.95364993 0.30091828 0] }
}
}
DEF SHAPE_36 Shape {
 appearance USE APP_4
 geometry DEF FACE_36 IndexedFaceSet {
  coord DEF COORD_36 Coordinate { point [
  20.814961 8.4165356 -1.6338583,17.862205 8.4165356 -1.6338583,
  17.862205 8.4165356 -1.6732283,20.814961 8.4165356 -1.6732283] }
 coordIndex [
  0,2,1,-1,0,3,2,-1]
  normalPerVertex TRUE
  normal DEF NORM_36 Normal { vector [
  0 1 0,0 1 0,
  0 1 0,0 1 0] }
}
}
DEF SHAPE_37 Shape {
 appearance USE APP_4
 geometry DEF FACE_37 IndexedFaceSet {
  coord DEF COORD_37 Coordinate { point [
  21.208662 9.1842521 -1.6494519,21.158917 9.1778184 -1.660018,
  21.115345 9.1606906 -1.6667146,21.080839 9.1370747 -1.6703382,
  21.052712 9.1074563 -1.6722124,21.030634 9.0713816 -1.6730135,
  21.016775 9.0311031 -1.6732218,21.013048 9.0091127 -1.6732333,
  21.011811 8.9874017 -1.6732283,21.011811 8.9874017 -1.6338583,
  21.018539 9.0382657 -1.6338367,21.036193 9.0822249 -1.6334783,
  21.060205 9.1166426 -1.6323679,21.090107 9.1444868 -1.6299482,
  21.126189 9.166134 -1.6255052,21.16601 9.1795224 -1.6185891,
  21.187546 9.1830798 -1.6139812,21.208662 9.1842521 -1.608855] }
 coordIndex [
  16,17,0,-1,15,0,1,-1,15,16,0,-1,14,1,2,-1,14,15,1,-1,13,2,3,-1,13,14,2,-1,12,3,4,-1,
  12,13,3,-1,11,4,5,-1,11,12,4,-1,10,5,6,-1,10,11,5,-1,9,6,7,-1,9,7,8,-1,9,10,6,-1]
  normalPerVertex TRUE
  normal DEF NORM_37 Normal { vector [
  -0.11466803 0.99311731 -0.023858942,-0.26525225 0.96411022 -0.011520908,
  -0.47849943 0.87803417 -0.0097102017,-0.65860486 0.75245044 -0.0076139732,
  -0.80316472 0.59570659 -0.0077513886,-0.91346722 0.40690316 -0.0027322977,
  -0.97757534 0.21007224 0.014700558,-0.99313329 0.11280745 0.030996042,
  -0.99838033 0.05689214 0,-0.99212501 0.12265596 0.025367083,
  -0.96213139 0.27232322 0.011968795,-0.87364266 0.48646649 0.0099431766,
  -0.74605625 0.66583896 0.0076517757,-0.58867975 0.80832988 0.0076780392,
  -0.4002682 0.91639407 0.0026965147,-0.20317097 0.97904854 -0.013620074,
  -0.1036635 0.99419391 -0.028850402,-0.05543542 0.99846227 0] }
}
}
DEF SHAPE_38 Shape {
 appearance USE APP_4
 geometry DEF FACE_38 IndexedFaceSet {
  coord DEF COORD_38 Coordinate { point [
  21.011811 9.1842521 -0.019685039,21.209755 9.1842521 -0.043730247,
  21.396184 9.1842521 -0.11446724,21.560257 9.1842521 -0.22778151,
  21.692428 9.1842521 -0.37708194,21.785009 9.1842521 -0.55368427,
  21.832617 9.1842521 -0.74731614,21.832481 9.1842521 -0.94671467,
  21.78461 9.1842521 -1.1402815,21.691788 9.1842521 -1.3167577,
  21.559414 9.1842521 -1.465878,21.395187 9.1842521 -1.5789688,
  21.208662 9.1842521 -1.6494519,20.22441 9.1842521 -0.019685039,
  20.22441 9.1842521 -0.059055118,21.011811 9.1842521 -0.059055118,
  21.199547 9.1842521 -0.081762862,21.376454 9.1842521 -0.14857636,
  21.532329 9.1842521 -0.25564198,21.658183 9.1842521 -0.39678441,
  21.746755 9.1842521 -0.56386288,21.792937 9.1842521 -0.74724071,
  21.794066 9.1842521 -0.93634109,21.750076 9.1842521 -1.1202571,
  21.663504 9.1842521 -1.288381,21.539345 9.1842521 -1.4310157,
  21.384759 9.1842521 -1.5399345,21.208662 9.1842521 -1.608855] }
 coordIndex [
  15,13,0,-1,15,14,13,-1,16,0,1,-1,16,15,0,-1,17,1,2,-1,17,16,1,-1,18,17,2,-1,3,18,2,-1,
  19,18,3,-1,4,19,3,-1,20,19,4,-1,5,20,4,-1,21,20,5,-1,6,21,5,-1,22,21,6,-1,7,22,6,-1,
  23,22,7,-1,8,23,7,-1,24,23,8,-1,11,27,26,-1,11,12,27,-1,9,25,24,-1,9,24,8,-1,10,26,25,-1,
  10,11,26,-1,10,25,9,-1]
  normalPerVertex TRUE
  normal DEF NORM_38 Normal { vector [
  0 1 0,0 1 0,
  0 1 0,0 1 0,
  0 1 0,0 1 0,
  0 1 0,0 1 0,
  0 1 0,0 1 0,
  0 1 0,0 1 0,
  0 1 0,0 1 0,
  0 1 0,0 1 0,
  0 1 0,0 1 0,
  0 1 0,0 1 0,
  0 1 0,0 1 0,
  0 1 0,0 1 0,
  0 1 0,0 1 0,
  0 1 0,0 1 0] }
}
}
DEF SHAPE_39 Shape {
 appearance USE APP_4
 geometry DEF FACE_39 IndexedFaceSet {
  coord DEF COORD_39 Coordinate { point [
  21.011811 8.613386 -1.6732283,21.011811 8.9874017 -1.6732283,
  21.011811 8.9874017 -1.6338583,21.011811 8.613386 -1.6338583] }
 coordIndex [
  2,1,0,-1,2,0,3,-1]
  normalPerVertex TRUE
  normal DEF NORM_39 Normal { vector [
  -1 0 0,-1 0 0,
  -1 0 0,-1 0 0] }
}
}
DEF SHAPE_40 Shape {
 appearance USE APP_4
 geometry DEF FACE_40 IndexedFaceSet {
  coord DEF COORD_40 Coordinate { point [
  20.814961 6.2511812 -1.6732283,17.862205 6.2511812 -1.6732283,
  17.862205 6.2511812 -1.6338583,20.814961 6.2511812 -1.6338583] }
 coordIndex [
  2,1,0,-1,2,0,3,-1]
  normalPerVertex TRUE
  normal DEF NORM_40 Normal { vector [
  0 -1 0,0 -1 0,
  0 -1 0,0 -1 0] }
}
}
DEF SHAPE_41 Shape {
 appearance USE APP_4
 geometry DEF FACE_41 IndexedFaceSet {
  coord DEF COORD_41 Coordinate { point [
  20.22441 9.1842521 -0.019685039,20.22441 9.1842521 -0.059055118,
  20.22441 5.4834647 -0.059055118,20.22441 5.4834647 -0.019685039] }
 coordIndex [
  0,1,2,-1,0,2,3,-1]
  normalPerVertex TRUE
  normal DEF NORM_41 Normal { vector [
  -1 0 0,-1 0 0,
  -1 0 0,-1 0 0] }
}
}
DEF SHAPE_42 Shape {
 appearance USE APP_4
 geometry DEF FACE_42 IndexedFaceSet {
  coord DEF COORD_42 Coordinate { point [
  20.22441 5.4834647 -0.019685039,21.011811 5.4834647 -0.019685039,
  21.011811 9.1842521 -0.019685039,20.22441 9.1842521 -0.019685039] }
 coordIndex [
  2,0,1,-1,2,3,0,-1]
  normalPerVertex TRUE
  normal DEF NORM_42 Normal { vector [
  0 0 1,0 0 1,
  0 0 1,0 0 1] }
}
}
DEF SHAPE_43 Shape {
 appearance USE APP_4
 geometry DEF FACE_43 IndexedFaceSet {
  coord DEF COORD_43 Coordinate { point [
  17.862205 8.4165356 -1.6732283,20.814961 8.4165356 -1.6732283,
  21.011811 8.613386 -1.6732283,21.005104 8.5624373 -1.6732283,
  20.985438 8.5149608 -1.6732283,20.954155 8.4741917 -1.6732283,
  20.913386 8.4429085 -1.6732283,20.865909 8.4232431 -1.6732283,
  21.011811 6.0543308 -1.6732283,20.814961 6.2511812 -1.6732283,
  20.865909 6.2444737 -1.6732283,20.913386 6.2248083 -1.6732283,
  20.954155 6.1935251 -1.6732283,20.985438 6.152756 -1.6732283,
  21.005104 6.1052795 -1.6732283,17.862205 6.2511812 -1.6732283] }
 coordIndex [
  5,12,11,-1,6,11,10,-1,6,5,11,-1,4,13,12,-1,4,12,5,-1,7,10,9,-1,7,6,10,-1,3,14,13,-1,
  3,13,4,-1,1,7,9,-1,15,1,9,-1,0,1,15,-1,2,8,14,-1,2,14,3,-1]
  normalPerVertex TRUE
  normal DEF NORM_43 Normal { vector [
  0 0 -1,0 0 -1,
  0 0 -1,0 0 -1,
  0 0 -1,0 0 -1,
  0 0 -1,0 0 -1,
  0 0 -1,0 0 -1,
  0 0 -1,0 0 -1,
  0 0 -1,0 0 -1,
  0 0 -1,0 0 -1] }
}
}
DEF SHAPE_44 Shape {
 appearance USE APP_4
 geometry DEF FACE_44 IndexedFaceSet {
  coord DEF COORD_44 Coordinate { point [
  21.011811 5.4834647 -0.059055118,21.011811 9.1842521 -0.059055118,
  20.22441 9.1842521 -0.059055118,20.22441 5.4834647 -0.059055118] }
 coordIndex [
  1,3,2,-1,1,0,3,-1]
  normalPerVertex TRUE
  normal DEF NORM_44 Normal { vector [
  0 0 -1,0 0 -1,
  0 0 -1,0 0 -1] }
}
}
DEF SHAPE_45 Shape {
 appearance USE APP_4
 geometry DEF FACE_45 IndexedFaceSet {
  coord DEF COORD_45 Coordinate { point [
  21.011811 5.6803151 -1.6338583,21.011811 6.0543308 -1.6338583,
  21.011811 8.613386 -1.6338583,21.011811 8.9874017 -1.6338583,
  21.018539 9.0382657 -1.6338367,21.036193 9.0822249 -1.6334783,
  21.060205 9.1166426 -1.6323679,21.090107 9.1444868 -1.6299482,
  21.126189 9.166134 -1.6255052,21.16601 9.1795224 -1.6185891,
  21.187546 9.1830798 -1.6139812,21.208662 9.1842521 -1.608855,
  21.011811 9.1842521 -0.059055118,21.199547 9.1842521 -0.081762862,
  21.376454 9.1842521 -0.14857636,21.532329 9.1842521 -0.25564198,
  21.658183 9.1842521 -0.39678441,21.746755 9.1842521 -0.56386288,
  21.792937 9.1842521 -0.74724071,21.794066 9.1842521 -0.93634109,
  21.750076 9.1842521 -1.1202571,21.663504 9.1842521 -1.288381,
  21.539345 9.1842521 -1.4310157,21.384759 9.1842521 -1.5399345,
  21.011811 5.4834647 -0.059055118,21.199547 5.4834647 -0.081762862,
  21.376454 5.4834647 -0.14857636,21.532329 5.4834647 -0.25564198,
  21.658183 5.4834647 -0.39678441,21.746755 5.4834647 -0.56386288,
  21.792937 5.4834647 -0.74724071,21.794066 5.4834647 -0.93634109,
  21.750076 5.4834647 -1.1202571,21.663504 5.4834647 -1.288381,
  21.539345 5.4834647 -1.4310157,21.384759 5.4834647 -1.5399345,
  21.208662 5.4834647 -1.608855,21.158998 5.4898774 -1.6199604,
  21.115442 5.5069742 -1.6270031,21.080917 5.5305764 -1.6308162,
  21.052762 5.560196 -1.6327889,21.030659 5.5962835 -1.6336321,
  21.016782 5.6365849 -1.6338514,21.01305 5.6585896 -1.6338635] }
 coordIndex [
  13,24,12,-1,13,25,24,-1,14,26,25,-1,14,27,26,-1,14,25,13,-1,15,27,14,-1,16,28,27,-1,16,27,15,-1,
  17,29,28,-1,17,30,29,-1,17,28,16,-1,18,30,17,-1,19,31,30,-1,19,30,18,-1,20,32,31,-1,20,31,19,-1,
  21,33,32,-1,21,34,33,-1,21,32,20,-1,22,34,21,-1,0,42,41,-1,0,43,42,-1,23,35,34,-1,23,34,22,-1,
  1,0,41,-1,1,38,37,-1,1,39,38,-1,1,40,39,-1,1,41,40,-1,11,36,35,-1,11,35,23,-1,10,36,11,-1,
  10,37,36,-1,9,37,10,-1,2,1,37,-1,2,8,7,-1,2,37,9,-1,2,9,8,-1,6,2,7,-1,5,2,6,-1,
  4,2,5,-1,3,2,4,-1]
  normalPerVertex TRUE
  normal DEF NORM_45 Normal { vector [
  -0.01255629 -0.00013700813 0.99992116,-0.095504191 -0.0014589864 0.99542796,
  -0.097183874 0.00064164759 0.99526624,-0.0032003426 0 0.99999488,
  -0.016396526 0.00020895496 0.99986555,-0.037358472 0.0011328401 0.99930129,
  -0.069637774 0.0037422305 0.99756532,-0.11004934 0.0089064705 0.99388622,
  -0.15579333 0.017312682 0.98763795,-0.11396293 0.00053318778 0.99348486,
  -0.2202054 6.540824e-05 0.97545352,-0.35764236 0 0.93385863,
  -0.12008088 0 -0.99276411,-0.19910625 0 -0.97997791,
  -0.46309621 0 -0.88630802,-0.66105813 0 -0.75033469,
  -0.79721869 0 -0.60369061,-0.93337827 0 -0.35889414,
  -0.9920297 0 -0.12600429,-0.99725543 0 0.074037889,
  -0.95084334 0 0.30967232,-0.82765046 0 0.56124391,
  -0.66996798 0 0.74239,-0.50873933 0 0.86092061,
  -0.12008088 0 -0.99276411,-0.27735459 0 -0.96076763,
  -0.46309621 0 -0.88630802,-0.66105813 0 -0.75033469,
  -0.84323202 0 -0.53754977,-0.93337827 0 -0.35889414,
  -0.9920297 0 -0.12600429,-0.98805789 0 0.15408314,
  -0.92282633 0 0.38521625,-0.82765046 0 0.56124391,
  -0.66996798 0 0.74239,-0.43777827 0 0.89908297,
  -0.3260867 2.0797837e-05 0.94533987,-0.12369404 -0.00041478211 0.99232032,
  -0.14543283 -0.015145315 0.9892522,-0.097922211 -0.0071399439 0.99516846,
  -0.05955692 -0.0027753756 0.99822105,-0.027916626 -0.00070304776 0.99961001,
  -0.021047413 -0.0022347777 0.99977598,-0.0070164816 -0.00063988888 0.99997518] }
}
}
DEF SHAPE_46 Shape {
 appearance USE APP_4
 geometry DEF FACE_46 IndexedFaceSet {
  coord DEF COORD_46 Coordinate { point [
  20.814961 8.4165356 -1.6338583,20.865909 8.4232431 -1.6338583,
  20.913386 8.4429085 -1.6338583,20.954155 8.4741917 -1.6338583,
  20.985438 8.5149608 -1.6338583,21.005104 8.5624373 -1.6338583,
  21.011811 8.613386 -1.6338583,21.011811 6.0543308 -1.6338583,
  21.005104 6.1052795 -1.6338583,20.985438 6.152756 -1.6338583,
  20.954155 6.1935251 -1.6338583,20.913386 6.2248083 -1.6338583,
  20.865909 6.2444737 -1.6338583,20.814961 6.2511812 -1.6338583,
  17.862205 6.2511812 -1.6338583,17.862205 8.4165356 -1.6338583] }
 coordIndex [
  3,11,10,-1,4,10,9,-1,4,3,10,-1,2,12,11,-1,2,11,3,-1,1,13,12,-1,1,12,2,-1,5,9,8,-1,
  5,4,9,-1,0,13,1,-1,14,13,0,-1,15,14,0,-1,6,8,7,-1,6,5,8,-1]
  normalPerVertex TRUE
  normal DEF NORM_46 Normal { vector [
  0 0 1,0 0 1,
  0 0 1,0 0 1,
  0 0 1,0 0 1,
  0 0 1,0 0 1,
  0 0 1,0 0 1,
  0 0 1,0 0 1,
  0 0 1,0 0 1,
  0 0 1,0 0 1] }
}
}
DEF SHAPE_47 Shape {
 appearance USE APP_4
 geometry DEF FACE_47 IndexedFaceSet {
  coord DEF COORD_47 Coordinate { point [
  21.011811 5.4834647 -0.059055118,21.199547 5.4834647 -0.081762862,
  21.376454 5.4834647 -0.14857636,21.532329 5.4834647 -0.25564198,
  21.658183 5.4834647 -0.39678441,21.746755 5.4834647 -0.56386288,
  21.792937 5.4834647 -0.74724071,21.794066 5.4834647 -0.93634109,
  21.750076 5.4834647 -1.1202571,21.663504 5.4834647 -1.288381,
  21.539345 5.4834647 -1.4310157,21.384759 5.4834647 -1.5399345,
  21.208662 5.4834647 -1.608855,20.22441 5.4834647 -0.059055118,
  20.22441 5.4834647 -0.019685039,21.011811 5.4834647 -0.019685039,
  21.209755 5.4834647 -0.043730247,21.396184 5.4834647 -0.11446724,
  21.560257 5.4834647 -0.22778151,21.692428 5.4834647 -0.37708194,
  21.785009 5.4834647 -0.55368427,21.832617 5.4834647 -0.74731614,
  21.832481 5.4834647 -0.94671467,21.78461 5.4834647 -1.1402815,
  21.691788 5.4834647 -1.3167577,21.559414 5.4834647 -1.465878,
  21.395187 5.4834647 -1.5789688,21.208662 5.4834647 -1.6494519] }
 coordIndex [
  26,12,27,-1,11,12,26,-1,25,11,26,-1,10,11,25,-1,24,10,25,-1,9,10,24,-1,23,8,9,-1,23,9,24,-1,
  22,7,8,-1,22,8,23,-1,15,13,0,-1,15,14,13,-1,21,6,7,-1,21,7,22,-1,1,15,0,-1,16,15,1,-1,
  2,16,1,-1,20,5,6,-1,20,6,21,-1,17,2,3,-1,17,16,2,-1,19,4,5,-1,19,5,20,-1,18,3,4,-1,
  18,17,3,-1,18,4,19,-1]
  normalPerVertex TRUE
  normal DEF NORM_47 Normal { vector [
  0 -1 0,0 -1 0,
  0 -1 0,0 -1 0,
  0 -1 0,0 -1 0,
  0 -1 0,0 -1 0,
  0 -1 0,0 -1 0,
  0 -1 0,0 -1 0,
  0 -1 0,0 -1 0,
  0 -1 0,0 -1 0,
  0 -1 0,0 -1 0,
  0 -1 0,0 -1 0,
  0 -1 0,0 -1 0,
  0 -1 0,0 -1 0,
  0 -1 0,0 -1 0,
  0 -1 0,0 -1 0] }
}
}
DEF SHAPE_48 Shape {
 appearance USE APP_4
 geometry DEF FACE_48 IndexedFaceSet {
  coord DEF COORD_48 Coordinate { point [
  17.862205 6.2511812 -1.6338583,17.862205 8.4165356 -1.6338583,
  17.862205 6.2511812 -1.6732283,17.862205 8.4165356 -1.6732283] }
 coordIndex [
  3,0,1,-1,3,2,0,-1]
  normalPerVertex TRUE
  normal DEF NORM_48 Normal { vector [
  -1 0 0,-1 0 0,
  -1 0 0,-1 0 0] }
}
}
] }
DEF TXFM_8 Transform {
  center 0 0 0
  rotation 0 0 1 0
  scale 1 1 1
  scaleOrientation 0 0 1 0
  translation 0 0 0
 children [
DEF SHAPE_49 Shape {
 appearance USE APP_2
 geometry DEF FACE_49 IndexedFaceSet {
  coord DEF COORD_49 Coordinate { point [
  17.862205 6.2511812 -1.6732283,19.633858 6.2511812 -1.6732283,
  17.862205 6.2511812 -1.7519685,19.633858 6.2511812 -1.7519685] }
 coordIndex [
  2,1,0,-1,2,3,1,-1]
  normalPerVertex TRUE
  normal DEF NORM_49 Normal { vector [
  0 -1 0,0 -1 0,
  0 -1 0,0 -1 0] }
}
}
DEF SHAPE_50 Shape {
 appearance USE APP_2
 geometry DEF FACE_50 IndexedFaceSet {
  coord DEF COORD_50 Coordinate { point [
  19.633858 6.2511812 -1.6732283,19.633858 8.4165356 -1.6732283,
  19.633858 6.2511812 -1.7519685,19.633858 8.4165356 -1.7519685] }
 coordIndex [
  2,1,0,-1,2,3,1,-1]
  normalPerVertex TRUE
  normal DEF NORM_50 Normal { vector [
  1 0 0,1 0 0,
  1 0 0,1 0 0] }
}
}
DEF SHAPE_51 Shape {
 appearance USE APP_2
 geometry DEF FACE_51 IndexedFaceSet {
  coord DEF COORD_51 Coordinate { point [
  17.862205 8.4165356 -1.6732283,19.633858 8.4165356 -1.6732283,
  19.633858 8.4165356 -1.7519685,17.862205 8.4165356 -1.7519685] }
 coordIndex [
  2,0,1,-1,2,3,0,-1]
  normalPerVertex TRUE
  normal DEF NORM_51 Normal { vector [
  0 1 0,0 1 0,
  0 1 0,0 1 0] }
}
}
DEF SHAPE_52 Shape {
 appearance USE APP_2
 geometry DEF FACE_52 IndexedFaceSet {
  coord DEF COORD_52 Coordinate { point [
  17.862205 6.2511812 -1.6732283,17.862205 8.4165356 -1.6732283,
  17.862205 8.4165356 -1.7519685,17.862205 6.2511812 -1.7519685] }
 coordIndex [
  2,0,1,-1,2,3,0,-1]
  normalPerVertex TRUE
  normal DEF NORM_52 Normal { vector [
  -1 0 0,-1 0 0,
  -1 0 0,-1 0 0] }
}
}
DEF SHAPE_53 Shape {
 appearance USE APP_2
 geometry DEF FACE_53 IndexedFaceSet {
  coord DEF COORD_53 Coordinate { point [
  17.862205 6.2511812 -1.7519685,17.862205 8.4165356 -1.7519685,
  19.633858 8.4165356 -1.7519685,19.633858 6.2511812 -1.7519685] }
 coordIndex [
  1,2,3,-1,1,3,0,-1]
  normalPerVertex TRUE
  normal DEF NORM_53 Normal { vector [
  0 0 -1,0 0 -1,
  0 0 -1,0 0 -1] }
}
}
DEF SHAPE_54 Shape {
 appearance USE APP_2
 geometry DEF FACE_54 IndexedFaceSet {
  coord DEF COORD_54 Coordinate { point [
  17.862205 8.4165356 -1.6732283,19.633858 8.4165356 -1.6732283,
  19.633858 6.2511812 -1.6732283,17.862205 6.2511812 -1.6732283] }
 coordIndex [
  2,1,0,-1,2,0,3,-1]
  normalPerVertex TRUE
  normal DEF NORM_54 Normal { vector [
  0 0 1,0 0 1,
  0 0 1,0 0 1] }
}
}
] }
] }
] }
