<?xml version="1.0" encoding="UTF-8"?>
<svg xmlns="http://www.w3.org/2000/svg" xmlns:xlink="http://www.w3.org/1999/xlink"
     width="1288.25" height="621.5" viewBox="-5 -5 257.65 124.30000000000001">
<defs>
<marker markerWidth="4.0" markerHeight="4.04" viewBox="-0.1 -0.51 1.0 1.01" orient="auto" id="d0">
<path d="M-0.1,0.5 L-0.1,-0.5 L0.9,0 Z" fill="orchid" />
</marker>
<marker markerWidth="4.0" markerHeight="4.04" viewBox="-0.1 -0.51 1.0 1.01" orient="auto" id="d1">
<path d="M-0.1,0.5 L-0.1,-0.5 L0.9,0 Z" fill="teal" />
</marker>
</defs>
<rect x="-5" y="-5" width="257.65" height="124.30000000000001" fill="black" rx="2.5" ry="2.5" />
<rect x="0.0" y="19.05" width="19.05" height="19.05" rx="2.5" ry="2.5" fill="darkslategray" stroke="deeppink" stroke-width="0.5" />
<rect x="19.05" y="19.05" width="19.05" height="19.05" rx="2.5" ry="2.5" fill="darkslategray" stroke="deeppink" stroke-width="0.5" />
<rect x="38.1" y="19.05" width="19.05" height="19.05" rx="2.5" ry="2.5" fill="darkslategray" stroke="deeppink" stroke-width="0.5" />
<rect x="57.150000000000006" y="19.05" width="19.05" height="19.05" rx="2.5" ry="2.5" fill="darkslategray" stroke="deeppink" stroke-width="0.5" />
<rect x="76.2" y="19.05" width="19.05" height="19.05" rx="2.5" ry="2.5" fill="darkslategray" stroke="deeppink" stroke-width="0.5" />
<rect x="95.25" y="19.05" width="19.05" height="19.05" rx="2.5" ry="2.5" fill="darkslategray" stroke="deeppink" stroke-width="0.5" />
<rect x="114.30000000000001" y="19.05" width="19.05" height="19.05" rx="2.5" ry="2.5" fill="darkslategray" stroke="deeppink" stroke-width="0.5" />
<rect x="133.35" y="19.05" width="19.05" height="19.05" rx="2.5" ry="2.5" fill="darkslategray" stroke="deeppink" stroke-width="0.5" />
<rect x="152.4" y="19.05" width="19.05" height="19.05" rx="2.5" ry="2.5" fill="darkslategray" stroke="deeppink" stroke-width="0.5" />
<rect x="171.45000000000002" y="19.05" width="19.05" height="19.05" rx="2.5" ry="2.5" fill="darkslategray" stroke="deeppink" stroke-width="0.5" />
<rect x="190.5" y="19.05" width="19.05" height="19.05" rx="2.5" ry="2.5" fill="darkslategray" stroke="deeppink" stroke-width="0.5" />
<rect x="209.55" y="19.05" width="19.05" height="19.05" rx="2.5" ry="2.5" fill="darkslategray" stroke="deeppink" stroke-width="0.5" />
<rect x="228.60000000000002" y="19.05" width="19.05" height="19.05" rx="2.5" ry="2.5" fill="darkslategray" stroke="deeppink" stroke-width="0.5" />
<rect x="0.0" y="38.1" width="19.05" height="19.05" rx="2.5" ry="2.5" fill="darkslategray" stroke="deeppink" stroke-width="0.5" />
<rect x="19.05" y="38.1" width="19.05" height="19.05" rx="2.5" ry="2.5" fill="darkslategray" stroke="deeppink" stroke-width="0.5" />
<rect x="38.1" y="38.1" width="19.05" height="19.05" rx="2.5" ry="2.5" fill="darkslategray" stroke="deeppink" stroke-width="0.5" />
<rect x="57.150000000000006" y="38.1" width="19.05" height="19.05" rx="2.5" ry="2.5" fill="darkslategray" stroke="deeppink" stroke-width="0.5" />
<rect x="76.2" y="38.1" width="19.05" height="19.05" rx="2.5" ry="2.5" fill="darkslategray" stroke="deeppink" stroke-width="0.5" />
<rect x="95.25" y="38.1" width="19.05" height="19.05" rx="2.5" ry="2.5" fill="darkslategray" stroke="deeppink" stroke-width="0.5" />
<rect x="114.30000000000001" y="38.1" width="19.05" height="19.05" rx="2.5" ry="2.5" fill="darkslategray" stroke="deeppink" stroke-width="0.5" />
<rect x="133.35" y="38.1" width="19.05" height="19.05" rx="2.5" ry="2.5" fill="darkslategray" stroke="deeppink" stroke-width="0.5" />
<rect x="152.4" y="38.1" width="19.05" height="19.05" rx="2.5" ry="2.5" fill="darkslategray" stroke="deeppink" stroke-width="0.5" />
<rect x="171.45000000000002" y="38.1" width="19.05" height="19.05" rx="2.5" ry="2.5" fill="darkslategray" stroke="deeppink" stroke-width="0.5" />
<rect x="190.5" y="38.1" width="19.05" height="19.05" rx="2.5" ry="2.5" fill="darkslategray" stroke="deeppink" stroke-width="0.5" />
<rect x="209.55" y="38.1" width="19.05" height="19.05" rx="2.5" ry="2.5" fill="darkslategray" stroke="deeppink" stroke-width="0.5" />
<rect x="228.60000000000002" y="38.1" width="19.05" height="19.05" rx="2.5" ry="2.5" fill="darkslategray" stroke="deeppink" stroke-width="0.5" />
<rect x="0.0" y="57.150000000000006" width="19.05" height="19.05" rx="2.5" ry="2.5" fill="darkslategray" stroke="deeppink" stroke-width="0.5" />
<rect x="19.05" y="57.150000000000006" width="19.05" height="19.05" rx="2.5" ry="2.5" fill="darkslategray" stroke="deeppink" stroke-width="0.5" />
<rect x="38.1" y="57.150000000000006" width="19.05" height="19.05" rx="2.5" ry="2.5" fill="darkslategray" stroke="deeppink" stroke-width="0.5" />
<rect x="57.150000000000006" y="57.150000000000006" width="19.05" height="19.05" rx="2.5" ry="2.5" fill="darkslategray" stroke="deeppink" stroke-width="0.5" />
<rect x="76.2" y="57.150000000000006" width="19.05" height="19.05" rx="2.5" ry="2.5" fill="darkslategray" stroke="deeppink" stroke-width="0.5" />
<rect x="95.25" y="57.150000000000006" width="19.05" height="19.05" rx="2.5" ry="2.5" fill="darkslategray" stroke="deeppink" stroke-width="0.5" />
<rect x="114.30000000000001" y="57.150000000000006" width="19.05" height="19.05" rx="2.5" ry="2.5" fill="darkslategray" stroke="deeppink" stroke-width="0.5" />
<rect x="133.35" y="57.150000000000006" width="19.05" height="19.05" rx="2.5" ry="2.5" fill="darkslategray" stroke="deeppink" stroke-width="0.5" />
<rect x="152.4" y="57.150000000000006" width="19.05" height="19.05" rx="2.5" ry="2.5" fill="darkslategray" stroke="deeppink" stroke-width="0.5" />
<rect x="171.45000000000002" y="57.150000000000006" width="19.05" height="19.05" rx="2.5" ry="2.5" fill="darkslategray" stroke="deeppink" stroke-width="0.5" />
<rect x="190.5" y="57.150000000000006" width="19.05" height="19.05" rx="2.5" ry="2.5" fill="darkslategray" stroke="deeppink" stroke-width="0.5" />
<rect x="209.55" y="57.150000000000006" width="19.05" height="19.05" rx="2.5" ry="2.5" fill="darkslategray" stroke="deeppink" stroke-width="0.5" />
<rect x="228.60000000000002" y="57.150000000000006" width="19.05" height="19.05" rx="2.5" ry="2.5" fill="darkslategray" stroke="deeppink" stroke-width="0.5" />
<rect x="0.0" y="76.2" width="19.05" height="19.05" rx="2.5" ry="2.5" fill="darkslategray" stroke="deeppink" stroke-width="0.5" />
<rect x="19.05" y="76.2" width="19.05" height="19.05" rx="2.5" ry="2.5" fill="darkslategray" stroke="deeppink" stroke-width="0.5" />
<rect x="38.1" y="76.2" width="19.05" height="19.05" rx="2.5" ry="2.5" fill="darkslategray" stroke="deeppink" stroke-width="0.5" />
<rect x="57.150000000000006" y="76.2" width="19.05" height="19.05" rx="2.5" ry="2.5" fill="darkslategray" stroke="deeppink" stroke-width="0.5" />
<rect x="76.2" y="76.2" width="19.05" height="19.05" rx="2.5" ry="2.5" fill="darkslategray" stroke="deeppink" stroke-width="0.5" />
<rect x="95.25" y="76.2" width="19.05" height="19.05" rx="2.5" ry="2.5" fill="darkslategray" stroke="deeppink" stroke-width="0.5" />
<rect x="114.30000000000001" y="76.2" width="19.05" height="19.05" rx="2.5" ry="2.5" fill="darkslategray" stroke="deeppink" stroke-width="0.5" />
<rect x="133.35" y="76.2" width="19.05" height="19.05" rx="2.5" ry="2.5" fill="darkslategray" stroke="deeppink" stroke-width="0.5" />
<rect x="152.4" y="76.2" width="19.05" height="19.05" rx="2.5" ry="2.5" fill="darkslategray" stroke="deeppink" stroke-width="0.5" />
<rect x="171.45000000000002" y="76.2" width="19.05" height="19.05" rx="2.5" ry="2.5" fill="darkslategray" stroke="deeppink" stroke-width="0.5" />
<rect x="190.5" y="76.2" width="19.05" height="19.05" rx="2.5" ry="2.5" fill="darkslategray" stroke="deeppink" stroke-width="0.5" />
<rect x="209.55" y="76.2" width="19.05" height="19.05" rx="2.5" ry="2.5" fill="darkslategray" stroke="deeppink" stroke-width="0.5" />
<rect x="228.60000000000002" y="76.2" width="19.05" height="19.05" rx="2.5" ry="2.5" fill="darkslategray" stroke="deeppink" stroke-width="0.5" />
<rect x="0.0" y="95.25" width="19.05" height="19.05" rx="2.5" ry="2.5" fill="darkslategray" stroke="deeppink" stroke-width="0.5" />
<rect x="19.05" y="95.25" width="19.05" height="19.05" rx="2.5" ry="2.5" fill="darkslategray" stroke="deeppink" stroke-width="0.5" />
<rect x="38.1" y="95.25" width="19.05" height="19.05" rx="2.5" ry="2.5" fill="darkslategray" stroke="deeppink" stroke-width="0.5" />
<rect x="57.150000000000006" y="95.25" width="19.05" height="19.05" rx="2.5" ry="2.5" fill="darkslategray" stroke="deeppink" stroke-width="0.5" />
<rect x="76.2" y="95.25" width="19.05" height="19.05" rx="2.5" ry="2.5" fill="darkslategray" stroke="deeppink" stroke-width="0.5" />
<rect x="95.25" y="95.25" width="19.05" height="19.05" rx="2.5" ry="2.5" fill="darkslategray" stroke="deeppink" stroke-width="0.5" />
<rect x="114.30000000000001" y="95.25" width="19.05" height="19.05" rx="2.5" ry="2.5" fill="darkslategray" stroke="deeppink" stroke-width="0.5" />
<rect x="133.35" y="95.25" width="19.05" height="19.05" rx="2.5" ry="2.5" fill="darkslategray" stroke="deeppink" stroke-width="0.5" />
<rect x="152.4" y="95.25" width="19.05" height="19.05" rx="2.5" ry="2.5" fill="darkslategray" stroke="deeppink" stroke-width="0.5" />
<rect x="171.45000000000002" y="95.25" width="19.05" height="19.05" rx="2.5" ry="2.5" fill="darkslategray" stroke="deeppink" stroke-width="0.5" />
<rect x="190.5" y="95.25" width="19.05" height="19.05" rx="2.5" ry="2.5" fill="darkslategray" stroke="deeppink" stroke-width="0.5" />
<rect x="209.55" y="95.25" width="19.05" height="19.05" rx="2.5" ry="2.5" fill="darkslategray" stroke="deeppink" stroke-width="0.5" />
<rect x="228.60000000000002" y="95.25" width="19.05" height="19.05" rx="2.5" ry="2.5" fill="darkslategray" stroke="deeppink" stroke-width="0.5" />
<circle cx="9.525" cy="9.525" r="9.525" stroke="fuchsia" stroke-width="0.5" />
<path d="M16.260192090801866,16.260192090801866 L16.26013331490654,16.26025086618428" stroke="fuchsia" stroke-width="0.5" fill="none" marker-end="url(#d0)" />
<path d="M2.7898079091981334,2.789807909198135 L2.7898666850934584,2.789749133815725" stroke="fuchsia" stroke-width="0.5" fill="none" marker-end="url(#d0)" />
<path d="M2.789807909198135,16.260192090801866 L2.789866685093461,16.26025086618428" stroke="fuchsia" stroke-width="0.5" fill="none" marker-end="url(#d1)" />
<path d="M16.260192090801866,2.7898079091981334 L16.26013331490654,2.7897491338157234" stroke="fuchsia" stroke-width="0.5" fill="none" marker-end="url(#d1)" />
<text x="9.525" y="28.575000000000003" font-size="6" fill="peachpuff" text-anchor="middle" dominant-baseline="central">`</text>
<text x="28.575000000000003" y="28.575000000000003" font-size="6" fill="peachpuff" text-anchor="middle" dominant-baseline="central">🕨</text>
<text x="47.625" y="28.575000000000003" font-size="6" fill="peachpuff" text-anchor="middle" dominant-baseline="central">🕪</text>
<text x="66.67500000000001" y="28.575000000000003" font-size="6" fill="peachpuff" text-anchor="middle" dominant-baseline="central">🕩</text>
<text x="85.72500000000001" y="28.575000000000003" font-size="6" fill="peachpuff" text-anchor="middle" dominant-baseline="central">⏮</text>
<text x="104.775" y="28.575000000000003" font-size="6" fill="peachpuff" text-anchor="middle" dominant-baseline="central">⏯</text>
<text x="123.82500000000002" y="28.575000000000003" font-size="6" fill="peachpuff" text-anchor="middle" dominant-baseline="central">⏭</text>
<text x="142.875" y="28.575000000000003" font-size="6" fill="peachpuff" text-anchor="middle" dominant-baseline="central">🖵</text>
<text x="161.925" y="28.575000000000003" font-size="6" fill="peachpuff" text-anchor="middle" dominant-baseline="central">⏾</text>
<text x="180.97500000000002" y="28.575000000000003" font-size="6" fill="peachpuff" text-anchor="middle" dominant-baseline="central">⏽</text>
<text x="200.025" y="28.575000000000003" font-size="6" fill="peachpuff" text-anchor="middle" dominant-baseline="central">🖶</text>
<text x="219.07500000000002" y="28.575000000000003" font-size="6" fill="peachpuff" text-anchor="middle" dominant-baseline="central">⌦</text>
<text x="238.12500000000003" y="28.575000000000003" font-size="6" fill="peachpuff" text-anchor="middle" dominant-baseline="central">=</text>
<text x="9.525" y="9.525" font-size="6" fill="peachpuff" text-anchor="middle" dominant-baseline="central"></text>
<text x="9.525" y="47.625" font-size="6" fill="peachpuff" text-anchor="middle"><tspan x="9.525" dy="0.0em">🖰</tspan><tspan x="9.525" dy="1em">3</tspan></text>
<text x="28.575000000000003" y="47.625" font-size="6" fill="peachpuff" text-anchor="middle"><tspan x="28.575000000000003" dy="0.0em">σ</tspan><tspan x="28.575000000000003" dy="1em">ϕ</tspan></text>
<text x="47.625" y="47.625" font-size="6" fill="peachpuff" text-anchor="middle"><tspan x="47.625" dy="0.0em">ω</tspan><tspan x="47.625" dy="1em">Ω</tspan></text>
<text x="66.67500000000001" y="47.625" font-size="6" fill="peachpuff" text-anchor="middle"><tspan x="66.67500000000001" dy="0.0em">ε</tspan><tspan x="66.67500000000001" dy="1em">ℇ</tspan></text>
<text x="85.72500000000001" y="47.625" font-size="6" fill="peachpuff" text-anchor="middle"><tspan x="85.72500000000001" dy="0.0em">ρ</tspan><tspan x="85.72500000000001" dy="1em">∇</tspan></text>
<text x="104.775" y="47.625" font-size="6" fill="peachpuff" text-anchor="middle"><tspan x="104.775" dy="0.0em">ϑ</tspan><tspan x="104.775" dy="1em">θ</tspan></text>
<text x="123.82500000000002" y="47.625" font-size="6" fill="peachpuff" text-anchor="middle"><tspan x="123.82500000000002" dy="0.0em">ℝ</tspan><tspan x="123.82500000000002" dy="1em">ℤ</tspan></text>
<text x="142.875" y="47.625" font-size="6" fill="peachpuff" text-anchor="middle"><tspan x="142.875" dy="0.0em">τ</tspan><tspan x="142.875" dy="1em">ℂ</tspan></text>
<text x="161.925" y="47.625" font-size="6" fill="peachpuff" text-anchor="middle"><tspan x="161.925" dy="0.0em">∫</tspan><tspan x="161.925" dy="1em">∮</tspan></text>
<text x="180.97500000000002" y="47.625" font-size="6" fill="peachpuff" text-anchor="middle"><tspan x="180.97500000000002" dy="0.0em">∞</tspan><tspan x="180.97500000000002" dy="1em">⊗</tspan></text>
<text x="200.025" y="47.625" font-size="6" fill="peachpuff" text-anchor="middle"><tspan x="200.025" dy="0.0em">π</tspan><tspan x="200.025" dy="1em">∏</tspan></text>
<text x="219.07500000000002" y="47.625" font-size="6" fill="peachpuff" text-anchor="middle"><tspan x="219.07500000000002" dy="0.0em">⋜</tspan><tspan x="219.07500000000002" dy="1em">≠</tspan></text>
<text x="238.12500000000003" y="47.625" font-size="6" fill="peachpuff" text-anchor="middle"><tspan x="238.12500000000003" dy="0.0em">⋝</tspan><tspan x="238.12500000000003" dy="1em">≅</tspan></text>
<text x="9.525" y="66.67500000000001" font-size="6" fill="peachpuff" text-anchor="middle"><tspan x="9.525" dy="0.0em">🖰</tspan><tspan x="9.525" dy="1em">2</tspan></text>
<text x="28.575000000000003" y="66.67500000000001" font-size="6" fill="peachpuff" text-anchor="middle"><tspan x="28.575000000000003" dy="0.0em">α</tspan><tspan x="28.575000000000003" dy="1em">Α</tspan></text>
<text x="47.625" y="66.67500000000001" font-size="6" fill="peachpuff" text-anchor="middle"><tspan x="47.625" dy="0.0em">∑</tspan><tspan x="47.625" dy="1em">⨋</tspan></text>
<text x="66.67500000000001" y="66.67500000000001" font-size="6" fill="peachpuff" text-anchor="middle"><tspan x="66.67500000000001" dy="0.0em">δ</tspan><tspan x="66.67500000000001" dy="1em">∂</tspan></text>
<text x="85.72500000000001" y="66.67500000000001" font-size="6" fill="peachpuff" text-anchor="middle"><tspan x="85.72500000000001" dy="0.0em">φ</tspan><tspan x="85.72500000000001" dy="1em">ψ</tspan></text>
<text x="104.775" y="66.67500000000001" font-size="6" fill="peachpuff" text-anchor="middle"><tspan x="104.775" dy="0.0em">γ</tspan><tspan x="104.775" dy="1em">Γ</tspan></text>
<text x="123.82500000000002" y="66.67500000000001" font-size="6" fill="peachpuff" text-anchor="middle"><tspan x="123.82500000000002" dy="0.0em">ℏ</tspan><tspan x="123.82500000000002" dy="1em">ℋ</tspan></text>
<text x="142.875" y="66.67500000000001" font-size="6" fill="peachpuff" text-anchor="middle"><tspan x="142.875" dy="0.0em">∈</tspan><tspan x="142.875" dy="1em">∉</tspan></text>
<text x="161.925" y="66.67500000000001" font-size="6" fill="peachpuff" text-anchor="middle"><tspan x="161.925" dy="0.0em">ϰ</tspan><tspan x="161.925" dy="1em">∆</tspan></text>
<text x="180.97500000000002" y="66.67500000000001" font-size="6" fill="peachpuff" text-anchor="middle"><tspan x="180.97500000000002" dy="0.0em">λ</tspan><tspan x="180.97500000000002" dy="1em">Λ</tspan></text>
<text x="200.025" y="66.67500000000001" font-size="6" fill="peachpuff" text-anchor="middle"><tspan x="200.025" dy="0.0em">ᵓC</tspan><tspan x="200.025" dy="1em">ℒ</tspan></text>
<text x="219.07500000000002" y="66.67500000000001" font-size="6" fill="peachpuff" text-anchor="middle"><tspan x="219.07500000000002" dy="0.0em">∝</tspan><tspan x="219.07500000000002" dy="1em">Å</tspan></text>
<text x="238.12500000000003" y="66.67500000000001" font-size="6" fill="peachpuff" text-anchor="middle" dominant-baseline="central"></text>
<text x="9.525" y="85.72500000000001" font-size="6" fill="peachpuff" text-anchor="middle" dominant-baseline="central"></text>
<text x="28.575000000000003" y="85.72500000000001" font-size="6" fill="peachpuff" text-anchor="middle"><tspan x="28.575000000000003" dy="0.0em">≡</tspan><tspan x="28.575000000000003" dy="1em">≢</tspan></text>
<text x="47.625" y="85.72500000000001" font-size="6" fill="peachpuff" text-anchor="middle"><tspan x="47.625" dy="0.0em">ζ</tspan><tspan x="47.625" dy="1em">∡</tspan></text>
<text x="66.67500000000001" y="85.72500000000001" font-size="6" fill="peachpuff" text-anchor="middle"><tspan x="66.67500000000001" dy="0.0em">ξ</tspan><tspan x="66.67500000000001" dy="1em">Ξ</tspan></text>
<text x="85.72500000000001" y="85.72500000000001" font-size="6" fill="peachpuff" text-anchor="middle"><tspan x="85.72500000000001" dy="0.0em">χ</tspan><tspan x="85.72500000000001" dy="1em">⊂</tspan></text>
<text x="104.775" y="85.72500000000001" font-size="6" fill="peachpuff" text-anchor="middle"><tspan x="104.775" dy="0.0em">ν</tspan><tspan x="104.775" dy="1em">⊃</tspan></text>
<text x="123.82500000000002" y="85.72500000000001" font-size="6" fill="peachpuff" text-anchor="middle"><tspan x="123.82500000000002" dy="0.0em">β</tspan><tspan x="123.82500000000002" dy="1em">∩</tspan></text>
<text x="142.875" y="85.72500000000001" font-size="6" fill="peachpuff" text-anchor="middle"><tspan x="142.875" dy="0.0em">η</tspan><tspan x="142.875" dy="1em">∪</tspan></text>
<text x="161.925" y="85.72500000000001" font-size="6" fill="peachpuff" text-anchor="middle"><tspan x="161.925" dy="0.0em">μ</tspan><tspan x="161.925" dy="1em">∘</tspan></text>
<text x="180.97500000000002" y="85.72500000000001" font-size="6" fill="peachpuff" text-anchor="middle"><tspan x="180.97500000000002" dy="0.0em">≈</tspan><tspan x="180.97500000000002" dy="1em">≉</tspan></text>
<text x="200.025" y="85.72500000000001" font-size="6" fill="peachpuff" text-anchor="middle"><tspan x="200.025" dy="0.0em">±</tspan><tspan x="200.025" dy="1em">∓</tspan></text>
<text x="219.07500000000002" y="85.72500000000001" font-size="6" fill="peachpuff" text-anchor="middle"><tspan x="219.07500000000002" dy="0.0em">↟</tspan><tspan x="219.07500000000002" dy="1em">🖰</tspan></text>
<text x="238.12500000000003" y="85.72500000000001" font-size="6" fill="peachpuff" text-anchor="middle"><tspan x="238.12500000000003" dy="0.0em">×</tspan><tspan x="238.12500000000003" dy="1em">⋅</tspan></text>
<text x="9.525" y="104.775" font-size="6" fill="peachpuff" text-anchor="middle"><tspan x="9.525" dy="0.0em">🖰</tspan><tspan x="9.525" dy="1em">1</tspan></text>
<text x="28.575000000000003" y="104.775" font-size="6" fill="peachpuff" text-anchor="middle"><tspan x="28.575000000000003" dy="0.0em">🖰</tspan><tspan x="28.575000000000003" dy="1em">4</tspan></text>
<text x="47.625" y="104.775" font-size="6" fill="peachpuff" text-anchor="middle" dominant-baseline="central"></text>
<text x="66.67500000000001" y="104.775" font-size="6" fill="peachpuff" text-anchor="middle" dominant-baseline="central"></text>
<text x="85.72500000000001" y="104.775" font-size="6" fill="peachpuff" text-anchor="middle" dominant-baseline="central"></text>
<text x="104.775" y="104.775" font-size="6" fill="peachpuff" text-anchor="middle" dominant-baseline="central"></text>
<text x="123.82500000000002" y="104.775" font-size="6" fill="peachpuff" text-anchor="middle" dominant-baseline="central"></text>
<text x="142.875" y="104.775" font-size="6" fill="peachpuff" text-anchor="middle" dominant-baseline="central"></text>
<text x="161.925" y="104.775" font-size="6" fill="peachpuff" text-anchor="middle" dominant-baseline="central"></text>
<text x="180.97500000000002" y="104.775" font-size="6" fill="peachpuff" text-anchor="middle" dominant-baseline="central"></text>
<text x="200.025" y="104.775" font-size="6" fill="peachpuff" text-anchor="middle"><tspan x="200.025" dy="0.0em">↞</tspan><tspan x="200.025" dy="1em">🖰</tspan></text>
<text x="219.07500000000002" y="104.775" font-size="6" fill="peachpuff" text-anchor="middle"><tspan x="219.07500000000002" dy="0.0em">🖰</tspan><tspan x="219.07500000000002" dy="1em">↡</tspan></text>
<text x="238.12500000000003" y="104.775" font-size="6" fill="peachpuff" text-anchor="middle"><tspan x="238.12500000000003" dy="0.0em">🖰</tspan><tspan x="238.12500000000003" dy="1em">↠</tspan></text>
<circle cx="9.525" cy="28.575000000000003" r="5" fill="lightpink" stroke="none" opacity="0.16" stroke-width="0.5">
<title>
  code KC_GRV
matrix (0,0)
       0-A
   col NO_PIN
   row GP1</title>
</circle>
<circle cx="28.575000000000003" cy="28.575000000000003" r="5" fill="lightpink" stroke="none" opacity="0.16" stroke-width="0.5">
<title>
  code KC_MUTE
matrix (0,1)
       0-B
   col NO_PIN
   row GP1</title>
</circle>
<circle cx="47.625" cy="28.575000000000003" r="5" fill="lightpink" stroke="none" opacity="0.16" stroke-width="0.5">
<title>
  code KC_VOLU
matrix (0,2)
       0-C
   col NO_PIN
   row GP1</title>
</circle>
<circle cx="66.67500000000001" cy="28.575000000000003" r="5" fill="lightpink" stroke="none" opacity="0.16" stroke-width="0.5">
<title>
  code KC_VOLD
matrix (0,3)
       0-D
   col NO_PIN
   row GP1</title>
</circle>
<circle cx="85.72500000000001" cy="28.575000000000003" r="5" fill="lightpink" stroke="none" opacity="0.16" stroke-width="0.5">
<title>
  code KC_MPRV
matrix (0,4)
       0-E
   col NO_PIN
   row GP1</title>
</circle>
<circle cx="104.775" cy="28.575000000000003" r="5" fill="lightpink" stroke="none" opacity="0.16" stroke-width="0.5">
<title>
  code KC_MPLY
matrix (0,5)
       0-F
   col NO_PIN
   row GP1</title>
</circle>
<circle cx="123.82500000000002" cy="28.575000000000003" r="5" fill="lightpink" stroke="none" opacity="0.16" stroke-width="0.5">
<title>
  code KC_MNXT
matrix (0,6)
       0-G
   col NO_PIN
   row GP1</title>
</circle>
<circle cx="142.875" cy="28.575000000000003" r="5" fill="lightpink" stroke="none" opacity="0.16" stroke-width="0.5">
<title>
  code G(KC_P)
matrix (0,7)
       0-H
   col NO_PIN
   row GP1</title>
</circle>
<circle cx="161.925" cy="28.575000000000003" r="5" fill="lightpink" stroke="none" opacity="0.16" stroke-width="0.5">
<title>
  code KC_SLEP
matrix (0,8)
       0-I
   col NO_PIN
   row GP1</title>
</circle>
<circle cx="180.97500000000002" cy="28.575000000000003" r="5" fill="lightpink" stroke="none" opacity="0.16" stroke-width="0.5">
<title>
  code KC_WAKE
matrix (0,9)
       0-J
   col NO_PIN
   row GP1</title>
</circle>
<circle cx="200.025" cy="28.575000000000003" r="5" fill="lightpink" stroke="none" opacity="0.16" stroke-width="0.5">
<title>
  code KC_PSCR
matrix (0,10)
       0-K
   col NO_PIN
   row GP1</title>
</circle>
<circle cx="219.07500000000002" cy="28.575000000000003" r="5" fill="lightpink" stroke="none" opacity="0.16" stroke-width="0.5">
<title>
  code KC_DEL
matrix (0,11)
       0-L
   col NO_PIN
   row GP1</title>
</circle>
<circle cx="238.12500000000003" cy="28.575000000000003" r="5" fill="lightpink" stroke="none" opacity="0.16" stroke-width="0.5">
<title>
  code UK_EQL
matrix (0,12)
       0-M
   col NO_PIN
   row GP1</title>
</circle>
<circle cx="9.525" cy="9.525" r="5" fill="lightpink" stroke="none" opacity="0.16" stroke-width="0.5">
<title>
  code KC_TRNS
matrix (0,13)
       0-N
   col NO_PIN
   row GP1</title>
</circle>
<circle cx="9.525" cy="47.625" r="5" fill="lightpink" stroke="none" opacity="0.16" stroke-width="0.5">
<title>
  code KC_BTN3
matrix (1,0)
       1-A
   col NO_PIN
   row GP26</title>
</circle>
<circle cx="28.575000000000003" cy="47.625" r="5" fill="lightpink" stroke="none" opacity="0.16" stroke-width="0.5">
<title>
  code UP(lq,lQ)
matrix (1,1)
       1-B
   col NO_PIN
   row GP26</title>
</circle>
<circle cx="47.625" cy="47.625" r="5" fill="lightpink" stroke="none" opacity="0.16" stroke-width="0.5">
<title>
  code UP(lw,lW)
matrix (1,2)
       1-C
   col NO_PIN
   row GP26</title>
</circle>
<circle cx="66.67500000000001" cy="47.625" r="5" fill="lightpink" stroke="none" opacity="0.16" stroke-width="0.5">
<title>
  code UP(le,lE)
matrix (1,3)
       1-D
   col NO_PIN
   row GP26</title>
</circle>
<circle cx="85.72500000000001" cy="47.625" r="5" fill="lightpink" stroke="none" opacity="0.16" stroke-width="0.5">
<title>
  code UP(lr,lR)
matrix (1,4)
       1-E
   col NO_PIN
   row GP26</title>
</circle>
<circle cx="104.775" cy="47.625" r="5" fill="lightpink" stroke="none" opacity="0.16" stroke-width="0.5">
<title>
  code UP(lt,lT)
matrix (1,5)
       1-F
   col NO_PIN
   row GP26</title>
</circle>
<circle cx="123.82500000000002" cy="47.625" r="5" fill="lightpink" stroke="none" opacity="0.16" stroke-width="0.5">
<title>
  code UP(ly,lY)
matrix (1,6)
       1-G
   col NO_PIN
   row GP26</title>
</circle>
<circle cx="142.875" cy="47.625" r="5" fill="lightpink" stroke="none" opacity="0.16" stroke-width="0.5">
<title>
  code UP(lu,lU)
matrix (1,7)
       1-H
   col NO_PIN
   row GP26</title>
</circle>
<circle cx="161.925" cy="47.625" r="5" fill="lightpink" stroke="none" opacity="0.16" stroke-width="0.5">
<title>
  code UP(li,lI)
matrix (1,8)
       1-I
   col NO_PIN
   row GP26</title>
</circle>
<circle cx="180.97500000000002" cy="47.625" r="5" fill="lightpink" stroke="none" opacity="0.16" stroke-width="0.5">
<title>
  code UP(lo,lO)
matrix (1,9)
       1-J
   col NO_PIN
   row GP26</title>
</circle>
<circle cx="200.025" cy="47.625" r="5" fill="lightpink" stroke="none" opacity="0.16" stroke-width="0.5">
<title>
  code UP(lp,lP)
matrix (1,10)
       1-K
   col NO_PIN
   row GP26</title>
</circle>
<circle cx="219.07500000000002" cy="47.625" r="5" fill="lightpink" stroke="none" opacity="0.16" stroke-width="0.5">
<title>
  code UP(lbo1,lbo2)
matrix (1,11)
       1-L
   col NO_PIN
   row GP26</title>
</circle>
<circle cx="238.12500000000003" cy="47.625" r="5" fill="lightpink" stroke="none" opacity="0.16" stroke-width="0.5">
<title>
  code UP(lbc1,lbc2)
matrix (1,12)
       1-M
   col NO_PIN
   row GP26</title>
</circle>
<circle cx="9.525" cy="66.67500000000001" r="5" fill="lightpink" stroke="none" opacity="0.16" stroke-width="0.5">
<title>
  code KC_BTN2
matrix (2,0)
       2-A
   col NO_PIN
   row GP29</title>
</circle>
<circle cx="28.575000000000003" cy="66.67500000000001" r="5" fill="lightpink" stroke="none" opacity="0.16" stroke-width="0.5">
<title>
  code UP(la,lA)
matrix (2,1)
       2-B
   col NO_PIN
   row GP29</title>
</circle>
<circle cx="47.625" cy="66.67500000000001" r="5" fill="lightpink" stroke="none" opacity="0.16" stroke-width="0.5">
<title>
  code UP(ls,lS)
matrix (2,2)
       2-C
   col NO_PIN
   row GP29</title>
</circle>
<circle cx="66.67500000000001" cy="66.67500000000001" r="5" fill="lightpink" stroke="none" opacity="0.16" stroke-width="0.5">
<title>
  code UP(ld,lD)
matrix (2,3)
       2-D
   col NO_PIN
   row GP29</title>
</circle>
<circle cx="85.72500000000001" cy="66.67500000000001" r="5" fill="lightpink" stroke="none" opacity="0.16" stroke-width="0.5">
<title>
  code UP(lf,lF)
matrix (2,4)
       2-E
   col NO_PIN
   row GP29</title>
</circle>
<circle cx="104.775" cy="66.67500000000001" r="5" fill="lightpink" stroke="none" opacity="0.16" stroke-width="0.5">
<title>
  code UP(lg,lG)
matrix (2,5)
       2-F
   col NO_PIN
   row GP29</title>
</circle>
<circle cx="123.82500000000002" cy="66.67500000000001" r="5" fill="lightpink" stroke="none" opacity="0.16" stroke-width="0.5">
<title>
  code UP(lh,lH)
matrix (2,6)
       2-G
   col NO_PIN
   row GP29</title>
</circle>
<circle cx="142.875" cy="66.67500000000001" r="5" fill="lightpink" stroke="none" opacity="0.16" stroke-width="0.5">
<title>
  code UP(lj,lJ)
matrix (2,7)
       2-H
   col NO_PIN
   row GP29</title>
</circle>
<circle cx="161.925" cy="66.67500000000001" r="5" fill="lightpink" stroke="none" opacity="0.16" stroke-width="0.5">
<title>
  code UP(lk,lK)
matrix (2,8)
       2-I
   col NO_PIN
   row GP29</title>
</circle>
<circle cx="180.97500000000002" cy="66.67500000000001" r="5" fill="lightpink" stroke="none" opacity="0.16" stroke-width="0.5">
<title>
  code UP(ll,lL)
matrix (2,9)
       2-J
   col NO_PIN
   row GP29</title>
</circle>
<circle cx="200.025" cy="66.67500000000001" r="5" fill="lightpink" stroke="none" opacity="0.16" stroke-width="0.5">
<title>
  code UP(ll1,lL1)
matrix (2,10)
       2-K
   col NO_PIN
   row GP29</title>
</circle>
<circle cx="219.07500000000002" cy="66.67500000000001" r="5" fill="lightpink" stroke="none" opacity="0.16" stroke-width="0.5">
<title>
  code UP(lk1,lK1)
matrix (2,11)
       2-L
   col NO_PIN
   row GP29</title>
</circle>
<circle cx="238.12500000000003" cy="66.67500000000001" r="5" fill="lightpink" stroke="none" opacity="0.16" stroke-width="0.5">
<title>
  code KC_TRNS
matrix (2,12)
       2-M
   col NO_PIN
   row GP29</title>
</circle>
<circle cx="9.525" cy="85.72500000000001" r="5" fill="lightpink" stroke="none" opacity="0.16" stroke-width="0.5">
<title>
  code KC_TRNS
matrix (3,0)
       3-A
   col NO_PIN
   row GP28</title>
</circle>
<circle cx="28.575000000000003" cy="85.72500000000001" r="5" fill="lightpink" stroke="none" opacity="0.16" stroke-width="0.5">
<title>
  code UP(ls1,ls2)
matrix (3,1)
       3-B
   col NO_PIN
   row GP28</title>
</circle>
<circle cx="47.625" cy="85.72500000000001" r="5" fill="lightpink" stroke="none" opacity="0.16" stroke-width="0.5">
<title>
  code UP(lz,lZ)
matrix (3,2)
       3-C
   col NO_PIN
   row GP28</title>
</circle>
<circle cx="66.67500000000001" cy="85.72500000000001" r="5" fill="lightpink" stroke="none" opacity="0.16" stroke-width="0.5">
<title>
  code UP(lx,lX)
matrix (3,3)
       3-D
   col NO_PIN
   row GP28</title>
</circle>
<circle cx="85.72500000000001" cy="85.72500000000001" r="5" fill="lightpink" stroke="none" opacity="0.16" stroke-width="0.5">
<title>
  code UP(lc,lC)
matrix (3,4)
       3-E
   col NO_PIN
   row GP28</title>
</circle>
<circle cx="104.775" cy="85.72500000000001" r="5" fill="lightpink" stroke="none" opacity="0.16" stroke-width="0.5">
<title>
  code UP(lv,lV)
matrix (3,5)
       3-F
   col NO_PIN
   row GP28</title>
</circle>
<circle cx="123.82500000000002" cy="85.72500000000001" r="5" fill="lightpink" stroke="none" opacity="0.16" stroke-width="0.5">
<title>
  code UP(lb,lB)
matrix (3,6)
       3-G
   col NO_PIN
   row GP28</title>
</circle>
<circle cx="142.875" cy="85.72500000000001" r="5" fill="lightpink" stroke="none" opacity="0.16" stroke-width="0.5">
<title>
  code UP(ln,lN)
matrix (3,7)
       3-H
   col NO_PIN
   row GP28</title>
</circle>
<circle cx="161.925" cy="85.72500000000001" r="5" fill="lightpink" stroke="none" opacity="0.16" stroke-width="0.5">
<title>
  code UP(lm,lM)
matrix (3,8)
       3-I
   col NO_PIN
   row GP28</title>
</circle>
<circle cx="180.97500000000002" cy="85.72500000000001" r="5" fill="lightpink" stroke="none" opacity="0.16" stroke-width="0.5">
<title>
  code UP(lc1,lC1)
matrix (3,9)
       3-J
   col NO_PIN
   row GP28</title>
</circle>
<circle cx="200.025" cy="85.72500000000001" r="5" fill="lightpink" stroke="none" opacity="0.16" stroke-width="0.5">
<title>
  code UP(lp1,lP1)
matrix (3,10)
       3-K
   col NO_PIN
   row GP28</title>
</circle>
<circle cx="219.07500000000002" cy="85.72500000000001" r="5" fill="lightpink" stroke="none" opacity="0.16" stroke-width="0.5">
<title>
  code KC_MS_U
matrix (3,11)
       3-L
   col NO_PIN
   row GP28</title>
</circle>
<circle cx="238.12500000000003" cy="85.72500000000001" r="5" fill="lightpink" stroke="none" opacity="0.16" stroke-width="0.5">
<title>
  code UP(lq1,lQ1)
matrix (3,12)
       3-M
   col NO_PIN
   row GP28</title>
</circle>
<circle cx="9.525" cy="104.775" r="5" fill="lightpink" stroke="none" opacity="0.16" stroke-width="0.5">
<title>
  code KC_BTN1
matrix (4,0)
       4-A
   col NO_PIN
   row GP27</title>
</circle>
<circle cx="28.575000000000003" cy="104.775" r="5" fill="lightpink" stroke="none" opacity="0.16" stroke-width="0.5">
<title>
  code KC_BTN4
matrix (4,1)
       4-B
   col NO_PIN
   row GP27</title>
</circle>
<circle cx="47.625" cy="104.775" r="5" fill="lightpink" stroke="none" opacity="0.16" stroke-width="0.5">
<title>
  code KC_TRNS
matrix (4,2)
       4-C
   col NO_PIN
   row GP27</title>
</circle>
<circle cx="66.67500000000001" cy="104.775" r="5" fill="lightpink" stroke="none" opacity="0.16" stroke-width="0.5">
<title>
  code KC_TRNS
matrix (4,3)
       4-D
   col NO_PIN
   row GP27</title>
</circle>
<circle cx="85.72500000000001" cy="104.775" r="5" fill="lightpink" stroke="none" opacity="0.16" stroke-width="0.5">
<title>
  code KC_TRNS
matrix (4,4)
       4-E
   col NO_PIN
   row GP27</title>
</circle>
<circle cx="104.775" cy="104.775" r="5" fill="lightpink" stroke="none" opacity="0.16" stroke-width="0.5">
<title>
  code KC_TRNS
matrix (4,5)
       4-F
   col NO_PIN
   row GP27</title>
</circle>
<circle cx="123.82500000000002" cy="104.775" r="5" fill="lightpink" stroke="none" opacity="0.16" stroke-width="0.5">
<title>
  code KC_TRNS
matrix (4,6)
       4-G
   col NO_PIN
   row GP27</title>
</circle>
<circle cx="142.875" cy="104.775" r="5" fill="lightpink" stroke="none" opacity="0.16" stroke-width="0.5">
<title>
  code KC_TRNS
matrix (4,7)
       4-H
   col NO_PIN
   row GP27</title>
</circle>
<circle cx="161.925" cy="104.775" r="5" fill="lightpink" stroke="none" opacity="0.16" stroke-width="0.5">
<title>
  code KC_TRNS
matrix (4,8)
       4-I
   col NO_PIN
   row GP27</title>
</circle>
<circle cx="180.97500000000002" cy="104.775" r="5" fill="lightpink" stroke="none" opacity="0.16" stroke-width="0.5">
<title>
  code KC_TRNS
matrix (4,9)
       4-J
   col NO_PIN
   row GP27</title>
</circle>
<circle cx="200.025" cy="104.775" r="5" fill="lightpink" stroke="none" opacity="0.16" stroke-width="0.5">
<title>
  code KC_MS_L
matrix (4,10)
       4-K
   col NO_PIN
   row GP27</title>
</circle>
<circle cx="219.07500000000002" cy="104.775" r="5" fill="lightpink" stroke="none" opacity="0.16" stroke-width="0.5">
<title>
  code KC_MS_D
matrix (4,11)
       4-L
   col NO_PIN
   row GP27</title>
</circle>
<circle cx="238.12500000000003" cy="104.775" r="5" fill="lightpink" stroke="none" opacity="0.16" stroke-width="0.5">
<title>
  code KC_MS_R
matrix (4,12)
       4-M
   col NO_PIN
   row GP27</title>
</circle>
</svg>